<svg width="24" height="24" viewBox="0 0 24 24" fill="none" xmlns="http://www.w3.org/2000/svg">
<path fill-rule="evenodd" clip-rule="evenodd" d="M13 0H11V11H0V13H11V24H13V13H24V11H13V0Z" fill="#905DB4"/>
</svg>
