<svg width="16" height="16" viewBox="0 0 16 16" fill="none" xmlns="http://www.w3.org/2000/svg">
<path fill-rule="evenodd" clip-rule="evenodd" d="M4.66673 2C3.19393 2 2 3.19393 2 4.66673C2 6.13952 3.19393 7.33345 4.66673 7.33345H11.3335C12.8063 7.33345 14.0003 6.13952 14.0003 4.66673C14.0003 3.19393 12.8063 2 11.3335 2H4.66673ZM6.00256 4.66629C6.00256 5.40269 5.40559 5.99966 4.6692 5.99966C3.9328 5.99966 3.33583 5.40269 3.33583 4.66629C3.33583 3.9299 3.9328 3.33293 4.6692 3.33293C5.40559 3.33293 6.00256 3.9299 6.00256 4.66629Z" fill="#5F41B2"/>
<path opacity="0.3" fill-rule="evenodd" clip-rule="evenodd" d="M4.66673 8.6665C3.19393 8.6665 2 9.86044 2 11.3332C2 12.806 3.19393 14 4.66673 14H11.3335C12.8063 14 14.0003 12.806 14.0003 11.3332C14.0003 9.86044 12.8063 8.6665 11.3335 8.6665H4.66673ZM12.6667 11.3329C12.6667 12.0693 12.0698 12.6662 11.3334 12.6662C10.597 12.6662 10 12.0693 10 11.3329C10 10.5965 10.597 9.99951 11.3334 9.99951C12.0698 9.99951 12.6667 10.5965 12.6667 11.3329Z" fill="#5F41B2"/>
</svg>
