<svg width="32" height="32" viewBox="0 0 32 32" fill="none" xmlns="http://www.w3.org/2000/svg">
<circle cx="16" cy="16" r="16" fill="#905DB4"/>
<path fill-rule="evenodd" clip-rule="evenodd" d="M16.5 4H14.5V15H3.5L3.5 17H14.5L14.5 28H16.5V17H27.5V15L16.5 15V4Z" fill="white"/>
</svg>
