<svg width="33" height="30" viewBox="0 0 33 30" fill="none" xmlns="http://www.w3.org/2000/svg">
<g opacity="0.9">
<path fill-rule="evenodd" clip-rule="evenodd" d="M8.06395 9.75757H1.14844V29.9989H8.06395V9.75757Z" fill="white"/>
<path fill-rule="evenodd" clip-rule="evenodd" d="M8.51431 3.49629C8.46943 1.51163 7.01255 0 4.64679 0C2.28103 0 0.734375 1.51163 0.734375 3.49629C0.734375 5.43983 2.23531 6.99499 4.55702 6.99499H4.60121C7.01255 6.99499 8.51431 5.43983 8.51431 3.49629Z" fill="white"/>
<path fill-rule="evenodd" clip-rule="evenodd" d="M32.9989 18.3937C32.9989 12.1764 29.5872 9.28278 25.0365 9.28278C21.3648 9.28278 19.7209 11.2474 18.8031 12.6256V9.75862H11.8867C11.9779 11.658 11.8867 30 11.8867 30H18.8031V18.6955C18.8031 18.0906 18.848 17.4871 19.0308 17.054C19.5306 15.8454 20.6686 14.5942 22.5792 14.5942C25.0826 14.5942 26.0833 16.4503 26.0833 19.1703V29.9995H32.9986L32.9989 18.3937Z" fill="white"/>
</g>
</svg>
