<svg width="20" height="20" viewBox="0 0 20 20" fill="none" xmlns="http://www.w3.org/2000/svg">
<path fill-rule="evenodd" clip-rule="evenodd" d="M10.0013 18.3334C14.6037 18.3334 18.3346 14.6025 18.3346 10.0001C18.3346 5.39771 14.6037 1.66675 10.0013 1.66675C5.39893 1.66675 1.66797 5.39771 1.66797 10.0001C1.66797 14.6025 5.39893 18.3334 10.0013 18.3334Z" fill="#E0E0E0"/>
<rect x="9.16797" y="5.83325" width="1.66667" height="6.66667" rx="0.833333" fill="black"/>
<rect x="9.16797" y="13.3333" width="1.66667" height="1.66667" rx="0.833333" fill="black"/>
</svg>
