<svg width="43" height="30" viewBox="0 0 43 30" fill="none" xmlns="http://www.w3.org/2000/svg">
<g opacity="0.9">
<path fill-rule="evenodd" clip-rule="evenodd" d="M41.8555 4.68458C41.3679 2.84056 39.9312 1.38846 38.1069 0.895642C34.8009 -3.78219e-07 21.5429 0 21.5429 0C21.5429 0 8.28481 -3.78219e-07 4.97855 0.895642C3.15426 1.38846 1.71757 2.84056 1.23 4.68458C0.344238 8.02667 0.344238 15 0.344238 15C0.344238 15 0.344238 21.973 1.23 25.3153C1.71757 27.1594 3.15426 28.6115 4.97855 29.1045C8.28481 29.9999 21.5429 29.9999 21.5429 29.9999C21.5429 29.9999 34.8009 29.9999 38.1069 29.1045C39.9312 28.6115 41.3679 27.1594 41.8555 25.3153C42.7415 21.973 42.7415 15 42.7415 15C42.7415 15 42.7415 8.02667 41.8555 4.68458Z" fill="white"/>
<path fill-rule="evenodd" clip-rule="evenodd" d="M18.3213 22.1031V9.05963L28.9206 15.5816L18.3213 22.1031Z" fill="#101010"/>
</g>
</svg>
