<svg width="212" height="220" viewBox="0 0 212 220" fill="none" xmlns="http://www.w3.org/2000/svg">
<g clip-path="url(#clip0)">
<path d="M172.069 101.208L163.624 57.88C165.617 54.1681 164.807 51.0636 161.8 48.4315L102.758 66.2487V66.6537L102.521 111.332L172.069 101.208Z" fill="#E4ECF9"/>
<path d="M164.637 63.043L163.624 57.8801C165.617 54.1681 164.806 51.0636 161.8 48.4315L113.465 63.043H164.637Z" fill="#E4ECF9"/>
<path d="M179.668 187.257H181.999L145.553 84.0322H143.223L179.668 187.257Z" fill="#544C4A"/>
<path d="M90.1939 187.257L103.705 128.474H101.374L87.8633 187.257H90.1939Z" fill="#544C4A"/>
<path d="M124.951 187.258L138.428 128.744H136.097L122.62 187.258H124.951Z" fill="#544C4A"/>
<path d="M167.949 55.4168L152.682 139.745H84.249L102.387 54.3032L167.949 55.4168Z" fill="#7D8AF3"/>
<path d="M164.942 58.555L150.586 136.91L82.998 137.012L83.2345 135.392H149.438L163.793 57.0365L164.942 58.555Z" fill="#6D7AE0"/>
<path d="M163.793 57.0364L149.438 135.392H83.2344L100.326 55.9904L163.793 57.0364Z" fill="#7D8AF3"/>
<path d="M161.835 57.0027L147.074 133.333H85.2959L100.057 55.9904L161.835 57.0027Z" fill="#E4ECF9"/>
<path d="M161.834 57.3065L142.919 131.612H78.4385L102.826 57.7115L161.834 57.3065Z" fill="#D1DCF8"/>
<path d="M161.733 56.9691L159.774 63.583L140.15 129.892H75.6689L99.921 56.3617L100.056 55.9905L161.733 56.9691Z" fill="#F3F6FD"/>
<path d="M161.734 56.9691L159.775 63.583L99.9219 56.3617L100.057 55.9905L161.734 56.9691Z" fill="#E4ECF9"/>
<path d="M161.767 57.0703L101.205 56.0242C101.205 56.0242 89.8556 55.2818 99.1781 44.281L161.767 48.2629C161.767 48.2629 154.775 51.6711 161.767 57.0703Z" fill="#F3F6FD"/>
<path d="M165.617 68.1722L159.301 103.064L164.502 102.322L165.617 68.1722Z" fill="#D1DCF8"/>
<path d="M32.5342 185.773H35.2364L48.0379 130.836H51.0103L57.0226 185.773H59.7586C60.6368 178.45 64.8927 136.269 63.4403 116.967C63.3052 115.044 63.1025 113.323 62.8323 111.906L36.655 115.415C36.5537 117.474 32.568 185.638 32.5342 185.773Z" fill="#7D8AF3"/>
<path d="M36.2832 121.658C38.9854 121.86 41.7213 121.928 44.4573 121.827C51.0438 121.557 57.6979 120.106 63.4401 116.967C63.305 115.044 63.1023 113.323 62.8321 111.906L36.6548 115.415L36.2832 121.658Z" fill="#7783E7"/>
<path d="M35.2363 185.773L48.0379 130.837H51.0103L57.0226 185.773H58.1373L53.5098 130.6C53.5098 130.6 54.7596 128.677 56.7186 127.766C56.7186 127.766 45.6059 129.116 42.9713 127.766L35.2363 185.773Z" fill="#7783E7"/>
<path d="M62.799 88.0493L64.2514 112.379C64.3189 113.628 63.5758 114.775 62.3936 115.18C56.9893 117.036 46.1468 118.15 40.5398 118.082C40.2696 118.082 39.9994 118.082 39.7629 118.082C38.6145 118.082 37.6687 118.048 36.9932 118.015C36.3176 117.981 35.9123 117.981 35.9123 117.981L35.507 104.989L35.4732 104.011C35.4394 104.044 35.4057 104.044 35.3719 104.044C35.2706 104.078 35.1692 104.044 35.0341 104.011C34.1559 103.707 32.7373 102.02 31.6564 100.602C30.8457 99.5225 30.2377 98.6114 30.2377 98.6114C30.0013 95.8106 29.9338 93.111 30.0689 90.5802C30.1026 89.4666 30.204 88.3868 30.3053 87.3407C31.2173 77.8921 34.1559 70.9407 35.7772 68.8485C35.8448 68.7811 35.8785 68.7136 35.9461 68.6461C36.3514 68.1736 37.4323 67.8362 38.9523 67.6337C39.3914 67.5662 39.8305 67.5325 40.3371 67.465C40.6749 67.4313 41.0465 67.3975 41.418 67.3975C41.6544 67.3975 41.8909 67.3638 42.1273 67.3638C42.33 67.3638 42.5326 67.3638 42.7691 67.3638C46.0455 67.2963 49.9636 67.6 53.4089 68.3424C53.5778 68.3761 53.7467 68.4099 53.9156 68.4436C53.9493 68.4436 53.9831 68.4436 54.0169 68.4773C54.2196 68.5111 54.456 68.5786 54.6587 68.6461C54.9964 68.7473 55.3342 68.8148 55.672 68.916C56.0773 69.051 56.4826 69.1522 56.8542 69.2872C57.9688 69.6922 58.9484 70.1308 59.759 70.637C61.4817 71.5481 66.9536 76.7111 71.6824 81.0304C71.7162 82.2115 71.581 76.7786 71.9526 92.5036C68.9802 92.9085 65.8727 90.2765 62.799 88.0493Z" fill="#1F39FF"/>
<path d="M62.7992 88.0481L64.2516 112.378C64.3192 113.627 63.5761 114.774 62.3939 115.179C60.8401 115.719 58.8473 116.191 56.6855 116.596C58.5771 114.436 59.7593 111.636 60.3673 108.835C61.1104 105.494 61.1104 102.018 61.1104 98.6102C61.1104 92.7386 61.1441 86.8333 61.1441 80.9617C63.137 85.8209 67.0889 89.8365 71.8853 92.0637V92.5699C68.9804 92.9073 65.8729 90.2752 62.7992 88.0481Z" fill="#041EEA"/>
<path d="M40.5055 105.562C39.6611 108.767 38.8504 111.939 38.006 115.145C37.7696 116.09 37.4656 117.102 37.0265 118.013C36.3509 117.98 35.9456 117.98 35.9456 117.98L35.5403 104.988L35.5065 104.009C35.4727 104.043 35.4389 104.043 35.4052 104.043C35.3038 104.077 35.2025 104.043 35.0674 104.009C34.5945 103.841 33.4461 103.301 32.3314 102.592C30.9466 101.715 30.1021 100.162 30.1021 98.5089L30.0684 90.5789C30.1021 89.4653 30.2035 88.3855 30.3048 87.3394C30.6763 87.7106 31.0817 88.048 31.5208 88.318C33.7838 89.7352 36.79 89.8702 39.1544 88.6554C41.5188 87.4406 43.2077 84.9435 43.3766 82.3114C44.4912 90.0727 42.4984 97.9352 40.5055 105.562Z" fill="#041EEA"/>
<path d="M42.0596 67.3625C42.3636 69.7583 44.4578 71.9855 47.2613 72.6604C50.5376 73.4703 53.51 71.8505 53.9154 69.016C53.9491 68.8472 53.9491 68.6448 53.9491 68.476C53.9154 68.476 53.8816 68.476 53.8478 68.4423C53.6789 68.4086 53.51 68.3748 53.3412 68.3411C49.8621 67.5987 45.9439 67.295 42.7013 67.3625C42.4987 67.3287 42.2622 67.3287 42.0596 67.3625Z" fill="#F3F6FD"/>
<path d="M72.6945 80.0168C76.0385 80.4892 77.7274 84.2687 77.2545 87.7106C76.7478 91.1526 74.2483 92.9411 70.9044 92.4686C67.5604 91.9962 65.2636 88.8242 65.7702 85.3822C66.2769 81.9403 69.3844 79.5444 72.6945 80.0168Z" fill="#003567"/>
<path d="M79.3487 67.3962L79.4838 67.4637C80.362 65.5402 82.7602 62.9082 82.2198 65.1016C81.6793 67.295 80.8011 68.611 80.8011 68.611C80.8011 68.611 80.9362 68.8472 81.0713 68.6785C81.6793 67.9024 83.1655 65.6415 83.1318 67.3287C83.0642 69.3872 81.0713 71.8505 79.5176 73.2003C79.4838 73.2341 79.4838 73.2341 79.45 73.2678C79.2812 73.4365 79.146 73.6727 79.0109 73.9764C77.795 76.5748 77.0856 83.9311 76.6465 87.9468C76.2074 91.8612 70.4991 93.2784 67.7969 89.904C67.3578 89.364 67.02 88.7229 66.7836 87.9805C64.9934 82.3114 73.9444 76.1024 75.2617 72.6604C75.7683 71.3781 74.5861 67.8686 74.4848 67.16C74.3497 66.4851 75.2279 65.6415 75.5657 66.6538C75.9372 67.6662 76.8492 70.0958 77.9976 67.16C79.146 64.2242 79.7878 63.2456 80.3282 63.7855C80.9025 64.2917 79.4163 66.89 79.3487 67.3962Z" fill="#FEC9AC"/>
<path d="M77.1184 79.0717C77.5237 77.2832 78.098 75.5285 79.0099 73.9425C77.794 76.5409 77.0846 83.8972 76.6455 87.9128C76.2064 91.8272 70.4981 93.2445 67.7959 89.87C68.1337 90.0725 68.5052 90.275 68.8768 90.3762C69.9576 90.7136 71.2074 90.6124 72.2207 90.1062C73.6394 89.3976 74.5513 87.9803 75.1931 86.5293C76.1727 84.1672 76.5442 81.5688 77.1184 79.0717Z" fill="#FFAB90"/>
<path d="M81.4083 71.1755C80.8003 71.9517 80.1248 72.6603 79.5168 73.2002C79.483 73.234 79.483 73.234 79.4492 73.2677C80.0234 72.4241 80.6314 71.7829 81.4083 71.1755Z" fill="#FFAB90"/>
<path d="M42.7021 67.329C43.0399 69.32 44.9652 71.2434 47.3634 71.8508C47.8701 71.9858 48.4105 72.0533 48.9172 72.0533C51.214 72.0533 53.038 70.7372 53.3082 68.8475C53.342 68.6788 53.342 68.5101 53.342 68.3076L52.5989 64.5957L44.087 62.436L42.7021 67.329Z" fill="#FFAB90"/>
<path d="M39.6631 55.2483C39.6631 55.2483 41.8586 58.5553 42.2639 60.04C42.6693 61.5248 42.9057 63.482 43.3448 63.7857C43.7839 64.0894 54.086 67.0589 54.3899 65.1018C54.6939 63.1446 56.8219 48.8368 54.5926 46.5084C52.3633 44.18 45.9794 44.3825 45.5403 44.9899C45.0674 45.5973 39.8657 52.6162 39.6631 55.2483Z" fill="#FEC9AC"/>
<path d="M55.4346 48.7692C55.4346 48.7692 53.8471 45.9683 49.5574 46.407C45.2677 46.8795 45.0988 46.407 45.4703 46.7445C45.8081 47.0482 46.1796 47.8581 46.3148 48.4992C46.3485 48.6004 46.3485 48.7017 46.3823 48.8029C46.4499 49.4103 45.3014 57.5091 45.2001 58.3864C45.2339 57.644 44.3219 54.5395 43.2748 54.3033C43.2748 54.3033 40.7415 53.9321 41.1468 55.7543C41.5184 57.6103 43.0721 59.5337 42.329 59.9724C42.1602 60.0737 36.418 50.1527 37.7691 46.5083C39.0864 42.8301 41.8562 44.1799 41.8562 44.1799C41.8562 44.1799 41.8899 44.1461 41.9575 44.0786C42.4979 43.505 45.369 40.6704 49.9965 41.9865C55.1644 43.4375 55.8399 40.5354 56.3128 41.0416C56.7181 41.5815 56.7857 48.1618 55.4346 48.7692Z" fill="#3A3331"/>
<path d="M41.9258 56.6318C41.8921 56.2606 41.9258 55.8894 42.0947 55.5519C42.2636 55.2145 42.6014 54.9783 42.9729 54.9783C43.2431 54.9783 43.5134 55.1133 43.6822 55.282C43.8511 55.4507 44.02 55.6869 44.1551 55.9231C43.9862 55.7207 43.716 55.5857 43.4458 55.6194C43.1756 55.6194 42.9392 55.7881 42.7703 55.9906C42.5676 56.2606 42.5676 56.6318 42.5676 56.9692C42.5676 57.2729 42.5676 57.5766 42.5676 57.8803C42.5676 58.0828 42.5676 58.319 42.3312 58.1165C42.1623 57.9816 42.0947 57.6441 42.0272 57.4416C42.0272 57.2054 41.9596 56.9017 41.9258 56.6318Z" fill="#FFAB90"/>
<path d="M45.2003 58.4203C45.2341 57.6779 44.3221 54.5734 43.275 54.3372C43.275 54.3372 40.7417 53.966 41.1471 55.7882C41.5186 57.6441 43.0724 59.5676 42.3293 60.0063C42.1604 60.1075 37.1613 48.803 38.4787 45.1248C39.796 41.4467 41.8564 44.18 41.8564 44.18C41.8564 44.18 41.8902 44.1463 41.9577 44.0788C42.7346 44.3825 43.4439 44.8886 43.8155 45.5973C44.1532 46.2047 44.2208 46.9808 44.6937 47.5207C45.1328 48.0269 45.8083 48.1956 46.4163 48.5331C46.4501 48.6343 46.4501 48.7355 46.4839 48.8368C46.4501 49.4442 45.3017 57.5767 45.2003 58.4203Z" fill="#3A3331"/>
<path d="M53.2594 55.4152C53.5946 55.3956 53.8425 54.9724 53.8131 54.4701C53.7836 53.9677 53.4881 53.5764 53.1529 53.5961C52.8176 53.6157 52.5697 54.0388 52.5992 54.5412C52.6286 55.0435 52.9241 55.4348 53.2594 55.4152Z" fill="#2D282A"/>
<path d="M48.5308 55.0454C48.8661 55.0258 49.114 54.6027 49.0845 54.1003C49.0551 53.598 48.7595 53.2067 48.4243 53.2263C48.0891 53.2459 47.8412 53.6691 47.8706 54.1714C47.9 54.6737 48.1956 55.0651 48.5308 55.0454Z" fill="#2D282A"/>
<path d="M50.9415 58.5895C50.4348 58.4208 49.8944 58.1509 49.658 58.0496C49.5904 58.0159 49.5566 57.9147 49.5904 57.8472C49.6242 57.7797 49.7255 57.7459 49.8268 57.7797C50.5362 58.1509 51.4144 58.4546 51.6508 58.3871C51.8197 58.0834 51.4481 55.9237 50.9753 54.0003C50.9415 53.9328 51.009 53.8315 51.1104 53.8315C51.2117 53.8315 51.2793 53.8653 51.313 53.9665C51.313 53.9665 51.5833 55.0801 51.7859 56.1599C52.225 58.4883 51.9886 58.5895 51.8535 58.6908C51.617 58.7583 51.2793 58.6908 50.9415 58.5895Z" fill="#FFAB90"/>
<path d="M52.7648 60.7823L52.7986 61.0185C52.7986 61.0522 52.7986 61.0522 52.7648 61.0522C52.6973 61.221 52.6297 61.3559 52.5622 61.4909C52.2582 61.9971 51.8866 62.3008 51.5151 62.537C51.0422 62.807 50.5693 62.8745 50.1302 62.807C49.6911 62.7395 49.2858 62.537 48.948 62.1658C48.644 61.8284 48.4076 61.3897 48.3062 60.681C48.3062 60.5798 48.2725 60.5123 48.2725 60.4111L48.3738 60.2086C48.7453 60.2761 49.0831 60.3436 49.4547 60.4111C49.8262 60.4786 50.1978 60.5461 50.5693 60.5798C50.9409 60.6473 51.3124 60.681 51.684 60.7148C52.0217 60.7485 52.3933 60.7823 52.7648 60.7823Z" fill="#2D282A"/>
<path d="M52.7654 60.7823L52.7992 61.0185C52.7992 61.0522 52.7992 61.0522 52.7654 61.0522C52.6978 61.221 52.6303 61.3559 52.5627 61.4909C52.0223 61.6259 51.3468 61.6934 50.6374 61.5921C49.6241 61.4909 48.7797 61.1197 48.273 60.681C48.273 60.5798 48.2393 60.5123 48.2393 60.4111L48.3406 60.2086C48.7121 60.2761 49.0499 60.3436 49.4215 60.4111C49.793 60.4786 50.1646 60.5461 50.5361 60.5798C50.9077 60.6473 51.2792 60.681 51.6508 60.7148C52.0223 60.7485 52.3939 60.7823 52.7654 60.7823Z" fill="white"/>
<path d="M46.6188 51.7728C46.7876 51.5703 46.9903 51.4016 47.193 51.3004C47.8685 50.9292 49.456 50.4905 49.6587 50.9629C49.9289 51.6041 49.6925 51.9415 49.2196 52.0428C48.7467 52.144 46.6525 52.2452 46.5512 52.1102C46.4837 52.0427 46.4837 51.9415 46.6188 51.7728Z" fill="#2D282A"/>
<path d="M54.8613 51.9075C54.7262 51.7051 54.5235 51.5026 54.3208 51.3676C53.6791 50.9289 52.1591 50.3215 51.9227 50.8277C51.6187 51.4351 51.7876 51.8063 52.2267 51.9413C52.6658 52.0762 54.76 52.3799 54.8951 52.2787C54.9626 52.1775 54.9626 52.11 54.8613 51.9075Z" fill="#2D282A"/>
<path d="M56.6508 41.5816C56.4482 39.8268 55.0295 38.4771 53.2731 38.4433C53.1718 38.4433 53.1042 38.4433 53.0367 38.4433C52.2598 38.5445 51.5505 39.1519 51.4829 39.9281C51.2127 38.9157 50.2669 38.1733 49.2199 38.0384C48.1728 37.8696 47.1257 38.2746 46.315 38.9157C45.5044 39.5906 44.9639 40.5017 44.6262 41.4803C43.8493 40.7717 42.6333 40.6367 41.6538 41.0079C40.6742 41.3791 39.8973 42.189 39.3907 43.1001C38.884 44.0112 38.6476 45.0573 38.4449 46.1034C38.0396 48.4318 39.3569 50.8614 39.6609 53.1898C39.8298 50.6252 40.0325 48.263 42.1604 46.812C44.2884 45.361 46.9568 44.7873 49.5576 44.9898C51.1452 45.091 52.7665 45.5297 54.0838 46.4408C54.5904 46.7783 54.962 47.2507 55.6037 47.1832C56.3468 47.1495 57.0562 46.6433 57.4277 46.0021C57.833 45.2935 57.7317 44.4161 57.2926 43.7412C56.9211 43.0663 56.7522 42.3577 56.6508 41.5816Z" fill="#3A3331"/>
<path d="M34.7304 185.368H32.6362L31.6904 188H37.9054L34.7304 185.368Z" fill="#E8CBB3"/>
<path d="M59.4208 185.368H57.3266L56.3809 188H62.5621L59.4208 185.368Z" fill="#E8CBB3"/>
<path d="M60.1309 83.2566C60.1984 84.0327 60.2997 84.8088 60.3673 85.585C60.266 84.8088 60.1984 84.0327 60.1309 83.2566Z" fill="#041EEA"/>
<path d="M133.427 125.741H86.2061L101.338 81.0627H148.525L133.427 125.741ZM86.7803 125.336H133.123L147.951 81.4677H101.608L86.7803 125.336Z" fill="#544C4A"/>
<path d="M147.342 78.8693L147.714 77.7557H104.411L104.04 78.8693L102.216 77.5533L104.918 76.2035L104.546 77.3171H147.849L148.22 76.2035L150.044 77.5533L147.342 78.8693Z" fill="#544C4A"/>
<path d="M81.4434 124.897H82.558L97.0822 81.9064H96.0013L98.0955 79.6455L98.6697 81.9064H97.5551L82.9971 124.897H84.1118L82.0176 127.158L81.4434 124.897Z" fill="#544C4A"/>
<path d="M113.464 99.1836H95.1904L101.338 81.0289H119.611L113.464 99.1836ZM95.7646 98.7787H113.194L119.037 81.4676H101.608L95.7646 98.7787Z" fill="#544C4A"/>
<path d="M142.85 97.2943H127.616L127.751 96.8552H142.985L142.85 97.2943Z" fill="#544C4A"/>
<path d="M137.648 112.446H122.482L122.618 112.007H137.783L137.648 112.446Z" fill="#544C4A"/>
<path d="M125.254 112.209H124.849L127.01 105.798H127.449L125.254 112.209Z" fill="#544C4A"/>
<path d="M128.226 103.402H127.82L129.982 96.9902H130.421L128.226 103.402Z" fill="#544C4A"/>
<path d="M119.578 125.741H95.292L98.2982 116.866H122.584L119.578 125.741ZM95.8662 125.336H119.308L122.01 117.305H98.5684L95.8662 125.336Z" fill="#544C4A"/>
<path d="M116.033 112.817H91.2402L91.3753 112.412H116.168L116.033 112.817Z" fill="#544C4A"/>
<path d="M143.525 90.7474H140.215L140.891 88.7565H138.999L139.776 86.3944H137.479L138.425 83.661H136.128L136.297 83.2561H138.965L138.053 85.9557H140.35L139.539 88.3178H141.465L140.789 90.3088H143.66L143.525 90.7474Z" fill="#544C4A"/>
<path d="M120.356 93.1435H115.12L116.877 87.9468H117.079C118.43 87.9468 119.511 88.4529 120.153 89.3978C120.795 90.3427 120.896 91.5912 120.423 92.941L120.356 93.1435ZM115.661 92.7048H120.052C120.389 91.5575 120.288 90.4776 119.714 89.6678C119.173 88.8579 118.261 88.3855 117.113 88.318L115.661 92.7048Z" fill="#544C4A"/>
<path d="M103.094 104.009H102.892L104.648 98.8125H109.883L109.816 99.015C109.377 100.365 108.431 101.613 107.148 102.558C105.898 103.469 104.445 104.009 103.094 104.009ZM104.952 99.2174L103.466 103.571C104.648 103.503 105.864 103.064 106.979 102.221C108.06 101.411 108.904 100.331 109.343 99.1837H104.952V99.2174Z" fill="#544C4A"/>
<path d="M80.2606 56.1255L41.6533 110.218C41.3493 110.657 41.4506 111.264 41.8897 111.568L46.8887 115.078C47.3278 115.381 47.9358 115.28 48.2398 114.841L86.8471 60.7485C87.1511 60.3099 87.0498 59.7025 86.6107 59.3987L81.6117 55.8893C81.1726 55.5856 80.5646 55.6868 80.2606 56.1255ZM46.0105 112.142C45.8078 112.446 45.4025 112.513 45.0985 112.311C44.7945 112.108 44.727 111.703 44.9296 111.399C45.1323 111.096 45.5376 111.028 45.8416 111.231C46.1456 111.433 46.2132 111.838 46.0105 112.142Z" fill="#7D8AF3"/>
<path d="M84.0775 57.644L86.6107 59.4325C87.0499 59.7362 87.1512 60.3436 86.8472 60.7823L48.2398 114.875C47.9359 115.314 47.3279 115.415 46.8888 115.111L44.3555 113.323L45.0986 112.311C45.4026 112.513 45.8079 112.446 46.0106 112.142C46.2132 111.838 46.1457 111.433 45.8417 111.231L84.0775 57.644Z" fill="#7783E7"/>
<path d="M49.6927 112.85L49.4563 113.154L47.2607 111.602L47.4634 111.298L49.6927 112.85Z" fill="#3A3331"/>
<path d="M48.9502 111.568L50.0311 112.344L50.2675 112.007L49.1866 111.231L48.9502 111.568Z" fill="#3A3331"/>
<path d="M49.5244 110.725L50.6391 111.501L50.8755 111.197L49.7609 110.421L49.5244 110.725Z" fill="#3A3331"/>
<path d="M51.4486 110.353L51.2121 110.691L49.0166 109.139L49.253 108.801L51.4486 110.353Z" fill="#3A3331"/>
<path d="M50.7051 109.071L51.8197 109.847L52.0562 109.544L50.9415 108.768L50.7051 109.071Z" fill="#3A3331"/>
<path d="M51.3135 108.261L52.3943 109.037L52.6308 108.7L51.5161 107.924L51.3135 108.261Z" fill="#3A3331"/>
<path d="M53.2044 107.89L53.0018 108.194L50.7725 106.641L51.0089 106.338L53.2044 107.89Z" fill="#3A3331"/>
<path d="M52.4961 106.608L53.577 107.384L53.8134 107.047L52.6988 106.27L52.4961 106.608Z" fill="#3A3331"/>
<path d="M53.0713 105.764L54.1859 106.54L54.3886 106.236L53.3077 105.46L53.0713 105.764Z" fill="#3A3331"/>
<path d="M54.9954 105.393L54.759 105.73L52.5635 104.178L52.7999 103.874L54.9954 105.393Z" fill="#3A3331"/>
<path d="M54.2529 104.144L55.3338 104.887L55.5702 104.583L54.4894 103.807L54.2529 104.144Z" fill="#3A3331"/>
<path d="M54.8262 103.301L55.9408 104.077L56.1773 103.773L55.0626 102.997L54.8262 103.301Z" fill="#3A3331"/>
<path d="M56.7513 102.93L56.5149 103.267L54.3193 101.715L54.5558 101.377L56.7513 102.93Z" fill="#3A3331"/>
<path d="M56.0098 101.647L57.1244 102.423L57.3609 102.12L56.2462 101.344L56.0098 101.647Z" fill="#3A3331"/>
<path d="M56.6162 100.837L57.6971 101.613L57.9335 101.276L56.8189 100.5L56.6162 100.837Z" fill="#3A3331"/>
<path d="M58.5091 100.466L58.3064 100.77L56.0771 99.2176L56.3136 98.9139L58.5091 100.466Z" fill="#3A3331"/>
<path d="M57.7998 99.184L58.8807 99.9601L59.1171 99.6227L58.0025 98.8466L57.7998 99.184Z" fill="#3A3331"/>
<path d="M58.374 98.3403L59.4887 99.1165L59.6913 98.8128L58.6105 98.0366L58.374 98.3403Z" fill="#3A3331"/>
<path d="M60.2972 97.9691L60.0607 98.3066L57.8652 96.7543L58.1017 96.4169L60.2972 97.9691Z" fill="#3A3331"/>
<path d="M59.5557 96.6869L60.6703 97.463L60.873 97.1593L59.7921 96.3832L59.5557 96.6869Z" fill="#3A3331"/>
<path d="M60.1299 95.8769L61.2445 96.653L61.481 96.3156L60.3663 95.5394L60.1299 95.8769Z" fill="#3A3331"/>
<path d="M62.055 95.5057L61.8186 95.8094L59.623 94.2572L59.8595 93.9535L62.055 95.5057Z" fill="#3A3331"/>
<path d="M61.3125 94.2234L62.4271 94.9996L62.6636 94.6621L61.5489 93.886L61.3125 94.2234Z" fill="#3A3331"/>
<path d="M61.9189 93.3799L62.9998 94.156L63.2363 93.8523L62.1216 93.0762L61.9189 93.3799Z" fill="#3A3331"/>
<path d="M63.8128 93.0086L63.6101 93.346L61.3809 91.7937L61.6173 91.4563L63.8128 93.0086Z" fill="#3A3331"/>
<path d="M63.1035 91.7263L64.1844 92.5024L64.4208 92.1987L63.3062 91.4226L63.1035 91.7263Z" fill="#3A3331"/>
<path d="M63.6768 90.9165L64.7914 91.6927L64.9941 91.3552L63.9132 90.5791L63.6768 90.9165Z" fill="#3A3331"/>
<path d="M65.6029 90.5453L65.3664 90.849L63.1709 89.2967L63.4073 88.993L65.6029 90.5453Z" fill="#3A3331"/>
<path d="M64.8584 89.2629L65.973 90.039L66.1757 89.7015L65.0948 88.9254L64.8584 89.2629Z" fill="#3A3331"/>
<path d="M65.4336 88.4193L66.5482 89.1954L66.7847 88.8917L65.67 88.1156L65.4336 88.4193Z" fill="#3A3331"/>
<path d="M67.3587 88.0482L67.1223 88.3856L64.9268 86.8334L65.1632 86.5297L67.3587 88.0482Z" fill="#3A3331"/>
<path d="M66.6152 86.7995L67.7299 87.5419L67.9663 87.2382L66.8517 86.462L66.6152 86.7995Z" fill="#3A3331"/>
<path d="M67.2246 85.956L68.3055 86.7322L68.5419 86.4285L67.4273 85.6523L67.2246 85.956Z" fill="#3A3331"/>
<path d="M69.1478 85.5847L68.9113 85.9222L66.7158 84.3699L66.9185 84.0325L69.1478 85.5847Z" fill="#3A3331"/>
<path d="M68.4053 84.3025L69.4861 85.0786L69.7226 84.7749L68.6079 83.9988L68.4053 84.3025Z" fill="#3A3331"/>
<path d="M68.9795 83.4926L70.0941 84.2687L70.2968 83.9313L69.2159 83.1552L68.9795 83.4926Z" fill="#3A3331"/>
<path d="M70.9056 83.1214L70.6692 83.4251L68.4736 81.8728L68.7101 81.5691L70.9056 83.1214Z" fill="#3A3331"/>
<path d="M70.1621 81.839L71.2768 82.6152L71.4794 82.2777L70.3986 81.5016L70.1621 81.839Z" fill="#3A3331"/>
<path d="M70.7354 80.9955L71.85 81.7716L72.0864 81.4679L70.9718 80.6918L70.7354 80.9955Z" fill="#3A3331"/>
<path d="M72.6624 80.6243L72.426 80.9617L70.2305 79.4095L70.4669 79.072L72.6624 80.6243Z" fill="#3A3331"/>
<path d="M71.918 79.3419L73.0326 80.118L73.2691 79.8143L72.1544 79.0382L71.918 79.3419Z" fill="#3A3331"/>
<path d="M72.5264 78.5322L73.6072 79.3083L73.8437 78.9708L72.7628 78.1947L72.5264 78.5322Z" fill="#3A3331"/>
<path d="M74.4505 78.1609L74.2141 78.4646L72.0186 76.9123L72.2212 76.6086L74.4505 78.1609Z" fill="#3A3331"/>
<path d="M73.708 76.8787L74.7889 77.6548L75.0253 77.3174L73.9107 76.5413L73.708 76.8787Z" fill="#3A3331"/>
<path d="M74.2832 76.035L75.3978 76.8112L75.6005 76.5075L74.5196 75.7313L74.2832 76.035Z" fill="#3A3331"/>
<path d="M76.2073 75.6638L75.9709 76.0013L73.7754 74.449L74.0118 74.1116L76.2073 75.6638Z" fill="#3A3331"/>
<path d="M75.4639 74.3816L76.5785 75.1577L76.7812 74.854L75.7003 74.0779L75.4639 74.3816Z" fill="#3A3331"/>
<path d="M76.0381 73.5717L77.1527 74.3478L77.3892 74.0104L76.2745 73.2343L76.0381 73.5717Z" fill="#3A3331"/>
<path d="M77.9642 73.2006L77.7615 73.5043L75.5322 71.952L75.7687 71.6483L77.9642 73.2006Z" fill="#3A3331"/>
<path d="M77.2207 71.9181L78.3353 72.6943L78.5718 72.3568L77.4571 71.5807L77.2207 71.9181Z" fill="#3A3331"/>
<path d="M77.8291 71.0745L78.91 71.8506L79.1464 71.5469L78.0655 70.7708L77.8291 71.0745Z" fill="#3A3331"/>
<path d="M79.7542 70.7372L79.5178 71.0409L77.3223 69.4886L77.5249 69.1849L79.7542 70.7372Z" fill="#3A3331"/>
<path d="M79.0107 69.4548L80.0916 70.2309L80.3281 69.8934L79.2134 69.1173L79.0107 69.4548Z" fill="#3A3331"/>
<path d="M79.585 68.6111L80.6996 69.3872L80.936 69.0835L79.8214 68.3074L79.585 68.6111Z" fill="#3A3331"/>
<path d="M81.5111 68.24L81.2746 68.5775L79.0791 67.0252L79.3155 66.6877L81.5111 68.24Z" fill="#3A3331"/>
<path d="M80.7676 66.9578L81.8822 67.7339L82.0849 67.4302L81.004 66.6541L80.7676 66.9578Z" fill="#3A3331"/>
<path d="M81.3418 66.1479L82.4564 66.924L82.6929 66.5866L81.5782 65.8104L81.3418 66.1479Z" fill="#3A3331"/>
<path d="M83.2669 65.7766L83.0643 66.0803L80.835 64.5281L81.0714 64.2244L83.2669 65.7766Z" fill="#3A3331"/>
<path d="M82.5254 64.4943L83.64 65.2704L83.8765 64.933L82.7618 64.1569L82.5254 64.4943Z" fill="#3A3331"/>
<path d="M83.1318 63.6509L84.2127 64.427L84.4492 64.1233L83.3683 63.3472L83.1318 63.6509Z" fill="#3A3331"/>
<path d="M85.057 63.2794L84.8205 63.6169L82.625 62.0646L82.8277 61.7272L85.057 63.2794Z" fill="#3A3331"/>
<path d="M84.3135 61.9972L85.3943 62.7733L85.6308 62.4696L84.5161 61.6935L84.3135 61.9972Z" fill="#3A3331"/>
<path d="M78.8428 58.1504L79.0454 57.8467L81.2747 59.3989L81.0383 59.7026L78.8428 58.1504Z" fill="#3A3331"/>
<path d="M79.5855 59.4335L78.4708 58.6573L78.2344 58.9611L79.349 59.7372L79.5855 59.4335Z" fill="#3A3331"/>
<path d="M78.9775 60.2426L77.8628 59.4664L77.6602 59.8039L78.741 60.58L78.9775 60.2426Z" fill="#3A3331"/>
<path d="M77.0527 60.6136L77.2892 60.3099L79.4847 61.8622L79.282 62.1659L77.0527 60.6136Z" fill="#3A3331"/>
<path d="M77.7948 61.8962L76.714 61.1201L76.4775 61.4576L77.5584 62.2337L77.7948 61.8962Z" fill="#3A3331"/>
<path d="M77.2212 62.7396L76.1066 61.9635L75.8701 62.2672L76.9848 63.0433L77.2212 62.7396Z" fill="#3A3331"/>
<path d="M75.2969 63.1108L75.5333 62.7733L77.7288 64.3256L77.4924 64.663L75.2969 63.1108Z" fill="#3A3331"/>
<path d="M76.0396 64.3932L74.9249 63.6171L74.6885 63.9208L75.8031 64.6969L76.0396 64.3932Z" fill="#3A3331"/>
<path d="M75.4325 65.2031L74.3517 64.427L74.1152 64.7645L75.2299 65.5406L75.4325 65.2031Z" fill="#3A3331"/>
<path d="M73.541 65.5741L73.7437 65.2704L75.973 66.8226L75.7365 67.1263L73.541 65.5741Z" fill="#3A3331"/>
<path d="M74.2489 66.8566L73.1681 66.0804L72.9316 66.4179L74.0463 67.194L74.2489 66.8566Z" fill="#3A3331"/>
<path d="M73.6738 67.7002L72.5591 66.9241L72.3564 67.2278L73.4373 68.0039L73.6738 67.7002Z" fill="#3A3331"/>
<path d="M71.749 68.0713L71.9855 67.7339L74.181 69.2861L73.9445 69.6236L71.749 68.0713Z" fill="#3A3331"/>
<path d="M72.4931 69.3538L71.4122 68.5776L71.1758 68.8813L72.2567 69.6575L72.4931 69.3538Z" fill="#3A3331"/>
<path d="M71.9185 70.1637L70.8038 69.3876L70.5674 69.725L71.682 70.5011L71.9185 70.1637Z" fill="#3A3331"/>
<path d="M69.9941 70.5348L70.2306 70.2311L72.4261 71.7833L72.1897 72.087L69.9941 70.5348Z" fill="#3A3331"/>
<path d="M70.7359 71.817L69.6212 71.0409L69.3848 71.3783L70.4994 72.1545L70.7359 71.817Z" fill="#3A3331"/>
<path d="M70.1288 72.6608L69.048 71.8846L68.8115 72.1883L69.9262 72.9645L70.1288 72.6608Z" fill="#3A3331"/>
<path d="M68.2373 73.0319L68.44 72.6945L70.6693 74.2467L70.4328 74.5842L68.2373 73.0319Z" fill="#3A3331"/>
<path d="M68.9452 74.3141L67.8644 73.538L67.6279 73.8417L68.7426 74.6178L68.9452 74.3141Z" fill="#3A3331"/>
<path d="M68.372 75.124L67.2574 74.3479L67.0547 74.6854L68.1356 75.4277L68.372 75.124Z" fill="#3A3331"/>
<path d="M66.4473 75.4952L66.6837 75.1915L68.8792 76.71L68.6428 77.0475L66.4473 75.4952Z" fill="#3A3331"/>
<path d="M67.1904 76.7775L66.0757 76.0013L65.873 76.305L66.9539 77.0812L67.1904 76.7775Z" fill="#3A3331"/>
<path d="M66.6157 77.5873L65.5011 76.8112L65.2646 77.1486L66.3793 77.9247L66.6157 77.5873Z" fill="#3A3331"/>
<path d="M64.6904 77.9586L64.9269 77.6549L67.1224 79.2072L66.8859 79.5109L64.6904 77.9586Z" fill="#3A3331"/>
<path d="M65.4341 79.2409L64.3195 78.4647L64.083 78.8022L65.1977 79.5783L65.4341 79.2409Z" fill="#3A3331"/>
<path d="M64.8251 80.0846L63.7443 79.3085L63.5078 79.6122L64.6225 80.3883L64.8251 80.0846Z" fill="#3A3331"/>
<path d="M62.8994 80.4556L63.1359 80.1182L65.3314 81.6704L65.1287 82.0079L62.8994 80.4556Z" fill="#3A3331"/>
<path d="M63.6425 81.738L62.5616 80.9619L62.3252 81.2656L63.4398 82.0417L63.6425 81.738Z" fill="#3A3331"/>
<path d="M63.0693 82.5477L61.9546 81.7716L61.752 82.1091L62.8328 82.8852L63.0693 82.5477Z" fill="#3A3331"/>
<path d="M61.1436 82.9191L61.38 82.6154L63.5755 84.1676L63.3391 84.4713L61.1436 82.9191Z" fill="#3A3331"/>
<path d="M61.8866 84.2014L60.772 83.4253L60.5693 83.7627L61.6502 84.5389L61.8866 84.2014Z" fill="#3A3331"/>
<path d="M61.313 85.0449L60.1984 84.2688L59.9619 84.5725L61.0766 85.3486L61.313 85.0449Z" fill="#3A3331"/>
<path d="M59.3867 85.4162L59.6232 85.0787L61.8187 86.631L61.5822 86.9684L59.3867 85.4162Z" fill="#3A3331"/>
<path d="M60.1314 86.6984L59.0167 85.9222L58.7803 86.2259L59.8949 87.0021L60.1314 86.6984Z" fill="#3A3331"/>
<path d="M59.5214 87.5084L58.4405 86.7323L58.2041 87.0697L59.3188 87.8459L59.5214 87.5084Z" fill="#3A3331"/>
<path d="M57.5967 87.8795L57.8331 87.5758L60.0286 89.1281L59.826 89.4318L57.5967 87.8795Z" fill="#3A3331"/>
<path d="M58.3407 89.1618L57.2599 88.3856L57.0234 88.7231L58.1381 89.4992L58.3407 89.1618Z" fill="#3A3331"/>
<path d="M57.7655 90.0054L56.6509 89.2292L56.4482 89.533L57.5291 90.3091L57.7655 90.0054Z" fill="#3A3331"/>
<path d="M55.8408 90.3768L56.0773 90.0393L58.2728 91.5916L58.0363 91.929L55.8408 90.3768Z" fill="#3A3331"/>
<path d="M56.5839 91.6588L55.4693 90.8827L55.2666 91.1864L56.3475 91.9625L56.5839 91.6588Z" fill="#3A3331"/>
<path d="M56.0093 92.4688L54.8946 91.6926L54.6582 91.9963L55.7729 92.7725L56.0093 92.4688Z" fill="#3A3331"/>
<path d="M54.083 92.8401L54.3194 92.5027L56.515 94.0549L56.2785 94.3924L54.083 92.8401Z" fill="#3A3331"/>
<path d="M54.8257 94.1223L53.711 93.3462L53.4746 93.6499L54.5893 94.426L54.8257 94.1223Z" fill="#3A3331"/>
<path d="M54.2197 94.9323L53.1388 94.1561L52.9023 94.4936L53.9832 95.2697L54.2197 94.9323Z" fill="#3A3331"/>
<path d="M52.2939 95.3035L52.5304 94.9998L54.7259 96.552L54.5232 96.8557L52.2939 95.3035Z" fill="#3A3331"/>
<path d="M53.037 96.5857L51.9562 95.8096L51.7197 96.147L52.8344 96.9232L53.037 96.5857Z" fill="#3A3331"/>
<path d="M52.4628 97.4293L51.3482 96.6532L51.1455 96.9569L52.2264 97.733L52.4628 97.4293Z" fill="#3A3331"/>
<path d="M50.5391 97.8005L50.7755 97.463L52.971 99.0153L52.7346 99.3527L50.5391 97.8005Z" fill="#3A3331"/>
<path d="M51.2812 99.0829L50.1665 98.3068L49.9639 98.6105L51.0447 99.3866L51.2812 99.0829Z" fill="#3A3331"/>
<path d="M50.7056 99.8926L49.5909 99.1165L49.3545 99.4539L50.4691 100.23L50.7056 99.8926Z" fill="#3A3331"/>
<path d="M48.7812 100.264L48.9839 99.9601L51.2132 101.512L50.9768 101.816L48.7812 100.264Z" fill="#3A3331"/>
<path d="M49.5239 101.546L48.4093 100.77L48.1729 101.107L49.2875 101.884L49.5239 101.546Z" fill="#3A3331"/>
<path d="M48.9159 102.39L47.8351 101.614L47.5986 101.917L48.6795 102.694L48.9159 102.39Z" fill="#3A3331"/>
<path d="M46.9912 102.761L47.2277 102.424L49.4232 103.976L49.2205 104.313L46.9912 102.761Z" fill="#3A3331"/>
<path d="M47.7333 104.043L46.6525 103.267L46.416 103.571L47.5307 104.347L47.7333 104.043Z" fill="#3A3331"/>
<path d="M47.1597 104.853L46.045 104.077L45.8086 104.414L46.9232 105.191L47.1597 104.853Z" fill="#3A3331"/>
<path d="M45.2354 105.224L45.4718 104.921L47.6673 106.473L47.4309 106.777L45.2354 105.224Z" fill="#3A3331"/>
<path d="M45.9784 106.506L44.8638 105.73L44.6611 106.068L45.742 106.844L45.9784 106.506Z" fill="#3A3331"/>
<path d="M45.3691 107.35L44.2882 106.574L44.0518 106.878L45.1664 107.654L45.3691 107.35Z" fill="#3A3331"/>
<path d="M43.4785 107.721L43.6812 107.384L45.9105 108.936L45.674 109.274L43.4785 107.721Z" fill="#3A3331"/>
<path d="M44.2212 109.004L43.1066 108.228L42.8701 108.531L43.9848 109.307L44.2212 109.004Z" fill="#3A3331"/>
<path d="M42.7352 98.2728C42.7352 101.614 39.2224 103.841 35.7433 103.841C32.2643 103.841 30.1025 101.614 30.1025 98.2728C30.1025 94.9321 32.9398 92.1987 36.4189 92.1987C39.8979 92.1987 42.7352 94.9321 42.7352 98.2728Z" fill="#003567"/>
<path d="M56.2457 103.031L56.1782 103.166C58.2386 103.773 61.211 105.764 58.9479 105.528C56.6848 105.325 55.2662 104.617 55.2662 104.617C55.2662 104.617 55.0635 104.785 55.2662 104.887C56.1444 105.359 58.6101 106.506 56.8875 106.709C55.604 106.844 54.1178 106.304 52.8005 105.562C51.9222 105.089 51.1454 104.515 50.5374 104.009C50.5036 103.976 50.5036 103.976 50.4698 103.942C50.3009 103.807 50.0307 103.706 49.693 103.604C46.9232 102.794 39.4922 103.098 35.439 103.233C31.4533 103.368 29.2577 97.9689 32.2301 94.8307C32.703 94.3245 33.2772 93.9196 34.0203 93.5484C39.4247 90.9838 46.8894 98.9138 50.5036 99.7237C51.8547 100.027 55.1986 98.3739 55.8742 98.1714C56.5497 97.9689 57.4955 98.6776 56.5159 99.1838C55.5702 99.6899 53.2733 100.938 56.3471 101.647C59.4208 102.356 60.5017 102.828 60.0626 103.469C59.5897 104.11 56.7862 102.997 56.2457 103.031Z" fill="#FEC9AC"/>
<path d="M44.2892 102.491C46.1131 102.66 47.9709 102.93 49.6597 103.605C46.89 102.795 39.459 103.098 35.4058 103.233C31.4201 103.368 29.2245 97.9692 32.1969 94.8309C32.028 95.2021 31.8929 95.5733 31.8592 95.9783C31.6903 97.0918 31.9605 98.3066 32.6023 99.2177C33.5142 100.5 35.068 101.209 36.588 101.614C39.1213 102.289 41.7221 102.289 44.2892 102.491Z" fill="#FFAB90"/>
<path d="M52.7662 105.595C51.888 105.123 51.1111 104.549 50.5031 104.043C50.4693 104.009 50.4693 104.009 50.4355 103.976C51.3475 104.414 52.0569 104.92 52.7662 105.595Z" fill="#FFAB90"/>
</g>
<defs>
<clipPath id="clip0">
<path d="M0 0H200C206.627 0 212 5.37258 212 12V208C212 214.627 206.627 220 200 220H0V0Z" fill="white"/>
</clipPath>
</defs>
</svg>
