<svg width="212" height="220" viewBox="0 0 212 220" fill="none" xmlns="http://www.w3.org/2000/svg">
<g clip-path="url(#clip0)">
<path d="M137.15 181.756C136.613 180.465 136.36 178.68 136.246 177.075C137.842 175.447 139.54 173.731 140.978 172.223C141.521 171.654 142.083 171.006 142.654 170.313C143.594 171.193 144.432 171.737 144.766 171.543C144.364 170.717 144.158 169.643 144.07 168.53C146.879 164.888 149.658 160.78 151.037 159.93C152.935 158.764 157.265 158.397 158.785 159.616C160.304 160.836 160.578 164.324 160.573 167.202C160.573 168.316 160.547 169.816 159.904 171.822C158.612 171.609 157.249 171.213 156.516 170.478C155.948 171.044 156.971 173.971 158.188 175.598C156.653 178.249 154.129 181.499 149.981 185.474C148.649 184.731 147.228 183.832 146.255 182.926C145.976 183.105 147.238 184.95 148.698 186.681C146.405 188.793 144.367 190.446 142.572 191.724C141.317 189.971 140.129 188.305 139.472 187.362C139.141 187.518 140.051 189.944 141.292 192.598C136.146 195.97 133.266 196.011 132.3 195.236C124.82 189.231 129.836 184.419 130.941 182.806C131.445 182.07 132.822 180.594 134.516 178.846C135.627 180.548 136.822 181.962 137.15 181.756Z" fill="#9FEC49"/>
<path d="M122.107 196.79C122.794 197 123.48 197.207 124.168 197.411C144.703 183.375 154.101 165.715 154.101 165.715C143.558 181.273 127.787 192.893 122.107 196.79Z" fill="#CFF1D6"/>
<path d="M111.25 169.129C109.881 167.352 108.747 164.692 107.903 162.252C109.699 159.067 111.614 155.699 113.216 152.766C113.82 151.659 114.422 150.422 115.02 149.111C116.842 150.082 118.364 150.578 118.804 150.137C117.836 149.025 117.072 147.447 116.472 145.759C119.311 138.948 121.904 131.427 123.691 129.537C126.146 126.941 132.702 124.57 135.563 125.828C138.424 127.086 140.3 132.375 141.489 136.837C141.949 138.564 142.535 140.897 142.373 144.273C140.282 144.481 138.006 144.435 136.565 143.6C135.921 144.713 138.724 148.823 141.283 150.837C140.007 155.584 137.45 161.668 132.677 169.552C130.304 168.954 127.728 168.152 125.844 167.154C125.486 167.55 128.207 169.878 131.19 171.955C128.516 176.184 126.046 179.591 123.798 182.316C121.125 180.123 118.592 178.036 117.181 176.849C116.733 177.228 119.152 180.607 122.179 184.206C115.61 191.57 111.163 192.83 109.345 192.032C95.261 185.839 101.032 176.297 102.07 173.34C102.544 171.99 104.064 169.13 105.962 165.716C108.388 167.889 110.828 169.584 111.25 169.129Z" fill="#9FEC49"/>
<path d="M99.6309 192.036C100.7 192.083 101.763 192.222 102.808 192.452C124.598 164.295 130.843 137.226 130.843 137.226C122.896 160.176 108.632 180.578 99.6309 192.036Z" fill="#CFF1D6"/>
<path d="M85.4932 195.536C85.4932 195.536 61.8475 181.453 50.5778 145.352C49.5341 145.504 49.2578 140.592 49.5341 145.504C49.8104 150.416 60.08 179.861 82.5514 197.939C83.9008 197.304 85.4932 195.536 85.4932 195.536Z" fill="#9FEC49"/>
<path d="M79.2414 192.408C79.09 193.265 93.8935 178.196 94.7361 171.512C91.1047 175.939 80.3361 186.214 79.2414 192.408Z" fill="#9FEC49"/>
<path d="M76.0043 190.171C75.9189 191.02 89.8137 176.364 90.0883 168.702C86.299 175.602 76.6243 184.036 76.0043 190.171Z" fill="#9FEC49"/>
<path d="M72.7847 186.072C72.691 186.889 85.5192 173.18 85.9363 166.791C82.8286 170.857 73.4588 180.168 72.7847 186.072Z" fill="#9FEC49"/>
<path d="M69.6798 183.744C69.6468 184.556 81.6614 171.197 81.5004 163.835C78.3808 170.274 69.92 177.87 69.6798 183.744Z" fill="#9FEC49"/>
<path d="M66.5498 179.015C66.5256 179.784 77.002 167.698 76.9101 161.659C74.4263 165.295 66.7232 173.456 66.5498 179.015Z" fill="#9FEC49"/>
<path d="M63.6044 176.578C63.6338 177.347 73.408 165.534 72.7282 158.528C70.4067 164.417 63.3914 171.017 63.6044 176.578Z" fill="url(#paint0_linear)"/>
<path d="M61.1475 170.736C61.1338 171.434 69.1471 162.996 69.0362 157.444C67.1416 160.15 61.2452 165.69 61.1475 170.736Z" fill="#9FEC49"/>
<path d="M58.857 167.765C58.8848 168.477 66.3574 160.11 65.7863 153.528C64.032 158.338 58.6564 162.621 58.857 167.765Z" fill="#9FEC49"/>
<path d="M56.2608 160.679C56.2806 161.301 63.3554 155.003 62.9929 150.029C61.353 152.152 56.1156 156.187 56.2608 160.679Z" fill="url(#paint1_linear)"/>
<path d="M53.9867 157.671C54.0461 158.311 60.6201 151.995 59.7801 146.028C58.3695 150.052 53.5599 153.045 53.9867 157.671Z" fill="url(#paint2_linear)"/>
<path d="M76.2515 192.127C77.1188 192.203 58.7299 202.595 52.0547 201.678C57.2713 199.317 69.9855 191.579 76.2515 192.127Z" fill="#9FEC49"/>
<path d="M74.4351 187.984C75.2772 188.121 57.5214 197.743 50.0498 196.023C57.6961 194.153 68.349 186.994 74.4351 187.984Z" fill="#9FEC49"/>
<path d="M71.461 184.876C72.2741 184.998 55.709 193.836 49.4307 192.583C54.1629 190.634 65.5835 183.997 71.461 184.876Z" fill="#9FEC49"/>
<path d="M67.6971 180.734C68.4891 180.912 52.473 189.054 45.4043 186.992C52.432 185.647 61.9638 179.444 67.6971 180.734Z" fill="#9FEC49"/>
<path d="M64.4881 177.276C65.2361 177.452 50.848 184.439 45.04 182.785C49.195 181.328 59.0739 176.003 64.4881 177.276Z" fill="#9FEC49"/>
<path d="M62.3007 172.654C63.0363 172.882 49.0919 179.26 42.5029 176.79C48.7927 176.072 56.9846 171.007 62.3007 172.654Z" fill="#9FEC49"/>
<path d="M59.5222 169.177C60.2002 169.345 49.9742 174.897 44.6396 173.352C47.7438 172.223 54.6232 167.964 59.5222 169.177Z" fill="#9FEC49"/>
<path d="M57.13 164.33C57.8102 164.541 47.7936 169.591 41.583 167.333C46.6831 166.885 52.2125 162.803 57.13 164.33Z" fill="#9FEC49"/>
<path d="M54.7291 159.529C55.324 159.709 47.4101 164.911 42.6973 163.269C45.1732 162.237 50.4281 158.225 54.7291 159.529Z" fill="#9FEC49"/>
<path d="M53.2267 154.629C53.8299 154.852 46.0265 159.565 40.4795 157.207C44.7316 156.887 48.8689 153.017 53.2267 154.629Z" fill="#9FEC49"/>
<path d="M51.8175 152.025C51.8382 152.553 57.3923 149.742 57.068 145.435C55.7859 146.645 51.6674 148.201 51.8175 152.025Z" fill="url(#paint3_linear)"/>
<path d="M51.2228 150.191C51.6126 150.55 45.8742 152.958 42.8057 149.918C44.5568 149.725 48.4081 147.598 51.2228 150.191Z" fill="#9FEC49"/>
<path d="M51.0297 148.667C51.0812 149.225 56.239 146.222 55.5297 140.914C54.4425 143.8 50.6562 144.631 51.0297 148.667Z" fill="url(#paint4_linear)"/>
<path d="M50.3973 147.083C50.77 147.503 53.1461 142.028 49.4293 138.172C50.264 141.141 47.7057 144.053 50.3973 147.083Z" fill="url(#paint5_linear)"/>
<path d="M98.1858 202.486C106.671 201.792 106.358 203.833 105.12 195.557C103.58 185.273 103.286 159.315 104.167 123.871C104.513 109.919 104.742 94.4642 108.94 75.5834C111.649 63.3994 105.037 63.0509 102.797 69.969C101.771 73.137 98.2918 95.6694 96.1121 119.456C93.5288 147.642 92.0852 179.354 91.932 183.406C91.104 205.317 85.669 203.512 98.1858 202.486Z" fill="#D4A74F"/>
<path d="M45.9512 51.6135C45.9813 51.5645 46.0169 51.519 46.0572 51.478C46.0959 51.434 46.1373 51.3957 46.1791 51.3561C46.2614 51.276 46.3467 51.1986 46.433 51.1225C46.6057 50.9696 46.7809 50.8197 46.9583 50.6728C47.3103 50.3762 47.6703 50.0858 48.028 49.7954C48.3857 49.505 48.7452 49.2168 49.1069 48.9313C49.4685 48.6457 49.8267 48.3566 50.1888 48.0728L52.3488 46.3599C52.7061 46.0721 53.0647 45.7864 53.4246 45.5028C53.7845 45.2191 54.1449 44.9366 54.5057 44.6553C54.8673 44.3751 55.2378 44.1058 55.6127 43.8435C55.8001 43.7124 55.9885 43.5826 56.1777 43.4541L56.7426 43.0669C57.1171 42.8069 57.4853 42.542 57.8426 42.2626C58.1999 41.9832 58.5466 41.6937 58.8828 41.3945C59.2189 41.0953 59.5674 40.7816 59.9053 40.4705L60.1148 40.3636C59.2609 41.3638 58.5444 42.4737 57.9843 43.6636C57.0735 44.504 56.1772 45.3546 55.2955 46.2156C53.9675 47.5127 52.6645 48.8301 51.3865 50.1677C52.9192 49.1345 54.4687 48.1338 56.0351 47.1655C57.5997 46.1953 59.178 45.2542 60.7708 44.3623C61.2795 44.0775 61.7896 43.7988 62.3011 43.5263C62.2571 43.5989 62.2162 43.6711 62.1744 43.7463C62.0609 43.9425 61.9509 44.1423 61.84 44.3381C61.7291 44.5339 61.6227 44.7341 61.5157 44.9347C61.0907 45.7338 60.7053 46.5535 60.3489 47.3864C59.9925 48.2193 59.6629 49.0637 59.3633 49.9204C59.2141 50.3494 59.0711 50.7806 58.9395 51.2166C58.808 51.6527 58.6821 52.0913 58.5805 52.5401C59.2405 51.9057 59.8745 51.2668 60.5011 50.6279C61.1277 49.989 61.7437 49.3519 62.3548 48.7148C62.5748 48.4854 62.7936 48.2562 63.0113 48.0271C62.8236 48.4609 62.6427 48.8981 62.4688 49.3387C62.1089 50.248 61.7736 51.1678 61.4629 52.0979C61.1549 53.029 60.8672 53.9693 60.6384 54.9346C61.3235 54.2201 61.9769 53.4954 62.6223 52.7689C63.2678 52.0425 63.901 51.3134 64.5271 50.5839C65.1532 49.8544 65.7692 49.124 66.3685 48.3874C66.9678 47.6509 67.5565 46.9125 68.1624 46.1909C68.4647 45.8306 68.7867 45.4869 69.1207 45.1517C69.4547 44.8164 69.7987 44.4939 70.1292 44.1661C70.2107 44.0851 70.2908 44.0034 70.3694 43.921C70.3386 43.9747 70.3078 44.0288 70.2766 44.0825C70.0011 44.5599 69.7253 45.0324 69.4357 45.4905C68.8576 46.4109 68.2917 47.3336 67.7602 48.2721C67.2287 49.2107 66.7324 50.1716 66.2642 51.1462C65.7961 52.1208 65.3578 53.1073 64.9442 54.1079C64.5306 55.1084 64.1465 56.1209 63.8205 57.1623C64.5905 56.3928 65.3327 55.6149 66.0689 54.8365C66.805 54.0581 67.5305 53.2785 68.2513 52.5005C68.972 51.7226 69.6852 50.9447 70.3839 50.1628C71.0827 49.3809 71.7743 48.5995 72.4832 47.8401C72.6592 47.6495 72.8427 47.4647 73.0279 47.2826C73.2131 47.1004 73.4037 46.9227 73.5968 46.7489C73.9823 46.3999 74.3778 46.0629 74.7611 45.7228C74.8731 45.623 74.9834 45.5223 75.0919 45.4205L74.9159 45.6889L74.6911 46.0409C74.5411 46.2763 74.3915 46.5121 74.2397 46.7449C73.9365 47.2139 73.6237 47.672 73.2901 48.1155C72.6266 49.0025 71.949 49.8755 71.278 50.7555C70.607 51.6355 69.9448 52.523 69.2817 53.4135C68.6187 54.3041 67.9494 55.1898 67.2621 56.0659C67.1741 56.1741 67.0919 56.2859 67.0043 56.395L66.7403 56.7197C66.6523 56.8279 66.5643 56.9397 66.4763 57.0457L66.2079 57.3669C66.1199 57.4739 66.0319 57.5869 65.9369 57.6886C65.8418 57.7902 65.7507 57.8971 65.6583 58.0049C65.6117 58.0577 65.5664 58.1127 65.5184 58.1642L65.3732 58.3169C65.2769 58.4212 65.1787 58.5241 65.0815 58.6306C65.2135 58.5818 65.3455 58.5285 65.4819 58.4766L65.6821 58.3961C65.7485 58.3679 65.8141 58.3371 65.8779 58.3081C66.1384 58.188 66.4011 58.0648 66.6536 57.9293L67.0351 57.7264C67.0998 57.6934 67.1609 57.6569 67.223 57.6213L67.4095 57.5135C67.6581 57.3696 67.9076 57.2244 68.1487 57.0704C69.1233 56.4632 70.0645 55.8085 70.9753 55.1229C71.8861 54.4374 72.7736 53.7246 73.6281 52.981C74.4825 52.2374 75.3128 51.4714 76.1405 50.7027C76.3486 50.5113 76.5571 50.3212 76.771 50.1351C76.9848 49.949 77.2009 49.7646 77.4182 49.582C77.8543 49.2168 78.2956 48.8565 78.7219 48.482C78.8237 48.3923 78.9242 48.3015 79.0233 48.2097C78.7945 48.5669 78.571 48.9282 78.344 49.2863C78.0325 49.7778 77.7139 50.2631 77.3795 50.7348C76.712 51.6791 76.0445 52.6237 75.3995 53.5873C75.2402 53.8298 75.0796 54.0713 74.9221 54.3151C74.7646 54.5589 74.6088 54.8048 74.4557 55.0521C74.3026 55.2994 74.1477 55.5471 74.0003 55.7979C73.8529 56.0487 73.7033 56.3004 73.5559 56.5521C72.9716 57.5641 72.4119 58.5959 71.9059 59.6607C71.7462 59.999 71.5913 60.3405 71.4461 60.6872C71.0029 60.9339 70.5652 61.1916 70.1331 61.4603C69.6345 61.7688 69.1434 62.0933 68.66 62.4335C67.6932 63.1175 66.7705 63.8617 65.8973 64.6617C65.4611 65.0653 65.0384 65.4836 64.6292 65.9166C64.528 66.0253 64.425 66.1322 64.3251 66.2431L64.0268 66.5753C63.8323 66.8014 63.6379 67.0263 63.4509 67.259C62.2104 68.7782 61.1617 70.4444 60.3286 72.22C60.0905 72.4829 59.8669 72.7586 59.6589 73.0459C59.1145 73.8046 58.6463 74.6152 58.2611 75.4659C58.0661 75.8881 57.8966 76.3215 57.7533 76.7639C57.6113 77.2083 57.4938 77.6601 57.4013 78.1173C57.3071 78.5754 57.2319 79.0378 57.1597 79.4998L56.9468 80.8827C56.8764 81.3434 56.8148 81.8067 56.7633 82.2696C56.7118 82.7325 56.6753 83.2002 56.6498 83.6675C56.6243 84.1348 56.6181 84.6047 56.63 85.0755C56.6383 85.3105 56.6467 85.545 56.6634 85.7795C56.67 85.8965 56.6819 86.014 56.692 86.1315C56.6977 86.1905 56.7021 86.2485 56.7083 86.3075L56.7281 86.4835C56.7828 86.951 56.8624 87.4153 56.9666 87.8743C57.0714 88.3309 57.2116 88.7785 57.3859 89.2133C57.5559 89.6412 57.7726 90.0491 58.0323 90.4294C58.2812 90.796 58.5846 91.1224 58.9321 91.3974C58.441 90.6639 58.1713 89.8323 58.0358 88.9884C57.9695 88.5649 57.9313 88.1375 57.9214 87.7089C57.9093 87.2801 57.9189 86.8506 57.95 86.4206C58.012 85.5595 58.1227 84.7026 58.2817 83.8541C58.3571 83.4281 58.4431 83.0038 58.5396 82.5811C58.6361 82.1584 58.7408 81.7377 58.8537 81.3188C58.9677 80.9003 59.1019 80.4863 59.2497 80.0775C59.3976 79.6688 59.5547 79.2644 59.7117 78.8614C59.8688 78.4583 60.0197 78.0549 60.1548 77.6461C60.2899 77.2373 60.4149 76.8251 60.531 76.4079C60.7625 75.5743 60.9838 74.7321 61.195 73.8815L61.5157 72.5975C61.5703 72.3828 61.6271 72.1677 61.686 71.9521C61.6926 71.9292 61.6992 71.9081 61.7054 71.8843L61.7982 71.7712C61.7516 71.9587 61.7076 72.1458 61.6662 72.3327C61.4801 73.1841 61.3446 74.0271 61.2456 74.8627C61.1466 75.6982 61.0823 76.5267 61.0454 77.3491C60.9774 78.9713 60.9946 80.596 61.0969 82.2164C61.1456 83.0178 61.2117 83.8143 61.2953 84.606C61.3798 85.398 61.4775 86.1856 61.6033 86.9653C61.6803 86.1733 61.7863 85.3905 61.9056 84.6109C62.0248 83.8312 62.1625 83.0559 62.3157 82.2877C62.6137 80.7671 62.992 79.2635 63.4491 77.7829C63.8891 76.3798 64.407 75.0233 65.0291 73.797C65.0384 73.8718 65.0481 73.9466 65.0577 74.0209C65.1111 74.4149 65.1698 74.805 65.2337 75.1913C65.4977 76.7106 65.8387 78.2154 66.2554 79.7C66.4587 80.4334 66.6758 81.1588 66.9066 81.8763C67.1381 82.5935 67.3801 83.3054 67.6436 84.005C67.5781 83.2504 67.5367 82.4953 67.5072 81.7416C67.4777 80.9879 67.4632 80.2351 67.4632 79.4849C67.4659 77.9853 67.5266 76.4929 67.6753 75.0373C67.7131 74.6739 67.7571 74.3131 67.8073 73.9549C67.8575 73.5968 67.9136 73.2433 67.9758 72.8945C68.0493 72.4937 68.1325 72.099 68.2262 71.7153C68.3019 72.5601 68.3973 73.3939 68.506 74.2207C68.7339 75.9424 69.016 77.6373 69.3306 79.3194C69.6452 81.0015 69.9906 82.6691 70.3769 84.3227C70.3963 82.6115 70.4583 80.9034 70.5498 79.2028C70.6413 77.5022 70.7698 75.8078 70.9511 74.1358C71.0417 73.2998 71.1465 72.4699 71.2714 71.6529C71.2975 71.4839 71.3244 71.3157 71.3519 71.1482C71.3643 71.2591 71.3761 71.3682 71.3893 71.4804C71.4459 71.9497 71.5068 72.4182 71.5719 72.8857C71.8359 74.7505 72.1593 76.5857 72.5237 78.4055C72.7058 79.3149 72.8984 80.2202 73.1014 81.1217C73.3047 82.0228 73.515 82.9208 73.7425 83.8123C73.7169 82.8847 73.7086 81.9581 73.7081 81.0319C73.7077 80.1057 73.7191 79.1808 73.7407 78.2577C73.7847 76.4097 73.8683 74.5705 74.0157 72.7511C74.053 72.2961 74.0943 71.8429 74.1398 71.3915C74.1583 71.2102 74.1785 71.0294 74.1983 70.849C74.2383 71.1231 74.2735 71.3977 74.3017 71.6727C74.406 72.693 74.4918 73.7129 74.589 74.7337C74.6863 75.7545 74.7976 76.7745 74.9129 77.7975C75.0281 78.8205 75.1386 79.8443 75.2349 80.8744C75.2459 81.0033 75.2618 81.1335 75.271 81.2616L75.3027 81.6488C75.3133 81.7777 75.326 81.9084 75.3344 82.0373L75.3603 82.4267C75.3691 82.5587 75.3819 82.6907 75.3854 82.8179C75.3889 82.945 75.3951 83.0788 75.4026 83.2108C75.4057 83.2768 75.4105 83.3428 75.4118 83.4092V83.6063C75.4149 83.7383 75.4158 83.8703 75.4202 84.0076C75.6719 83.5343 75.8914 83.0445 76.0771 82.5415L76.217 82.1618C76.2641 82.0347 76.3024 81.9075 76.3459 81.7799C76.4304 81.5243 76.5136 81.2669 76.5871 81.0095C76.8902 79.9777 77.1415 78.9327 77.3527 77.8855C77.5639 76.8383 77.7416 75.7889 77.8754 74.739C78.0091 73.6892 78.1117 72.6389 78.212 71.5895C78.2225 71.4835 78.234 71.3774 78.2454 71.2714C78.3902 72.209 78.5371 73.1467 78.7057 74.0821C78.8978 75.1457 79.1262 76.205 79.3907 77.2598C79.6547 78.3158 79.9482 79.3643 80.2945 80.4023C80.4705 80.9206 80.6562 81.4367 80.8709 81.9423C80.98 82.1939 81.0909 82.4452 81.2203 82.6881C81.2528 82.7488 81.2832 82.8095 81.3175 82.8693L81.42 83.0453L81.5318 83.2161C81.5705 83.2719 81.6123 83.3252 81.6523 83.3775L81.6237 83.1743L81.6053 82.9723L81.5925 82.7708C81.5885 82.7039 81.5877 82.6357 81.5855 82.5688C81.5833 82.5019 81.5828 82.4346 81.5815 82.3673C81.5802 82.3 81.5789 82.2353 81.5789 82.1667C81.5789 82.0316 81.5789 81.8987 81.5837 81.7636C81.5929 81.2273 81.6145 80.6918 81.6409 80.1559C81.6933 79.0845 81.7601 78.0148 81.8231 76.9439C81.886 75.8729 81.9458 74.8072 81.9845 73.7415C82.0233 72.6759 82.0497 71.6111 82.0901 70.5445C82.1001 70.2782 82.1155 70.0112 82.1363 69.7437C82.1579 69.4762 82.1803 69.2087 82.2107 68.9407C82.2661 68.4101 82.3339 67.879 82.3836 67.3497C82.4606 67.5301 82.5381 67.7105 82.6133 67.8922C82.7836 68.3001 82.9385 68.7119 83.0709 69.1299C83.3349 69.9659 83.5813 70.805 83.8374 71.6432C83.9656 72.0618 84.096 72.4802 84.2285 72.8985C84.2624 73.0028 84.2976 73.1075 84.3302 73.2122C84.3627 73.3169 84.3949 73.4212 84.4296 73.5259C84.4974 73.7345 84.5682 73.9444 84.632 74.1538C84.9035 74.9898 85.1684 75.832 85.4157 76.6838C85.446 76.7903 85.4808 76.8977 85.5085 77.0041L85.5965 77.3253C85.659 77.5414 85.7105 77.7561 85.7663 77.9743C85.8222 78.1926 85.868 78.4108 85.9203 78.6343C85.9322 78.6902 85.9476 78.7465 85.9569 78.8024L85.9863 78.9709C86.0079 79.084 86.0273 79.1984 86.0506 79.3146C86.0946 79.2077 86.1386 79.0985 86.1826 78.9881L86.2455 78.8218C86.2666 78.7655 86.282 78.7096 86.3005 78.6533C86.337 78.5406 86.3696 78.4271 86.4039 78.3123C86.4382 78.1974 86.4668 78.083 86.4959 77.9677L86.5795 77.6201L86.5997 77.5321L86.6173 77.4441L86.6512 77.2681C86.6952 77.0354 86.7427 76.7995 86.7757 76.5641C86.9189 75.6311 87.0124 74.6911 87.056 73.7481C87.1 72.8123 87.1119 71.879 87.0767 70.9559C87.0503 70.2959 87.0093 69.639 86.9623 68.9838L87.3433 69.8964C87.6337 70.5903 87.9426 71.2789 88.2506 71.9701C88.5586 72.6613 88.8639 73.3561 89.1521 74.0636C89.2965 74.4156 89.4355 74.7747 89.564 75.1403C89.698 75.5135 89.8104 75.8942 89.9006 76.2803C90.0766 75.9072 90.1941 75.4985 90.2917 75.0888C90.3835 74.6786 90.4539 74.2638 90.5025 73.8463C90.5963 73.0214 90.642 72.1918 90.6393 71.3616C90.6367 70.9511 90.631 70.5405 90.6103 70.1335C90.6063 70.0521 90.6015 69.9703 90.5967 69.8889C91.1307 70.7385 91.7247 71.5488 92.3743 72.3137C92.4499 72.4757 92.5247 72.6371 92.5995 72.7977L92.7258 73.0723L92.8499 73.3482C92.9326 73.5318 93.0136 73.7163 93.0928 73.9017C93.2525 74.2722 93.4052 74.6453 93.5482 75.0237C93.6912 75.4021 93.8214 75.7858 93.9283 76.1809C93.9578 76.2803 93.9789 76.3789 94.0036 76.4801C94.0168 76.5311 94.0238 76.5804 94.0344 76.6315C94.0449 76.6825 94.0559 76.7344 94.0634 76.7855C94.0788 76.888 94.0969 76.9936 94.1039 77.0992C94.118 77.207 94.1167 77.3126 94.1219 77.4257C94.2489 77.2403 94.3554 77.0417 94.4396 76.8334C94.5253 76.6203 94.5977 76.4021 94.6565 76.18C94.771 75.7349 94.8526 75.2819 94.9007 74.8248C94.9518 74.3707 94.9769 73.9167 94.9887 73.4652C94.9945 73.2391 94.9927 73.0151 94.9923 72.7898C94.9918 72.5645 94.9826 72.3415 94.9742 72.1184C94.9698 72.0066 94.9632 71.8962 94.9571 71.7849C94.9509 71.6735 94.9452 71.5706 94.9377 71.4645C95.3414 71.2484 95.7274 71.0008 96.0923 70.724C96.2436 70.9822 96.3954 71.2404 96.5477 71.4989C96.9093 72.1193 97.2697 72.7427 97.6001 73.3847C97.7651 73.7059 97.9218 74.0315 98.0599 74.369C98.1339 74.5384 98.1919 74.7095 98.2487 74.8886C98.2619 74.9326 98.2738 74.9766 98.2865 75.0237C98.2927 75.0466 98.2993 75.0677 98.3046 75.0928L98.3195 75.1619C98.3288 75.2059 98.3424 75.2565 98.3486 75.304L98.3701 75.4509C98.4238 75.3662 98.4717 75.278 98.5136 75.1869L98.5457 75.1161C98.5554 75.0923 98.5642 75.0686 98.5734 75.0444C98.5915 74.9964 98.6108 74.9476 98.628 74.8983C98.6597 74.8006 98.6918 74.699 98.716 74.5987L98.7543 74.4464L98.7868 74.2937C98.8647 73.8862 98.9137 73.4736 98.9333 73.0591C98.9688 72.2484 98.9477 71.4363 98.87 70.6285C98.8308 70.2325 98.7873 69.8365 98.7292 69.4441C98.6998 69.2487 98.6685 69.0544 98.635 68.8611C98.6007 68.6675 98.5629 68.4761 98.5259 68.2842V68.2781L98.7129 68.0378C98.8282 67.8794 98.9417 67.7191 99.0535 67.5569C99.1542 67.4161 99.2453 67.2718 99.3368 67.1266C99.5308 67.3309 99.7143 67.545 99.8864 67.7681C100.103 68.0526 100.315 68.3404 100.522 68.6314C100.625 68.7775 100.729 68.9227 100.83 69.0714C100.931 69.2201 101.033 69.3649 101.134 69.5114L101.286 69.7314L101.437 69.9514L101.738 70.3971L101.889 70.6211C101.939 70.6954 101.987 70.7711 102.038 70.8459C102.089 70.9207 102.137 70.9964 102.187 71.0721L102.262 71.1856L102.333 71.3C102.53 71.6045 102.72 71.9148 102.903 72.231C103.086 72.5474 103.264 72.8708 103.433 73.2034C103.647 73.628 103.846 74.0667 104.026 74.5313C104.029 74.5965 104.033 74.6633 104.039 74.7258L104.075 74.6625C104.159 74.8864 104.239 75.1157 104.313 75.3533C104.456 74.9592 104.563 74.5529 104.632 74.1393C104.663 73.9633 104.688 73.7829 104.708 73.6029L104.711 73.5977C104.943 73.236 105.179 72.8868 105.42 72.55C105.662 72.2133 105.911 71.8872 106.168 71.5719L106.361 71.3369C106.423 71.2586 106.493 71.1825 106.555 71.1059L106.652 70.9907L106.751 70.8776C106.818 70.8023 106.883 70.7267 106.949 70.6527C107.48 70.0574 108.027 69.4929 108.577 68.9403C108.929 68.5883 109.285 68.2407 109.649 67.9049C109.678 67.9652 109.706 68.0259 109.737 68.0858C109.867 68.3498 110.005 68.6094 110.151 68.8646C110.237 69.0112 110.326 69.1562 110.418 69.2993L110.364 69.404C109.898 70.2409 109.467 71.1062 109.071 72C108.669 72.8974 108.322 73.8188 108.033 74.7588C107.888 75.2349 107.773 75.7199 107.689 76.2108L107.662 76.3961C107.653 76.4572 107.647 76.5206 107.64 76.5822C107.624 76.7049 107.616 76.8303 107.61 76.9531C107.607 77.0147 107.61 77.0776 107.608 77.1388V77.2303C107.608 77.2611 107.61 77.2919 107.612 77.3223C107.618 77.3834 107.619 77.4428 107.628 77.5031C107.637 77.5634 107.645 77.6215 107.655 77.6791L107.725 77.5119C107.747 77.4573 107.776 77.4041 107.801 77.3517C107.814 77.3253 107.826 77.2994 107.839 77.2734L107.883 77.1964C107.912 77.1458 107.938 77.0952 107.969 77.0459C108.031 76.9474 108.087 76.8497 108.153 76.7547C108.184 76.7071 108.214 76.6596 108.248 76.613L108.347 76.4739C108.611 76.1048 108.895 75.7532 109.187 75.4087C109.77 74.7205 110.385 74.061 111.001 73.4058C111.618 72.7507 112.242 72.1039 112.855 71.4469C113.468 70.79 114.079 70.1309 114.703 69.4823C114.809 69.3723 114.918 69.265 115.027 69.1585L115.038 69.1695C115.161 69.2892 115.285 69.4067 115.41 69.5215C114.915 70.4015 114.426 71.2881 113.968 72.1971C113.505 73.1211 113.081 74.0715 112.704 75.0505C112.61 75.2952 112.52 75.5425 112.431 75.7893C112.342 76.0361 112.258 76.2869 112.179 76.5373C112.019 77.0411 111.873 77.5493 111.755 78.0698C111.632 78.5881 111.545 79.1143 111.496 79.6446C111.483 79.7766 111.479 79.9086 111.473 80.0406C111.469 80.1057 111.473 80.1726 111.47 80.2386C111.468 80.3046 111.47 80.3706 111.474 80.4357C111.483 80.6923 111.518 80.9474 111.579 81.1969C111.619 81.0711 111.65 80.9505 111.699 80.8321C111.74 80.7142 111.792 80.5989 111.841 80.4859C111.865 80.4295 111.895 80.3737 111.92 80.3182C111.945 80.2628 111.971 80.2073 112.002 80.1528C112.06 80.0437 112.114 79.9363 112.178 79.8303C112.419 79.4057 112.685 79 112.962 78.6031C113.24 78.2062 113.528 77.8181 113.824 77.4358C113.899 77.3407 113.97 77.2444 114.044 77.1493L114.269 76.8651L114.495 76.5822L114.724 76.301C115.334 75.553 115.956 74.8134 116.572 74.0689C117.188 73.3244 117.804 72.5808 118.435 71.8495C118.752 71.4839 119.087 71.1332 119.435 70.7935C119.599 70.6325 119.766 70.4732 119.932 70.3139C119.528 71.1381 119.126 71.9648 118.751 72.8087C118.657 73.0287 118.56 73.2457 118.468 73.4687C118.376 73.6918 118.286 73.9118 118.199 74.1349C118.111 74.358 118.025 74.5824 117.944 74.8094C117.862 75.0365 117.781 75.2635 117.702 75.4905C117.383 76.408 117.114 77.3419 116.896 78.2881C116.79 78.7641 116.7 79.2451 116.64 79.7295C116.581 80.2139 116.549 80.7023 116.587 81.1745C116.804 80.7582 117.044 80.3542 117.306 79.9645C117.561 79.5803 117.826 79.2072 118.096 78.8398C118.637 78.1055 119.196 77.3913 119.758 76.6812C120.32 75.971 120.885 75.2661 121.438 74.5529L122.265 73.4824C122.542 73.126 122.821 72.7709 123.101 72.4171C123.202 72.29 123.307 72.165 123.413 72.0414C123.281 72.3965 123.146 72.7485 123.002 73.0974C122.586 74.1032 122.173 75.1108 121.791 76.1334C121.409 77.1559 121.065 78.2014 120.762 79.2605C120.458 80.3195 120.19 81.3949 119.988 82.4843C119.888 83.0291 119.803 83.5773 119.748 84.1277C119.693 84.6782 119.664 85.2313 119.698 85.7711C119.927 85.2673 120.169 84.7895 120.429 84.3191C120.688 83.8488 120.954 83.3925 121.227 82.9389C121.774 82.032 122.34 81.1428 122.912 80.2579C123.054 80.0379 123.198 79.8179 123.341 79.5953L123.77 78.9353L124.197 78.2727L124.622 77.6091C125.184 76.723 125.743 75.8346 126.317 74.9551C126.46 74.7351 126.609 74.5181 126.762 74.3034C126.914 74.0887 127.07 73.8771 127.232 73.6667C127.551 73.2461 127.881 72.8307 128.196 72.4101C128.513 71.991 128.803 71.5528 129.065 71.098C129.325 70.6391 129.555 70.1635 129.752 69.6742C129.794 69.5686 129.836 69.4625 129.878 69.3561C129.913 69.3851 129.948 69.4133 129.984 69.4414C129.7 70.0121 129.448 70.5975 129.227 71.1953C129.004 71.8053 128.814 72.4264 128.655 73.056C128.495 73.6865 128.351 74.3237 128.196 74.9564C128.042 75.5891 127.876 76.2183 127.687 76.8387C127.312 78.0799 126.924 79.3155 126.543 80.5549C126.163 81.7944 125.803 83.0409 125.443 84.2888C125.083 85.5366 124.725 86.7858 124.35 88.0288C124.162 88.6514 123.968 89.2718 123.761 89.8882C123.711 90.0435 123.657 90.1962 123.602 90.3498C123.576 90.4272 123.547 90.502 123.518 90.5786C123.49 90.6551 123.462 90.7321 123.433 90.8074C123.403 90.8826 123.374 90.9596 123.345 91.0349L123.249 91.2606C123.216 91.3349 123.181 91.4089 123.147 91.4841C123.112 91.5593 123.071 91.6297 123.033 91.7041C123.095 91.6531 123.159 91.602 123.22 91.547C123.282 91.492 123.341 91.4348 123.4 91.3772L123.573 91.1981C123.63 91.1374 123.684 91.0753 123.741 91.0137C123.961 90.7647 124.171 90.5047 124.375 90.2415C124.783 89.7135 125.165 89.1679 125.535 88.6135C126.272 87.5074 126.96 86.3735 127.62 85.2255L128.108 84.3631C128.27 84.0749 128.427 83.785 128.585 83.4955C128.744 83.2059 128.893 82.9138 129.049 82.6225C129.205 82.3312 129.35 82.0373 129.501 81.7425C130.093 80.5677 130.66 79.3828 131.226 78.1983C131.397 77.841 131.575 77.4868 131.757 77.1339C131.728 77.3011 131.697 77.4683 131.666 77.6355C131.609 77.943 131.551 78.2498 131.49 78.556C131.428 78.864 131.36 79.1659 131.291 79.4695C131.011 80.6825 130.735 81.8978 130.488 83.1215C130.24 84.3451 130.038 85.5789 129.872 86.8175C129.705 88.0561 129.577 89.3074 129.508 90.5575C129.488 90.8694 129.479 91.184 129.472 91.4969L129.466 91.7314C129.466 91.8097 129.461 91.8871 129.463 91.9659L129.467 92.4358C129.467 92.7473 129.486 93.0606 129.505 93.3699C129.51 93.4474 129.513 93.5244 129.52 93.6018L129.545 93.8333C129.563 93.9868 129.58 94.1413 129.601 94.2909C129.648 94.1386 129.692 93.9877 129.737 93.8381L129.802 93.6141C129.825 93.5402 129.852 93.4659 129.876 93.3915C129.926 93.2437 129.973 93.0963 130.021 92.9515C130.069 92.8067 130.123 92.6585 130.175 92.5115L130.329 92.0755C130.38 91.9307 130.436 91.7855 130.49 91.6412L130.651 91.2087C130.703 91.0648 130.763 90.9209 130.817 90.7775C131.259 89.6296 131.716 88.4896 132.185 87.3573C132.652 86.2226 133.117 85.0905 133.571 83.9544C134.024 82.8183 134.469 81.6805 134.935 80.5475C135.166 79.9812 135.419 79.4215 135.687 78.8662C135.819 78.5886 135.957 78.3118 136.092 78.0351L136.296 77.6197V77.6157C136.22 78.0329 136.14 78.4512 136.055 78.8706C135.947 79.3936 135.834 79.9177 135.715 80.4427C135.595 80.9678 135.47 81.4932 135.339 82.0188C134.818 84.1211 134.22 86.2239 133.579 88.3192C133.257 89.367 132.923 90.4126 132.578 91.4559C132.232 92.4992 131.877 93.5411 131.503 94.5777C132.055 93.6269 132.591 92.6646 133.12 91.6971C133.648 90.7295 134.166 89.7536 134.675 88.7711C135.692 86.806 136.671 84.8111 137.59 82.7721C137.82 82.2617 138.045 81.7484 138.267 81.2321C138.488 80.7158 138.704 80.1946 138.915 79.6683C139.094 79.2204 139.269 78.7685 139.44 78.3127C139.327 79.1447 139.185 79.9895 139.026 80.8374C138.834 81.8551 138.617 82.8781 138.384 83.9025C137.916 85.9511 137.384 88.0028 136.815 90.0497C136.53 91.0731 136.235 92.0956 135.93 93.1169C135.626 94.1377 135.314 95.1577 134.987 96.1741C135.495 95.2354 135.993 94.2903 136.48 93.3387C136.967 92.3871 137.448 91.4306 137.924 90.469C138.87 88.544 139.784 86.597 140.648 84.6109C141.08 83.6169 141.498 82.6128 141.897 81.5911C141.996 81.3368 142.094 81.0813 142.19 80.8247C142.19 81.0631 142.187 81.306 142.176 81.552C142.136 82.3735 142.051 83.1923 141.922 84.0045C141.856 84.4214 141.783 84.8407 141.702 85.2625C141.621 85.6843 141.53 86.1067 141.431 86.5297C141.039 88.2233 140.54 89.9243 139.979 91.613C139.696 92.4578 139.397 93.2997 139.082 94.1386C138.765 94.9768 138.436 95.8106 138.081 96.6396C138.605 95.9153 139.11 95.1726 139.604 94.4207C140.098 93.6687 140.579 92.9035 141.048 92.1274C141.983 90.5742 142.87 88.9752 143.675 87.3015C143.876 86.8826 144.071 86.4586 144.261 86.0294C144.354 85.8173 144.446 85.6038 144.535 85.3888C144.538 85.4266 144.541 85.4645 144.543 85.5027C144.597 86.3607 144.617 87.2438 144.618 88.1357C144.619 89.0276 144.597 89.9296 144.562 90.8355C144.491 92.6488 144.364 94.4783 144.203 96.3113C144.041 98.1444 143.845 99.9831 143.606 101.822C144.234 100.062 144.821 98.2821 145.381 96.49C145.941 94.6979 146.466 92.8899 146.943 91.0551C147.144 90.2757 147.335 89.4902 147.515 88.6985C147.541 88.7029 147.566 88.7068 147.592 88.7099C147.72 88.7239 147.849 88.7158 147.975 88.6857C147.896 89.0434 147.817 89.4016 147.742 89.7611C147.641 90.2477 147.55 90.7361 147.475 91.2276C147.4 91.7191 147.343 92.2132 147.293 92.7099L147.222 93.4579C147.199 93.707 147.174 93.9563 147.149 94.2059C147.097 94.7049 147.038 95.2034 146.964 95.7019C146.891 96.2005 146.814 96.6963 146.735 97.1935C146.655 97.6907 146.577 98.1888 146.494 98.6865L146.02 101.678C145.943 102.179 145.862 102.678 145.781 103.178C145.7 103.678 145.618 104.177 145.536 104.678C145.455 105.179 145.367 105.678 145.275 106.177C145.231 106.427 145.182 106.676 145.131 106.925C145.105 107.049 145.077 107.173 145.047 107.296C145.032 107.358 145.016 107.419 144.997 107.479C144.98 107.54 144.957 107.599 144.929 107.655C144.971 107.607 145.009 107.554 145.041 107.498C145.074 107.442 145.105 107.385 145.136 107.328C145.196 107.213 145.251 107.096 145.306 106.979C145.415 106.744 145.516 106.506 145.617 106.268C145.813 105.791 146 105.311 146.179 104.828C146.36 104.344 146.529 103.86 146.698 103.376C146.867 102.892 147.025 102.402 147.186 101.913C147.501 100.936 147.796 99.9531 148.071 98.9654C148.207 98.4712 148.339 97.976 148.469 97.48C149.442 93.7479 150.361 90.2943 150.053 86.3854C149.772 82.813 148.733 79.2244 147.388 75.9987C147.262 75.6973 147.138 75.3937 147.003 75.0976C146.867 74.8015 146.73 74.5063 146.589 74.2123L146.369 73.7772C146.297 73.6315 146.217 73.4903 146.142 73.3464C145.529 72.2107 144.835 71.1211 144.064 70.0865C143.298 69.0662 142.462 68.1002 141.562 67.1957C140.67 66.3019 139.721 65.4661 138.721 64.6934C137.726 63.9314 136.689 63.2263 135.614 62.5814C134.984 62.2036 134.343 61.8461 133.692 61.5091C133.37 60.8121 133.06 60.1103 132.753 59.4077C132.339 58.4573 131.93 57.5055 131.51 56.5609C131.09 55.6162 130.666 54.6733 130.257 53.722C130.052 53.2463 129.87 52.7588 129.699 52.2656C129.528 51.7723 129.369 51.2725 129.195 50.7819C129.024 50.293 128.823 49.8154 128.592 49.3519C128.562 49.2916 128.531 49.2318 128.5 49.1719C128.771 49.4975 129.058 49.8104 129.356 50.1149C129.767 50.5346 130.192 50.9421 130.611 51.3561C131.03 51.7701 131.437 52.1921 131.827 52.6246C132.609 53.4919 133.383 54.3644 134.168 55.2272C134.953 56.0901 135.759 56.9375 136.571 57.7792C137.384 58.6209 138.204 59.4569 139.021 60.2965C139.43 60.7162 139.838 61.1364 140.24 61.5628C140.444 61.7744 140.64 61.9905 140.835 62.2091C140.933 62.3188 141.027 62.4305 141.119 62.544C141.163 62.6012 141.211 62.6584 141.253 62.72C141.295 62.7816 141.336 62.8405 141.377 62.9043L141.363 62.7926C141.359 62.7543 141.349 62.7187 141.342 62.6813C141.328 62.6065 141.309 62.5339 141.29 62.4613C141.25 62.3152 141.204 62.1709 141.158 62.0279C141.062 61.7419 140.952 61.4616 140.841 61.1831C140.616 60.6265 140.37 60.0831 140.116 59.5432C139.607 58.4661 139.06 57.4127 138.499 56.3725C137.938 55.3324 137.351 54.3098 136.739 53.3066C136.128 52.3034 135.499 51.3147 134.875 50.323C134.562 49.828 134.267 49.3193 133.98 48.8045C133.905 48.6696 133.83 48.5344 133.756 48.3989C134.165 48.7693 134.588 49.1275 135.006 49.4896C135.219 49.6747 135.429 49.8611 135.639 50.0489C135.848 50.2372 136.051 50.429 136.255 50.6209C137.062 51.3961 137.874 52.1688 138.707 52.9212C139.54 53.6736 140.409 54.3943 141.303 55.0895C142.197 55.7847 143.117 56.4495 144.073 57.0695C144.309 57.2261 144.554 57.3749 144.799 57.5214L144.982 57.6314C145.043 57.6679 145.103 57.7053 145.166 57.7392L145.542 57.9469C145.79 58.0855 146.048 58.2109 146.304 58.3354C146.369 58.3657 146.432 58.3979 146.497 58.4265L146.694 58.5101C146.826 58.5642 146.958 58.6187 147.09 58.6698C146.996 58.5624 146.9 58.459 146.807 58.3543L146.665 58.2003C146.619 58.1484 146.574 58.0929 146.529 58.0397C146.441 57.9319 146.349 57.8272 146.259 57.722C146.169 57.6169 146.083 57.5064 145.995 57.3982L145.734 57.0757C145.646 56.9687 145.564 56.8557 145.479 56.7483L145.212 56.424C145.127 56.3167 145.046 56.204 144.962 56.0936C144.296 55.2136 143.647 54.3265 143.006 53.432C142.364 52.5375 141.723 51.6474 141.073 50.7647C140.423 49.8821 139.767 49.0047 139.125 48.1146C138.804 47.6693 138.499 47.2104 138.207 46.7405C138.061 46.506 137.916 46.2701 137.772 46.0343L137.555 45.6823L137.553 45.6788C137.843 45.9287 138.13 46.1826 138.416 46.4404C138.772 46.7631 139.125 47.0916 139.476 47.426C139.827 47.7604 140.174 48.0992 140.519 48.4424C141.898 49.8161 143.237 51.2514 144.543 52.7214C145.196 53.4568 145.842 54.201 146.479 54.954C147.115 55.7073 147.745 56.4667 148.36 57.242C147.912 56.362 147.446 55.4877 146.971 54.6183C146.497 53.7488 146.009 52.8842 145.512 52.0249C144.516 50.3054 143.477 48.6052 142.368 46.9328C142.089 46.5151 141.807 46.0991 141.52 45.6849C141.232 45.2708 140.939 44.8589 140.64 44.4494C140.383 44.1009 140.121 43.7542 139.855 43.4093C140.453 43.8757 141.045 44.3715 141.63 44.8833C142.331 45.4993 143.024 46.1355 143.707 46.7876C145.074 48.0922 146.408 49.4513 147.717 50.8387C148.372 51.533 149.02 52.2346 149.662 52.9436C150.304 53.6526 150.938 54.3689 151.565 55.0926C151.103 54.2531 150.626 53.4206 150.143 52.5912C149.66 51.7618 149.168 50.9363 148.667 50.1149C147.663 48.4723 146.626 46.8457 145.528 45.2432C144.978 44.4419 144.414 43.6464 143.823 42.8597C143.677 42.6643 143.528 42.4691 143.378 42.2741C143.568 42.3801 143.758 42.4941 143.947 42.6133C144.575 43.0128 145.179 43.4503 145.754 43.9232C146.047 44.1643 146.339 44.4136 146.63 44.6712C146.92 44.9287 147.206 45.1927 147.485 45.4632C148.622 46.5652 149.7 47.7265 150.715 48.9423C151.229 49.5539 151.731 50.1779 152.222 50.8145C152.712 51.4507 153.192 52.0966 153.652 52.7601C153.368 52.0038 153.059 51.2553 152.736 50.5113C152.413 49.7673 152.073 49.0281 151.717 48.2941C151.003 46.8104 150.211 45.3655 149.344 43.9654C149.123 43.6134 148.894 43.2624 148.66 42.9125C148.542 42.7406 148.423 42.5694 148.303 42.399L148.398 42.443C149.11 42.7836 149.822 43.1637 150.53 43.5637C151.239 43.9637 151.944 44.3865 152.642 44.8225C154.042 45.6946 155.425 46.6208 156.791 47.5765C158.157 48.5322 159.509 49.52 160.836 50.5425C159.786 49.2349 158.704 47.9499 157.588 46.6877C156.559 45.5199 155.505 44.3685 154.41 43.2412C154.443 43.2412 154.476 43.2372 154.51 43.2337C154.719 43.2072 154.919 43.1291 155.091 43.0062C155.275 43.1453 155.461 43.2812 155.649 43.4163L156.202 43.8101C156.387 43.9421 156.572 44.0741 156.756 44.2061C157.123 44.4727 157.486 44.746 157.841 45.0298C158.195 45.3136 158.545 45.6018 158.897 45.8887C159.249 46.1755 159.601 46.4646 159.949 46.7563L162.061 48.4908C162.415 48.7786 162.767 49.069 163.119 49.3603C163.471 49.6515 163.823 49.9433 164.175 50.235C164.527 50.5267 164.875 50.8228 165.22 51.1225C165.394 51.2715 165.565 51.4231 165.733 51.5774C165.818 51.6544 165.901 51.7323 165.981 51.8133C166.022 51.8533 166.062 51.8938 166.1 51.936C166.139 51.9775 166.174 52.0232 166.203 52.0724C166.188 52.016 166.167 51.9614 166.14 51.9096C166.114 51.8568 166.086 51.8058 166.058 51.7552C165.999 51.654 165.938 51.5559 165.875 51.4577C165.75 51.2628 165.617 51.0732 165.483 50.8857C165.214 50.51 164.937 50.1402 164.652 49.7765C164.37 49.4109 164.078 49.0545 163.786 48.6967C163.494 48.339 163.194 47.9901 162.895 47.6407C162.294 46.9423 161.678 46.2581 161.047 45.5881C160.73 45.2546 160.41 44.923 160.089 44.5933C159.767 44.2636 159.443 43.934 159.116 43.6046C158.791 43.2781 158.468 42.9473 158.148 42.612L157.664 42.1095C157.503 41.9423 157.339 41.7777 157.176 41.6123C156.847 41.2849 156.506 40.969 156.147 40.6725C155.787 40.3748 155.412 40.0958 155.024 39.8365C154.634 39.576 154.232 39.3287 153.819 39.0981C153.401 38.8638 152.972 38.6516 152.533 38.4623C152.083 38.2662 151.618 38.1076 151.142 37.988C150.896 37.9271 150.645 37.8849 150.391 37.8617C150.326 37.8578 150.259 37.8529 150.197 37.8512C150.134 37.8494 150.065 37.8512 149.999 37.8547C149.985 37.8547 149.969 37.8547 149.955 37.8582C149.548 37.6822 149.138 37.5146 148.721 37.3615C148.578 37.3056 148.432 37.255 148.288 37.2039C148.143 37.1529 147.998 37.0992 147.852 37.0513L147.412 36.9074C147.266 36.8581 147.117 36.8163 146.972 36.7705C146.677 36.6786 146.379 36.602 146.081 36.5193C145.781 36.4458 145.482 36.3662 145.18 36.3019C144.877 36.2377 144.574 36.173 144.271 36.1119L143.812 36.0305C143.66 36.0023 143.504 35.9794 143.353 35.9565C143.045 35.9068 142.737 35.8685 142.429 35.8307C142.121 35.7986 141.81 35.7643 141.5 35.7427C141.189 35.7211 140.878 35.7018 140.567 35.6855L140.099 35.6705C139.943 35.6648 139.787 35.6666 139.631 35.6639C138.379 35.6587 137.128 35.7408 135.887 35.9095C134.643 36.0828 133.411 36.3362 132.2 36.668C130.989 37.003 129.799 37.4083 128.636 37.882C127.475 38.3598 126.339 38.8962 125.232 39.4893C124.126 40.0815 123.051 40.7283 122.004 41.4143L121.612 41.673L121.223 41.937L120.836 42.201C120.706 42.289 120.578 42.377 120.45 42.469C119.937 42.8277 119.43 43.1944 118.928 43.569C117.924 44.317 116.941 45.0927 115.994 45.9089C115.047 46.7251 114.135 47.5809 113.271 48.4816C112.407 49.3823 111.589 50.3225 110.812 51.2949C110.666 51.478 110.521 51.6622 110.379 51.8476C110.652 46.9196 109.599 41.8323 107.883 37.3645C107.784 37.1067 107.685 36.8502 107.582 36.595L107.256 35.832C107.204 35.7049 107.142 35.5799 107.084 35.4545L106.908 35.0792C106.848 34.9542 106.793 34.8284 106.729 34.7052L106.541 34.3351C106.039 33.3466 105.474 32.3916 104.848 31.476C104.221 30.565 103.539 29.6936 102.804 28.8668C102.064 28.0559 101.269 27.2959 100.426 26.592L99.7878 26.0821C99.5678 25.9193 99.3478 25.7613 99.1278 25.602C98.9078 25.4427 98.6817 25.294 98.4568 25.1466L98.1176 24.9266L98.0327 24.8721L97.9447 24.8206L97.7687 24.7185C97.5363 24.5834 97.3058 24.447 97.0735 24.315C96.8359 24.1905 96.5996 24.0664 96.3624 23.9454C96.1253 23.8244 95.8824 23.7153 95.6421 23.604C95.4019 23.4927 95.1678 23.38 94.9201 23.2876L94.1853 22.9985C94.1246 22.9735 94.0621 22.9545 94.0001 22.9317L93.8135 22.8679L93.4413 22.7425L93.0703 22.6184C92.9454 22.5805 92.8195 22.5458 92.6941 22.5101L91.9435 22.3025L91.9303 22.3337C91.634 22.1958 91.3342 22.0694 91.0309 21.9544C87.7983 20.7224 84.0486 20.8214 80.661 21.1664C78.9776 21.3375 76.2773 21.3969 74.6814 22.2752C74.5791 22.331 74.4797 22.392 74.3835 22.4578C74.4955 22.4357 74.6096 22.4266 74.7237 22.4305C74.8372 22.4305 74.9516 22.4305 75.0655 22.4353C75.2935 22.4433 75.5209 22.4543 75.7484 22.4701C76.2034 22.4983 76.657 22.537 77.1098 22.5775C77.5625 22.6179 78.0131 22.6619 78.4637 22.7139C78.9142 22.7658 79.3626 22.8133 79.8101 22.8723C80.7055 22.9836 81.5956 23.1068 82.4809 23.2335C82.9239 23.2947 83.3653 23.3629 83.8048 23.4346C84.1691 23.4931 84.5321 23.5578 84.8943 23.6255C84.1401 23.7162 83.3902 23.8166 82.6445 23.9269C81.244 24.1342 79.8527 24.3669 78.4729 24.6349C79.8558 24.8826 81.2277 25.1669 82.5882 25.4744C83.9487 25.782 85.296 26.1199 86.6147 26.4974C87.2051 26.6668 87.789 26.8455 88.3623 27.0342C87.3319 27.3972 86.33 27.7989 85.3457 28.2257C84.6866 28.5132 84.0355 28.812 83.3925 29.122C82.7501 29.4331 82.1139 29.753 81.4909 30.09C82.1949 29.9967 82.8967 29.9263 83.5989 29.8669C84.3011 29.8075 85.0025 29.7631 85.7012 29.7319C87.0811 29.666 88.4635 29.67 89.8429 29.7437C90.0345 29.7549 90.2252 29.7679 90.4149 29.7829C88.9035 30.1864 87.4203 30.6334 85.9511 31.1064C84.417 31.6021 82.8981 32.1274 81.3945 32.6821C82.9957 32.6306 84.5946 32.62 86.1865 32.6381C87.3534 32.6517 88.5185 32.6821 89.6722 32.7393C88.7696 33.0619 87.875 33.3978 86.9882 33.7469C85.3285 34.3981 83.6882 35.0801 82.0721 35.8074C83.8281 35.5773 85.5864 35.3982 87.3407 35.2552C89.0949 35.1122 90.8461 35.0136 92.5802 34.9771C93.4474 34.9595 94.3098 34.9577 95.1617 34.9802L95.3086 34.9846C95.0292 35.0545 94.7494 35.1271 94.4695 35.1945C94.0124 35.3053 93.5548 35.3995 93.0967 35.4646C92.1807 35.5966 91.2655 35.7101 90.3494 35.8443C89.8913 35.913 89.4329 35.9834 88.9748 36.0643L88.2871 36.1871C88.0579 36.2311 87.8273 36.2751 87.5985 36.316C86.6793 36.492 85.7597 36.6742 84.834 36.8599L84.4864 36.9303L84.1383 36.9989C83.9051 37.0469 83.6728 37.0913 83.4383 37.1366C83.0999 37.207 82.762 37.2686 82.4175 37.328C81.7799 37.0931 81.1353 36.877 80.4815 36.6856C79.2688 36.3276 78.0342 36.0484 76.7855 35.8496C75.5394 35.6566 74.2813 35.5507 73.0204 35.5328C72.8629 35.5328 72.7058 35.528 72.5487 35.5328L72.0775 35.539C71.7633 35.55 71.4501 35.5583 71.1368 35.5799C70.8235 35.6015 70.5115 35.6239 70.1996 35.6516C69.8881 35.6855 69.5765 35.7172 69.2672 35.7616C69.1119 35.7819 68.9592 35.8025 68.803 35.8281L68.3406 35.9015C68.0326 35.9579 67.7246 36.0107 67.421 36.0775C67.1174 36.1444 66.8129 36.2117 66.5093 36.2808C66.2083 36.3591 65.9056 36.4304 65.6077 36.5184C65.4586 36.5624 65.3081 36.6011 65.1603 36.6482L64.7159 36.7855C64.5759 36.8295 64.4378 36.877 64.2987 36.9232C63.3605 37.084 62.4373 37.3224 61.5386 37.636C61.4863 37.6461 61.4343 37.6567 61.3824 37.6681C60.9005 37.7808 60.4287 37.933 59.9718 38.1231C59.5257 38.3065 59.0895 38.513 58.665 38.7417C58.243 38.967 57.8347 39.2095 57.4374 39.4651C57.0413 39.7194 56.6584 39.9937 56.2903 40.287C55.9242 40.5796 55.5749 40.8925 55.2343 41.2167C55.0671 41.3813 54.899 41.5445 54.734 41.71L54.2421 42.212C53.9136 42.5447 53.5824 42.873 53.2486 43.1972C52.9148 43.5213 52.582 43.8459 52.2502 44.1709C51.9199 44.4977 51.5918 44.8266 51.2659 45.1578C50.6165 45.8219 49.9829 46.5016 49.3651 47.1968C49.0571 47.5457 48.7491 47.8951 48.4482 48.2488C48.1472 48.6026 47.8471 48.9594 47.5559 49.3233C47.2646 49.6872 46.9764 50.0537 46.6979 50.4281C46.5601 50.6173 46.4229 50.8061 46.2926 51.0001C46.2279 51.0978 46.1637 51.1959 46.1034 51.2971C46.0735 51.3477 46.0445 51.3988 46.0154 51.4516C45.9882 51.5031 45.9666 51.5574 45.9512 51.6135ZM68.1949 66.3289C68.1892 66.3729 68.1844 66.4138 68.1795 66.456L68.0999 66.3847L68.1949 66.3289ZM83.7199 56.4548C84.2186 55.8118 84.7099 55.1636 85.1939 54.51C86.3605 52.9366 87.4958 51.341 88.5999 49.7233L88.6563 49.641C88.1657 51.269 87.6513 52.8895 87.1004 54.4977C86.9423 54.9585 86.781 55.418 86.6164 55.8762C85.9811 55.9884 85.3466 56.1125 84.7139 56.2441C84.3821 56.313 84.0508 56.3832 83.7199 56.4548ZM95.8349 39.3155C95.7249 39.3511 90.6754 40.1757 90.5654 40.2122C90.3309 40.2923 90.0959 40.3706 89.8614 40.4533C89.6361 40.5325 89.4113 40.6153 89.1873 40.6997C88.6159 40.3404 88.0357 39.9949 87.4467 39.6631C87.1622 39.5024 86.8753 39.346 86.5861 39.1941C87.2153 39.3727 87.8537 39.5082 88.4952 39.5434C89.7981 39.6143 91.0912 39.3736 92.3914 39.3511C93.4941 39.3318 94.7415 39.1483 95.8349 39.3155ZM128.884 59.3531C128.465 59.1882 128.044 59.0287 127.62 58.8744C127.62 58.8695 127.617 58.8651 127.616 58.8603C127.365 58.0789 127.119 57.2974 126.859 56.523L126.805 56.3611C127.131 56.5714 127.461 56.774 127.797 56.9687C127.831 56.9885 127.866 57.0053 127.9 57.0211C128.171 57.4106 128.447 57.7977 128.728 58.1823C128.888 58.3961 129.045 58.6108 129.208 58.8225C129.37 59.0341 129.534 59.2457 129.701 59.4547L129.978 59.7966C129.615 59.6447 129.25 59.4968 128.884 59.3531ZM110.956 68.3731C110.927 68.1698 110.901 67.9664 110.879 67.7628C110.851 67.4833 110.833 67.2037 110.823 66.9242C110.948 66.8335 111.074 66.7447 111.203 66.6602C111.527 66.4459 111.859 66.2457 112.184 66.0385C112.268 65.9842 112.352 65.9288 112.434 65.8721C112.236 66.2369 112.033 66.5964 111.818 66.9462C111.528 67.417 111.24 67.8913 110.956 68.3709V68.3731ZM105.948 67.1737C105.926 67.2141 105.904 67.2542 105.883 67.2947C105.873 67.2231 105.862 67.1514 105.851 67.0795C105.809 66.819 105.759 66.5572 105.697 66.2998C105.636 66.0424 105.565 65.7802 105.487 65.5241C105.8 65.3226 106.117 65.1296 106.438 64.9451C106.91 64.6737 107.387 64.4181 107.871 64.1781C107.783 64.3049 107.695 64.4307 107.607 64.5557C107.07 65.3005 106.57 66.0721 106.111 66.8674C106.058 66.9673 106.004 67.072 105.948 67.1715V67.1737ZM104.764 69.8814L104.71 70.0469C104.679 70.1428 104.648 70.239 104.619 70.3355C104.501 69.506 104.32 68.6866 104.078 67.8843C103.968 67.5213 103.848 67.1635 103.722 66.8089C103.881 66.6775 104.041 66.5493 104.204 66.4243C104.34 66.5783 104.472 66.7367 104.6 66.9004C104.74 67.0799 104.872 67.2665 104.999 67.4597C105.126 67.6528 105.244 67.8526 105.354 68.0607C105.38 68.11 105.405 68.1593 105.43 68.2094C105.398 68.2798 105.367 68.3511 105.335 68.4211C105.288 68.5271 105.24 68.6323 105.197 68.7409C105.154 68.8496 105.109 68.9552 105.065 69.0639L104.939 69.3886C104.898 69.4973 104.861 69.6086 104.821 69.7173L104.764 69.8814ZM94.4207 67.8134C94.7767 68.4224 95.1185 69.0384 95.4648 69.6513C95.4833 69.6843 95.5027 69.7169 95.5211 69.7499C95.3451 70.2528 95.1454 70.7575 94.9236 71.2736C94.9109 71.1161 94.8963 70.9594 94.8827 70.8023C94.8735 70.6919 94.8594 70.5823 94.8475 70.4737C94.8356 70.365 94.8224 70.2537 94.8092 70.1459C94.7824 69.9259 94.7498 69.712 94.7212 69.4951C94.6323 68.9257 94.5298 68.3661 94.4207 67.8095V67.8134ZM80.3165 53.2349C80.5189 53.0348 80.7254 52.838 80.936 52.6444C81.1472 52.4517 81.3602 52.2603 81.5771 52.0724C82.0096 51.6958 82.4514 51.3275 82.8791 50.9473C83.3069 50.5709 83.7121 50.1695 84.0926 49.7453C84.4703 49.3186 84.8205 48.8683 85.1411 48.3971C85.2543 48.2317 85.3654 48.0643 85.4742 47.8951L85.4346 47.9905C84.696 49.7658 83.9271 51.5283 83.1281 53.278C82.5526 54.5276 81.9586 55.7689 81.3316 56.9925C80.7895 57.1201 80.2487 57.2566 79.7093 57.4021C79.1567 57.5512 78.6061 57.7115 78.0575 57.8831C76.9611 58.2266 75.8769 58.6208 74.8051 59.0658C74.5584 59.1702 74.3127 59.2765 74.0681 59.3848C74.5283 58.9345 74.9904 58.486 75.4545 58.0393C76.2755 57.2473 77.0957 56.4553 77.9013 55.6501C78.707 54.8449 79.506 54.0357 80.3165 53.2349Z" fill="#9FEC49"/>
<path d="M93.7498 200.102C96.41 199.332 101.643 198.111 100.922 196.622C100.405 195.552 90.7803 173.227 87.4789 154.223C86.1792 146.743 84.6568 138.471 84.8878 127.952C85.0365 121.163 81.4716 121.68 81.0127 125.61C80.8024 127.408 81.3436 139.801 82.7115 152.724C84.3325 168.036 87.6395 184.376 88.4958 186.409C89.2125 188.108 91.0891 200.873 93.7498 200.102Z" fill="#B89042"/>
<path d="M48.6475 115.784C48.6659 115.755 48.6876 115.728 48.7121 115.704C48.7359 115.679 48.761 115.656 48.7861 115.633C48.8367 115.585 48.8886 115.541 48.9405 115.496C49.0458 115.408 49.1521 115.32 49.2595 115.232C49.4738 115.059 49.6911 114.889 49.9081 114.72C50.125 114.551 50.3432 114.383 50.5623 114.216C50.7815 114.05 50.9988 113.881 51.2184 113.716L52.5278 112.718C52.7443 112.55 52.9617 112.384 53.1799 112.218C53.3981 112.053 53.6165 111.888 53.8351 111.724C54.0551 111.561 54.2786 111.404 54.5056 111.252C54.6191 111.175 54.7331 111.101 54.8475 111.026L55.1889 110.801C55.4155 110.65 55.6386 110.496 55.8542 110.333C56.0698 110.171 56.2797 110.001 56.4852 109.826C56.6906 109.652 56.901 109.468 57.1064 109.286L57.2327 109.225C56.7115 109.813 56.271 110.467 55.9228 111.171C55.3693 111.662 54.8245 112.161 54.2883 112.667C53.4804 113.426 52.6874 114.198 51.9092 114.982C52.8358 114.383 53.7726 113.803 54.7194 113.242C55.6646 112.681 56.6176 112.136 57.5794 111.622C57.8866 111.458 58.1946 111.298 58.5034 111.141C58.4775 111.185 58.4511 111.226 58.4251 111.269C58.3552 111.385 58.2874 111.502 58.2188 111.621C58.1501 111.74 58.0868 111.856 58.0181 111.973C57.7541 112.446 57.5161 112.931 57.2934 113.425C57.0708 113.919 56.8649 114.419 56.6774 114.927C56.5837 115.182 56.4935 115.437 56.4099 115.696C56.3263 115.956 56.2462 116.216 56.1807 116.483C56.5824 116.111 56.9678 115.735 57.3493 115.362C57.7308 114.99 58.1057 114.614 58.4779 114.241C58.6117 114.107 58.745 113.972 58.8779 113.838C58.7605 114.095 58.6475 114.354 58.5386 114.615C58.3134 115.154 58.1028 115.699 57.9068 116.251C57.7123 116.804 57.5297 117.362 57.3823 117.936C57.7994 117.517 58.1981 117.092 58.5919 116.665C58.9857 116.239 59.3716 115.81 59.7539 115.382C60.1363 114.954 60.5125 114.524 60.8786 114.091C61.2446 113.657 61.6054 113.224 61.9746 112.8C62.1594 112.588 62.3556 112.385 62.5589 112.19C62.7622 111.995 62.9712 111.805 63.1723 111.613C63.222 111.565 63.2708 111.518 63.3188 111.469C63.2994 111.501 63.2805 111.533 63.2616 111.565C63.0913 111.847 62.9215 112.126 62.7433 112.397C62.3873 112.94 62.0393 113.484 61.711 114.039C61.3828 114.594 61.0757 115.162 60.787 115.739C60.4984 116.315 60.2234 116.899 59.966 117.492C59.7086 118.085 59.467 118.685 59.262 119.303C59.7306 118.853 60.1829 118.397 60.6313 117.939C61.0796 117.482 61.5218 117.026 61.961 116.569C62.4001 116.112 62.8352 115.656 63.2612 115.197C63.6871 114.738 64.1095 114.28 64.5416 113.833C64.6489 113.722 64.7616 113.613 64.8729 113.506C64.9842 113.4 65.1012 113.296 65.2187 113.195C65.4528 112.99 65.693 112.794 65.9258 112.595C65.9941 112.536 66.0612 112.477 66.1269 112.419L66.0191 112.577L65.8809 112.786C65.7885 112.925 65.6966 113.063 65.6033 113.202C65.4172 113.478 65.2236 113.748 65.0207 114.009C64.6142 114.532 64.1997 115.046 63.7887 115.563C63.3778 116.081 62.9721 116.604 62.566 117.129C62.1598 117.653 61.7502 118.174 61.33 118.689C61.2772 118.753 61.2262 118.821 61.172 118.883L61.0119 119.074C60.9582 119.138 60.9054 119.203 60.8508 119.266L60.6867 119.454C60.6322 119.517 60.5785 119.583 60.5213 119.643C60.4641 119.703 60.4078 119.766 60.3514 119.829C60.3233 119.86 60.2956 119.892 60.2661 119.923L60.1781 120.011C60.1196 120.072 60.0597 120.132 60.0021 120.194C60.0826 120.167 60.1622 120.136 60.2428 120.106L60.3633 120.062C60.4034 120.047 60.4421 120.029 60.4817 120.012C60.6383 119.943 60.7967 119.872 60.949 119.795L61.1791 119.678C61.2182 119.659 61.2552 119.637 61.2926 119.617L61.4052 119.555C61.5553 119.472 61.7058 119.388 61.8518 119.299C62.4406 118.947 63.0099 118.566 63.5617 118.168C64.1134 117.769 64.6516 117.353 65.1703 116.919C65.6891 116.484 66.1937 116.036 66.6967 115.586C66.8229 115.475 66.9497 115.363 67.0795 115.255C67.2093 115.146 67.3404 115.039 67.4724 114.932C67.7364 114.719 68.0048 114.508 68.2644 114.29C68.326 114.237 68.387 114.184 68.4474 114.13C68.3066 114.341 68.1689 114.555 68.0294 114.766C67.8376 115.056 67.6422 115.342 67.4372 115.62C67.0275 116.176 66.6184 116.733 66.2219 117.301C66.1242 117.444 66.0252 117.586 65.9284 117.73C65.8316 117.874 65.7361 118.019 65.6416 118.165C65.5469 118.311 65.4532 118.457 65.3613 118.605C65.2693 118.753 65.1782 118.901 65.0872 119.05C64.7268 119.648 64.3832 120.257 64.0668 120.887C63.9674 121.088 63.8722 121.29 63.7812 121.495C63.5137 121.638 63.2497 121.787 62.9892 121.942C62.6874 122.121 62.3905 122.309 62.0987 122.507C61.5133 122.904 60.9537 123.338 60.4232 123.806C60.1592 124.042 59.9021 124.287 59.6518 124.541C59.5898 124.605 59.5273 124.668 59.4666 124.733L59.2844 124.928C59.1656 125.06 59.0468 125.192 58.9324 125.329C58.1738 126.222 57.5277 127.205 57.0088 128.255C56.8638 128.409 56.7272 128.571 56.5996 128.739C56.266 129.186 55.9771 129.664 55.7372 130.168C55.6159 130.417 55.5098 130.674 55.4195 130.937C55.3297 131.201 55.2545 131.469 55.1942 131.741C55.1326 132.014 55.0825 132.289 55.0341 132.564L54.8915 133.387C54.844 133.662 54.8022 133.937 54.7661 134.214C54.7305 134.49 54.7032 134.769 54.6825 135.047C54.6618 135.326 54.653 135.606 54.6548 135.887C54.6548 136.028 54.6592 136.168 54.6667 136.308C54.6693 136.379 54.675 136.449 54.6798 136.519C54.6825 136.554 54.6843 136.589 54.6873 136.624L54.6975 136.729C54.7247 137.009 54.767 137.287 54.8242 137.562C54.8814 137.836 54.96 138.105 55.0591 138.366C55.1559 138.624 55.2807 138.87 55.4314 139.1C55.5765 139.321 55.7546 139.519 55.9594 139.687C55.6747 139.243 55.5229 138.744 55.4516 138.238C55.4168 137.985 55.3988 137.729 55.3979 137.473C55.3955 137.216 55.4061 136.959 55.4296 136.704C55.4764 136.19 55.5522 135.68 55.6567 135.175C55.7062 134.922 55.7624 134.669 55.8252 134.418C55.8879 134.167 55.9553 133.916 56.0271 133.667C56.1002 133.419 56.1846 133.173 56.2766 132.931C56.3686 132.688 56.468 132.447 56.5661 132.21C56.6642 131.972 56.7588 131.731 56.8446 131.489C56.9304 131.246 57.0092 131.001 57.0836 130.754C57.2302 130.258 57.3719 129.758 57.5086 129.252L57.715 128.489C57.7496 128.362 57.7858 128.234 57.8236 128.106C57.828 128.092 57.832 128.079 57.8364 128.066C57.8549 128.043 57.8738 128.022 57.8927 127.999C57.8634 128.111 57.8349 128.222 57.8074 128.333C57.6868 128.839 57.5962 129.341 57.5275 129.839C57.4589 130.336 57.4114 130.831 57.3797 131.322C57.3205 132.29 57.3124 133.26 57.3555 134.229C57.3754 134.708 57.4058 135.184 57.4466 135.658C57.4879 136.132 57.5372 136.603 57.6041 137.071C57.6591 136.6 57.7317 136.133 57.8118 135.668C57.8918 135.203 57.9825 134.744 58.0828 134.285C58.2782 133.381 58.5211 132.487 58.8106 131.608C59.0891 130.775 59.4142 129.971 59.7997 129.246C59.8045 129.29 59.8089 129.334 59.8142 129.378C59.8415 129.612 59.8724 129.846 59.907 130.079C60.0475 130.989 60.234 131.892 60.4658 132.783C60.5791 133.223 60.7005 133.659 60.8302 134.09C60.9622 134.521 61.0968 134.949 61.2464 135.37C61.2156 134.918 61.1993 134.467 61.1905 134.016C61.1817 133.566 61.1817 133.116 61.1905 132.668C61.2049 131.781 61.2636 130.896 61.3665 130.015C61.3934 129.798 61.4228 129.583 61.4545 129.37C61.4862 129.157 61.5262 128.946 61.5676 128.738C61.616 128.5 61.6697 128.265 61.7304 128.037C61.766 128.542 61.8136 129.041 61.869 129.537C61.9852 130.567 62.133 131.583 62.3033 132.591C62.4736 133.599 62.6601 134.598 62.8713 135.591C62.9026 134.569 62.9593 133.549 63.0328 132.535C63.1063 131.52 63.2031 130.511 63.3298 129.513C63.3936 129.015 63.4658 128.521 63.5498 128.034C63.5674 127.934 63.5854 127.833 63.6039 127.734C63.6101 127.8 63.6158 127.866 63.6224 127.933C63.6517 128.214 63.6828 128.495 63.7157 128.774C63.8508 129.89 64.0237 130.99 64.2212 132.081C64.3198 132.626 64.4245 133.169 64.5354 133.709C64.6463 134.249 64.762 134.788 64.8874 135.323C64.8826 134.769 64.8874 134.215 64.8984 133.662C64.9094 133.109 64.9261 132.557 64.9494 132.006C64.9961 130.906 65.0674 129.806 65.176 128.72C65.2033 128.449 65.2326 128.179 65.264 127.91C65.2772 127.802 65.2913 127.694 65.3054 127.586C65.3261 127.751 65.3441 127.915 65.3578 128.079C65.4084 128.69 65.4458 129.3 65.4946 129.911C65.5434 130.522 65.5958 131.132 65.653 131.744C65.7102 132.356 65.7648 132.969 65.8105 133.585C65.8154 133.662 65.8237 133.74 65.8277 133.817L65.8422 134.048C65.847 134.126 65.8532 134.204 65.8567 134.281L65.8677 134.514C65.8717 134.591 65.8778 134.67 65.8783 134.748C65.8787 134.825 65.8809 134.904 65.884 134.982C65.884 135.022 65.8871 135.062 65.8875 135.101V135.219C65.8875 135.298 65.8875 135.378 65.8875 135.459C66.0432 135.179 66.1798 134.889 66.2963 134.59L66.3843 134.366C66.4137 134.29 66.4384 134.215 66.4657 134.139C66.5189 133.987 66.5717 133.834 66.6184 133.681C66.8111 133.068 66.973 132.449 67.1111 131.825C67.2493 131.202 67.3672 130.578 67.4587 129.952C67.5503 129.327 67.6237 128.701 67.6959 128.075C67.7034 128.012 67.7113 127.949 67.7192 127.886C67.7953 128.447 67.8723 129.009 67.9621 129.57C68.0651 130.207 68.1894 130.842 68.3352 131.475C68.4809 132.107 68.6432 132.738 68.8395 133.362C68.9376 133.673 69.0436 133.984 69.1664 134.286C69.2284 134.438 69.2927 134.589 69.3661 134.736C69.3851 134.772 69.4027 134.809 69.4225 134.845L69.4814 134.952L69.5461 135.055C69.569 135.088 69.5932 135.121 69.6165 135.152L69.6015 135.031L69.5927 134.91L69.5875 134.789C69.5875 134.749 69.5875 134.709 69.5875 134.669C69.5875 134.629 69.5875 134.589 69.5875 134.549C69.5875 134.509 69.5875 134.469 69.5875 134.428C69.5875 134.348 69.5905 134.268 69.5945 134.188C69.6064 133.867 69.6253 133.548 69.6473 133.228C69.6913 132.589 69.7423 131.952 69.7925 131.313C69.8427 130.674 69.8897 130.037 69.9245 129.403C69.9593 128.768 69.9879 128.131 70.0239 127.495C70.0333 127.336 70.0455 127.176 70.0605 127.017C70.0767 126.857 70.0939 126.698 70.1141 126.538C70.1533 126.222 70.2021 125.906 70.2356 125.59C70.2796 125.698 70.3236 125.807 70.3676 125.917C70.4644 126.162 70.5524 126.41 70.6267 126.661C70.7755 127.163 70.9123 127.667 71.0557 128.17C71.1273 128.422 71.2006 128.673 71.2757 128.925C71.2947 128.987 71.3145 129.05 71.3329 129.113C71.3514 129.176 71.369 129.239 71.3884 129.302C71.4267 129.427 71.4667 129.553 71.5023 129.679C71.655 130.182 71.8037 130.687 71.9423 131.199C71.9595 131.263 71.9793 131.327 71.9943 131.391L72.0435 131.584C72.0783 131.714 72.1069 131.843 72.1377 131.973C72.1685 132.104 72.1931 132.237 72.2222 132.369C72.2283 132.403 72.2371 132.437 72.242 132.47L72.2578 132.571C72.2693 132.639 72.2794 132.707 72.2921 132.777C72.3203 132.714 72.3463 132.649 72.374 132.584L72.4131 132.485C72.4268 132.452 72.4365 132.419 72.4479 132.385C72.4712 132.318 72.4919 132.25 72.5135 132.183C72.535 132.115 72.5539 132.046 72.5724 131.978L72.6265 131.771L72.6397 131.719L72.6507 131.667L72.6732 131.564C72.7027 131.425 72.733 131.285 72.7555 131.146C72.8515 130.591 72.9181 130.031 72.9548 129.468C72.9931 128.91 73.0093 128.353 72.9988 127.801C72.9904 127.405 72.9737 127.014 72.9548 126.622L73.1717 127.172C73.3376 127.589 73.514 128.004 73.69 128.42C73.866 128.837 74.042 129.256 74.2048 129.68C74.2871 129.893 74.3659 130.109 74.4385 130.328C74.5144 130.552 74.5773 130.781 74.6268 131.013C74.7334 130.786 74.8162 130.549 74.8736 130.306C74.9333 130.062 74.98 129.815 75.0135 129.566C75.0791 129.074 75.1159 128.58 75.1235 128.084C75.1266 127.839 75.1279 127.594 75.12 127.35C75.12 127.301 75.1169 127.253 75.1147 127.204C75.4242 127.717 75.7699 128.208 76.1492 128.672C76.1932 128.77 76.235 128.867 76.2777 128.965L76.3503 129.13L76.4211 129.296C76.4686 129.407 76.515 129.518 76.5601 129.63C76.6512 129.852 76.7361 130.077 76.8193 130.305C76.9025 130.532 76.9737 130.763 77.0331 131C77.0499 131.06 77.0609 131.119 77.0745 131.18C77.082 131.21 77.0855 131.24 77.0912 131.271C77.0969 131.301 77.1031 131.332 77.1071 131.363C77.115 131.424 77.1242 131.488 77.1273 131.55C77.1304 131.613 77.133 131.678 77.1348 131.746C77.2084 131.637 77.2703 131.521 77.3196 131.4C77.3731 131.274 77.4188 131.144 77.4564 131.012C77.53 130.747 77.584 130.478 77.6179 130.205C77.6531 129.935 77.6733 129.664 77.6848 129.394C77.6909 129.259 77.6927 129.126 77.6949 128.991C77.6971 128.856 77.6949 128.723 77.6914 128.59C77.6914 128.523 77.6874 128.458 77.6852 128.391C77.683 128.323 77.6804 128.262 77.6773 128.198C77.9207 128.074 78.1539 127.931 78.3747 127.77C78.4627 127.926 78.5507 128.082 78.6387 128.238C78.8477 128.613 79.0558 128.989 79.2459 129.376C79.3409 129.57 79.4307 129.766 79.5099 129.969C79.5539 130.071 79.5838 130.174 79.6164 130.281C79.6238 130.308 79.6304 130.335 79.6375 130.362C79.641 130.376 79.6445 130.39 79.6476 130.404L79.6555 130.446C79.6608 130.473 79.6683 130.502 79.6714 130.531L79.6828 130.619C79.7156 130.568 79.745 130.515 79.7708 130.461L79.7906 130.417C79.7968 130.403 79.802 130.389 79.8078 130.373C79.8192 130.344 79.8311 130.315 79.8421 130.285C79.8619 130.227 79.8826 130.167 79.898 130.109L79.9222 130.018L79.9433 129.928C79.9947 129.685 80.0287 129.439 80.0449 129.192C80.0755 128.708 80.0721 128.223 80.0348 127.74C80.0159 127.502 79.9943 127.265 79.964 127.031C79.949 126.913 79.9326 126.797 79.9147 126.681C79.8962 126.566 79.876 126.451 79.8562 126.336C79.856 126.335 79.856 126.333 79.8562 126.332L79.9706 126.191C80.041 126.098 80.1105 126.003 80.1791 125.908C80.2412 125.825 80.297 125.739 80.3551 125.654C80.4689 125.778 80.576 125.908 80.6759 126.043C80.802 126.215 80.9254 126.39 81.0459 126.566C81.1058 126.654 81.166 126.742 81.2246 126.83C81.2831 126.918 81.3429 127.006 81.4006 127.097L81.4886 127.229L81.5766 127.364L81.7526 127.633L81.8406 127.769C81.8692 127.813 81.8973 127.859 81.9286 127.905C81.9598 127.95 81.9858 127.996 82.0166 128.041L82.0606 128.11L82.1019 128.179C82.2159 128.364 82.3254 128.551 82.4315 128.742C82.5375 128.933 82.64 129.128 82.7373 129.328C82.86 129.585 82.9744 129.849 83.0761 130.128C83.0761 130.167 83.0792 130.206 83.0818 130.245L83.1042 130.207C83.1518 130.342 83.1966 130.479 83.2362 130.622C83.3265 130.389 83.395 130.147 83.4408 129.901C83.4611 129.796 83.4778 129.689 83.4919 129.582L83.4945 129.578C83.6368 129.365 83.7818 129.159 83.9297 128.962C84.0775 128.765 84.23 128.573 84.3873 128.387L84.5048 128.249C84.543 128.202 84.5844 128.158 84.624 128.113L84.683 128.045L84.7432 127.979C84.7837 127.935 84.8229 127.891 84.8642 127.847C85.1881 127.495 85.5207 127.166 85.8556 126.842C86.0697 126.636 86.2873 126.434 86.5085 126.237C86.5248 126.273 86.5406 126.31 86.5574 126.346C86.6317 126.505 86.7114 126.662 86.7958 126.815C86.8451 126.903 86.8975 126.991 86.9507 127.079C86.9397 127.098 86.9283 127.116 86.9173 127.135C86.6295 127.63 86.3624 128.141 86.116 128.67C85.8656 129.201 85.6482 129.747 85.4648 130.305C85.3729 130.588 85.2994 130.877 85.2448 131.169L85.2259 131.28C85.2202 131.316 85.2158 131.354 85.211 131.391C85.2 131.464 85.1938 131.539 85.189 131.611C85.1863 131.647 85.1863 131.685 85.185 131.722V131.776C85.185 131.795 85.185 131.813 85.185 131.831C85.1876 131.868 85.1876 131.903 85.192 131.939C85.1964 131.975 85.2013 132.01 85.2066 132.045L85.2506 131.945C85.2646 131.913 85.2827 131.882 85.2985 131.851C85.3064 131.835 85.3139 131.82 85.3223 131.807L85.3482 131.763C85.3663 131.732 85.3821 131.703 85.401 131.675C85.4393 131.616 85.4736 131.559 85.5141 131.503C85.5335 131.475 85.552 131.447 85.5722 131.419L85.6334 131.337C85.7953 131.12 85.9691 130.913 86.1468 130.711C86.5028 130.306 86.8777 129.919 87.253 129.535C87.6283 129.152 88.0093 128.772 88.3829 128.386C88.7565 128.001 89.1283 127.614 89.5084 127.234C89.5727 127.17 89.6404 127.107 89.7055 127.044L89.7117 127.051C89.7839 127.124 89.8565 127.195 89.9295 127.266C89.6242 127.787 89.3219 128.31 89.0381 128.848C88.7512 129.394 88.4872 129.958 88.2509 130.538C88.1924 130.683 88.1352 130.829 88.0793 130.978C88.0234 131.127 87.9706 131.273 87.9205 131.423C87.8188 131.722 87.7264 132.025 87.6494 132.333C87.5704 132.641 87.5128 132.955 87.477 133.271C87.4677 133.349 87.4646 133.43 87.4589 133.508C87.4558 133.547 87.4567 133.587 87.4554 133.626C87.4541 133.666 87.4554 133.704 87.4554 133.744C87.4577 133.897 87.4758 134.05 87.5095 134.2C87.535 134.125 87.5535 134.053 87.5856 133.983C87.6178 133.913 87.6437 133.845 87.6736 133.778C87.6886 133.745 87.7075 133.712 87.7234 133.679C87.7392 133.646 87.755 133.613 87.7735 133.581C87.81 133.516 87.843 133.453 87.8822 133.39C88.0314 133.139 88.1946 132.9 88.3662 132.666C88.5378 132.432 88.7129 132.204 88.8942 131.979C88.9382 131.923 88.9822 131.866 89.0301 131.81L89.1674 131.643L89.306 131.477L89.446 131.312C89.8186 130.872 90.1983 130.437 90.5737 129.999C90.949 129.562 91.3256 129.125 91.7119 128.695C91.9047 128.481 92.1079 128.275 92.3205 128.076C92.4203 127.981 92.5215 127.888 92.6227 127.795C92.3719 128.283 92.1229 128.772 91.8893 129.271C91.8303 129.403 91.7705 129.53 91.7133 129.661C91.6561 129.792 91.5993 129.925 91.5443 130.057C91.4893 130.189 91.4361 130.321 91.3841 130.457C91.3322 130.593 91.2821 130.726 91.2319 130.861C91.0316 131.405 90.8605 131.96 90.7193 132.523C90.6507 132.806 90.5913 133.092 90.5503 133.38C90.5064 133.666 90.4902 133.954 90.502 134.243C90.6366 133.997 90.7846 133.758 90.9455 133.529C91.1017 133.302 91.264 133.082 91.4295 132.866C91.7608 132.434 92.1027 132.013 92.4463 131.595C92.7899 131.177 93.1358 130.763 93.4737 130.344L93.9801 129.714C94.1491 129.504 94.3194 129.295 94.491 129.087C94.553 129.012 94.6168 128.939 94.6815 128.867C94.5988 129.077 94.5139 129.286 94.4241 129.492C94.1641 130.088 93.9062 130.685 93.6664 131.292C93.4266 131.899 93.2097 132.518 93.0161 133.148C92.8225 133.777 92.6513 134.416 92.5176 135.064C92.4516 135.389 92.3948 135.715 92.3557 136.043C92.3142 136.368 92.298 136.696 92.3073 137.024C92.4494 136.726 92.5994 136.443 92.76 136.166C92.9206 135.89 93.0839 135.619 93.2524 135.351C93.5894 134.816 93.9375 134.291 94.2895 133.769C94.3775 133.637 94.4655 133.508 94.5535 133.378L94.8175 132.988L95.0815 132.597L95.3424 132.206C95.6882 131.683 96.0319 131.159 96.3847 130.64C96.4727 130.508 96.5643 130.383 96.6575 130.256C96.7508 130.129 96.8476 130.005 96.9457 129.881C97.1411 129.633 97.3417 129.39 97.5362 129.141C97.7299 128.895 97.9081 128.636 98.0699 128.368C98.2304 128.097 98.3727 127.815 98.4959 127.525C98.5228 127.463 98.5491 127.4 98.5746 127.337L98.6371 127.389C98.4611 127.726 98.3037 128.073 98.1654 128.428C98.0269 128.789 97.9067 129.158 97.8055 129.532C97.703 129.907 97.6101 130.285 97.5103 130.662C97.4104 131.038 97.3048 131.41 97.1851 131.78C96.9466 132.517 96.7011 133.25 96.46 133.986C96.2189 134.722 95.9896 135.462 95.7608 136.203C95.532 136.945 95.3041 137.687 95.0652 138.425C94.9459 138.795 94.8236 139.163 94.6929 139.529C94.6608 139.621 94.6269 139.712 94.5931 139.803C94.5763 139.847 94.5579 139.891 94.5403 139.939C94.5227 139.986 94.5051 140.03 94.4861 140.074C94.4672 140.119 94.4496 140.164 94.4303 140.209L94.3704 140.341C94.3502 140.385 94.3264 140.429 94.3071 140.473C94.2877 140.517 94.2604 140.561 94.2371 140.605C94.2745 140.575 94.3132 140.545 94.3502 140.513C94.3871 140.481 94.4237 140.448 94.4597 140.414L94.5649 140.309C94.5997 140.273 94.6327 140.237 94.667 140.201C94.8021 140.055 94.931 139.902 95.0551 139.747C95.3041 139.436 95.5391 139.114 95.7657 138.789C96.2189 138.137 96.6421 137.469 97.0496 136.791L97.351 136.281C97.4509 136.111 97.5477 135.939 97.6458 135.769C97.7439 135.598 97.8372 135.425 97.9327 135.253C98.0281 135.081 98.1188 134.906 98.2121 134.733C98.579 134.039 98.931 133.337 99.2826 132.636C99.3886 132.425 99.499 132.215 99.6121 132.007C99.5919 132.106 99.5721 132.206 99.5519 132.305C99.5145 132.488 99.4753 132.671 99.4357 132.853C99.3961 133.035 99.3512 133.215 99.3068 133.396C99.1255 134.117 98.9469 134.84 98.7854 135.567C98.6239 136.294 98.4888 137.03 98.3744 137.767C98.26 138.505 98.1707 139.251 98.1152 139.998C98.0998 140.184 98.091 140.372 98.0827 140.559L98.077 140.698C98.0748 140.745 98.0721 140.791 98.0721 140.838L98.0695 141.119C98.0669 141.305 98.0735 141.492 98.0809 141.677C98.0836 141.724 98.0845 141.77 98.088 141.816L98.0999 141.954C98.1095 142.046 98.1175 142.138 98.128 142.228C98.1584 142.14 98.1861 142.048 98.216 141.96L98.2578 141.828C98.2719 141.784 98.2886 141.74 98.304 141.696C98.3357 141.608 98.3656 141.52 98.3955 141.432C98.4255 141.344 98.4602 141.258 98.4923 141.171L98.5896 140.913C98.6217 140.825 98.6569 140.741 98.6908 140.655L98.7915 140.398C98.8241 140.313 98.8615 140.228 98.8954 140.143C99.173 139.463 99.4595 138.788 99.7516 138.116C100.044 137.444 100.334 136.773 100.618 136.1C100.901 135.426 101.18 134.752 101.47 134.08C101.615 133.745 101.772 133.413 101.938 133.085C102.021 132.92 102.105 132.757 102.189 132.593L102.315 132.347V132.345C102.265 132.593 102.213 132.843 102.157 133.093C102.087 133.404 102.014 133.716 101.937 134.028C101.861 134.34 101.78 134.653 101.695 134.965C101.359 136.214 100.979 137.464 100.571 138.707C100.366 139.33 100.155 139.95 99.9377 140.57C99.7177 141.189 99.4951 141.807 99.2597 142.422C99.6007 141.86 99.9316 141.292 100.258 140.72C100.585 140.148 100.906 139.571 101.22 138.99C101.85 137.828 102.458 136.649 103.03 135.44C103.172 135.138 103.313 134.834 103.451 134.528C103.59 134.222 103.725 133.913 103.856 133.602C103.968 133.336 104.077 133.068 104.185 132.798C104.108 133.294 104.013 133.797 103.909 134.301C103.783 134.907 103.642 135.515 103.491 136.124C103.188 137.342 102.847 138.561 102.484 139.776C102.302 140.384 102.114 140.992 101.921 141.598C101.727 142.204 101.529 142.81 101.322 143.413C101.637 142.858 101.943 142.299 102.246 141.736C102.55 141.174 102.848 140.608 103.141 140.039C103.728 138.9 104.296 137.748 104.835 136.572C105.104 135.983 105.363 135.388 105.615 134.782C105.677 134.632 105.738 134.48 105.799 134.328C105.797 134.47 105.791 134.615 105.782 134.762C105.749 135.252 105.689 135.74 105.602 136.224C105.558 136.472 105.509 136.721 105.456 136.972C105.402 137.222 105.343 137.473 105.28 137.725C105.026 138.733 104.708 139.742 104.354 140.745C104.176 141.246 103.987 141.746 103.789 142.243C103.591 142.74 103.385 143.235 103.163 143.725C103.485 143.298 103.794 142.861 104.098 142.417C104.402 141.974 104.698 141.522 104.986 141.064C105.563 140.147 106.11 139.202 106.61 138.212C106.735 137.964 106.856 137.713 106.974 137.459C107.033 137.333 107.09 137.207 107.146 137.079C107.146 137.102 107.148 137.123 107.149 137.148C107.172 137.66 107.174 138.188 107.163 138.721C107.153 139.253 107.131 139.792 107.1 140.332C107.037 141.414 106.94 142.506 106.823 143.599C106.706 144.691 106.567 145.788 106.404 146.883C106.8 145.838 107.17 144.783 107.524 143.719C107.879 142.655 108.213 141.581 108.519 140.491C108.648 140.028 108.771 139.561 108.888 139.09L108.932 139.097C109.009 139.107 109.086 139.104 109.161 139.087C109.11 139.3 109.059 139.513 109.01 139.727C108.944 140.016 108.884 140.307 108.834 140.599C108.784 140.892 108.743 141.187 108.708 141.483L108.657 141.928C108.64 142.077 108.624 142.225 108.605 142.374C108.569 142.671 108.527 142.968 108.478 143.265C108.428 143.561 108.377 143.857 108.324 144.153C108.27 144.449 108.219 144.746 108.164 145.042L107.846 146.823C107.794 147.121 107.741 147.419 107.687 147.716C107.632 148.013 107.577 148.311 107.523 148.609C107.469 148.908 107.411 149.204 107.35 149.501C107.321 149.65 107.29 149.798 107.256 149.946C107.239 150.02 107.221 150.094 107.201 150.166C107.192 150.202 107.181 150.239 107.17 150.275C107.158 150.311 107.144 150.347 107.126 150.38C107.151 150.352 107.174 150.321 107.194 150.287C107.215 150.254 107.234 150.221 107.253 150.187C107.29 150.119 107.324 150.05 107.359 149.98C107.427 149.842 107.491 149.701 107.552 149.56C107.675 149.277 107.792 148.993 107.904 148.706C108.018 148.42 108.124 148.134 108.23 147.844C108.337 147.553 108.437 147.265 108.538 146.976C108.738 146.396 108.925 145.812 109.101 145.225C109.187 144.931 109.272 144.637 109.355 144.342C109.979 142.125 110.567 140.074 110.427 137.734C110.3 135.598 109.72 133.443 108.953 131.501C108.882 131.32 108.811 131.137 108.733 130.959C108.655 130.781 108.577 130.603 108.496 130.425L108.37 130.161C108.329 130.073 108.282 129.988 108.238 129.901C107.885 129.216 107.482 128.558 107.034 127.931C106.588 127.313 106.1 126.727 105.573 126.176C105.05 125.632 104.492 125.122 103.904 124.649C103.319 124.183 102.707 123.75 102.073 123.353C101.701 123.12 101.323 122.9 100.937 122.693C100.753 122.273 100.576 121.85 100.4 121.427C100.163 120.855 99.9302 120.283 99.69 119.711C99.4498 119.139 99.206 118.574 98.9741 118.002C98.8575 117.715 98.7541 117.422 98.6573 117.125C98.5605 116.829 98.4721 116.529 98.3731 116.234C98.2769 115.94 98.1621 115.652 98.0294 115.373C98.0123 115.336 97.9943 115.3 97.9762 115.264C98.1346 115.462 98.3023 115.652 98.4769 115.836C98.7176 116.091 98.9675 116.34 99.2122 116.591C99.4568 116.843 99.6962 117.099 99.9245 117.363C100.381 117.891 100.834 118.419 101.293 118.944C101.752 119.468 102.224 119.983 102.701 120.495C103.178 121.007 103.657 121.515 104.135 122.026C104.375 122.281 104.614 122.537 104.849 122.796C104.968 122.925 105.083 123.056 105.197 123.189C105.254 123.256 105.309 123.321 105.362 123.392C105.389 123.427 105.416 123.461 105.441 123.498C105.465 123.534 105.489 123.571 105.513 123.609L105.505 123.542C105.505 123.519 105.498 123.498 105.494 123.476C105.487 123.432 105.476 123.388 105.465 123.344C105.443 123.256 105.418 123.168 105.391 123.084C105.337 122.911 105.274 122.743 105.211 122.575C105.083 122.24 104.942 121.913 104.797 121.588C104.505 120.939 104.192 120.303 103.867 119.676C103.543 119.049 103.205 118.431 102.851 117.825C102.498 117.218 102.133 116.621 101.772 116.021C101.59 115.721 101.42 115.414 101.255 115.104L101.125 114.859C101.366 115.085 101.614 115.303 101.86 115.525C101.985 115.637 102.108 115.751 102.231 115.866C102.354 115.981 102.473 116.097 102.592 116.215C103.066 116.687 103.542 117.158 104.031 117.617C104.519 118.076 105.03 118.516 105.555 118.941C106.08 119.366 106.623 119.774 107.187 120.154C107.326 120.25 107.471 120.342 107.615 120.433L107.723 120.5C107.759 120.523 107.795 120.544 107.832 120.567L108.052 120.695C108.199 120.781 108.352 120.859 108.503 120.936C108.541 120.954 108.578 120.974 108.617 120.992L108.734 121.045C108.813 121.078 108.89 121.112 108.968 121.144C108.913 121.079 108.857 121.016 108.802 120.953L108.719 120.859C108.692 120.827 108.666 120.794 108.64 120.762C108.588 120.696 108.534 120.633 108.482 120.568C108.43 120.504 108.38 120.436 108.329 120.373L108.177 120.177C108.126 120.112 108.077 120.045 108.028 119.978L107.88 119.78C107.83 119.715 107.783 119.648 107.734 119.581C107.346 119.048 106.969 118.51 106.596 117.969C106.223 117.427 105.85 116.888 105.472 116.354C105.094 115.819 104.712 115.288 104.339 114.749C104.152 114.48 103.976 114.202 103.806 113.918C103.722 113.776 103.638 113.634 103.555 113.492L103.429 113.278V113.275C103.599 113.428 103.768 113.583 103.936 113.74C104.145 113.937 104.352 114.137 104.557 114.341C104.763 114.544 104.966 114.75 105.169 114.96C105.977 115.796 106.76 116.668 107.523 117.561C107.905 118.007 108.281 118.459 108.654 118.916C109.025 119.373 109.393 119.834 109.754 120.303C109.496 119.771 109.226 119.247 108.954 118.719C108.682 118.191 108.399 117.672 108.112 117.153C107.537 116.115 106.935 115.088 106.292 114.077C106.13 113.824 105.966 113.572 105.799 113.322C105.632 113.071 105.462 112.822 105.287 112.574C105.138 112.362 104.985 112.152 104.83 111.944C105.182 112.229 105.53 112.531 105.873 112.844C106.286 113.219 106.692 113.608 107.093 114.005C107.894 114.799 108.677 115.626 109.441 116.469C109.823 116.891 110.202 117.317 110.579 117.748C110.954 118.178 111.327 118.612 111.691 119.053C111.424 118.546 111.149 118.044 110.87 117.543C110.591 117.041 110.306 116.543 110.016 116.047C109.436 115.054 108.835 114.071 108.197 113.102C107.878 112.618 107.55 112.134 107.207 111.659C107.121 111.542 107.034 111.423 106.947 111.304C107.059 111.37 107.171 111.44 107.283 111.513C107.654 111.759 108.009 112.027 108.347 112.316C108.52 112.462 108.692 112.615 108.862 112.772C109.032 112.93 109.199 113.091 109.364 113.256C110.03 113.926 110.661 114.631 111.253 115.368C111.553 115.739 111.846 116.118 112.133 116.503C112.418 116.889 112.698 117.28 112.965 117.682C112.804 117.227 112.628 116.777 112.443 116.328C112.259 115.88 112.064 115.435 111.86 114.992C111.45 114.098 110.994 113.226 110.492 112.381C110.364 112.167 110.232 111.955 110.096 111.744C110.028 111.64 109.959 111.537 109.889 111.433L109.945 111.461C110.366 111.673 110.788 111.908 111.206 112.155C111.625 112.402 112.042 112.662 112.454 112.931C113.28 113.467 114.095 114.036 114.9 114.622C115.706 115.209 116.501 115.814 117.282 116.44C116.67 115.648 116.036 114.869 115.386 114.1C114.785 113.391 114.168 112.692 113.528 112.006C113.547 112.006 113.567 112.006 113.587 112.003C113.713 111.99 113.834 111.945 113.939 111.874C114.047 111.959 114.156 112.042 114.267 112.125L114.593 112.366C114.702 112.447 114.813 112.527 114.919 112.609C115.136 112.772 115.349 112.939 115.557 113.113C115.765 113.287 115.973 113.462 116.179 113.638C116.385 113.814 116.592 113.99 116.798 114.168L118.04 115.228C118.248 115.404 118.455 115.58 118.661 115.759C118.868 115.938 119.075 116.115 119.282 116.293C119.489 116.472 119.693 116.652 119.898 116.836C120 116.927 120.1 117.019 120.199 117.113C120.249 117.16 120.297 117.207 120.345 117.256C120.369 117.281 120.392 117.305 120.414 117.331C120.437 117.356 120.457 117.384 120.474 117.414C120.466 117.38 120.454 117.347 120.438 117.316C120.424 117.284 120.407 117.253 120.391 117.223C120.357 117.162 120.322 117.102 120.285 117.043C120.212 116.925 120.135 116.81 120.058 116.696C119.901 116.468 119.739 116.244 119.574 116.024C119.409 115.804 119.239 115.586 119.069 115.369C118.899 115.152 118.723 114.94 118.549 114.727C118.197 114.303 117.837 113.888 117.468 113.481C117.282 113.278 117.095 113.076 116.907 112.876C116.718 112.675 116.528 112.476 116.335 112.278C116.144 112.079 115.955 111.878 115.768 111.674L115.486 111.369C115.392 111.267 115.296 111.167 115.2 111.066C115.007 110.867 114.808 110.674 114.597 110.494C114.386 110.312 114.165 110.142 113.937 109.983C113.707 109.823 113.471 109.671 113.226 109.528C112.979 109.383 112.725 109.251 112.465 109.132C112.198 109.009 111.922 108.909 111.639 108.832C111.492 108.793 111.343 108.765 111.192 108.748C111.153 108.745 111.114 108.741 111.076 108.74C111.038 108.738 110.997 108.74 110.958 108.74H110.931C110.69 108.63 110.447 108.525 110.199 108.429C110.114 108.394 110.028 108.362 109.942 108.33C109.856 108.298 109.77 108.264 109.684 108.234L109.423 108.143C109.335 108.112 109.247 108.085 109.159 108.055C108.983 107.996 108.807 107.948 108.631 107.895C108.455 107.842 108.275 107.797 108.095 107.754C107.915 107.712 107.735 107.671 107.555 107.631L107.282 107.577C107.191 107.559 107.1 107.543 107.008 107.527C106.826 107.494 106.642 107.469 106.458 107.442C106.274 107.415 106.089 107.395 105.904 107.379C105.719 107.362 105.534 107.347 105.348 107.335L105.069 107.32C104.975 107.315 104.882 107.314 104.789 107.311C104.041 107.294 103.293 107.328 102.55 107.415C101.806 107.505 101.068 107.642 100.341 107.827C99.6137 108.013 98.8981 108.242 98.1975 108.511C97.4988 108.783 96.8143 109.091 96.1467 109.433C95.4792 109.774 94.8302 110.148 94.1966 110.545L93.9599 110.695L93.7245 110.848L93.49 111.002C93.412 111.053 93.3342 111.105 93.2568 111.157C92.9464 111.366 92.6393 111.579 92.3354 111.796C91.7273 112.231 91.1316 112.684 90.5565 113.16C89.9814 113.637 89.4279 114.138 88.9017 114.666C88.3754 115.193 87.8756 115.746 87.4013 116.318C87.3133 116.426 87.2253 116.535 87.1373 116.644C87.3573 113.704 86.7853 110.654 85.812 107.966C85.7557 107.81 85.6994 107.658 85.6404 107.502L85.4556 107.044C85.4257 106.967 85.3905 106.892 85.3575 106.816L85.2567 106.59C85.2224 106.515 85.1912 106.439 85.1542 106.365L85.046 106.141C84.7571 105.546 84.4301 104.97 84.067 104.417C83.7029 103.865 83.3052 103.337 82.8763 102.835C82.4432 102.342 81.9774 101.879 81.482 101.449L81.1062 101.137C80.9777 101.038 80.8475 100.941 80.7186 100.843C80.5896 100.746 80.4546 100.655 80.3226 100.563L80.1224 100.429L80.0726 100.395L80.0212 100.363L79.9182 100.3C79.7809 100.217 79.645 100.133 79.5077 100.051C79.3704 99.9699 79.2274 99.8977 79.087 99.8229C78.9467 99.7481 78.8032 99.6799 78.6611 99.6104C78.519 99.5409 78.3778 99.4705 78.2308 99.4124L77.7952 99.2311C77.7591 99.2157 77.7222 99.2025 77.6852 99.1893L77.5748 99.1493L77.3548 99.0701L77.1348 98.9918C77.0609 98.968 76.986 98.9477 76.9117 98.9227L76.4655 98.7907L76.4576 98.8092C76.2816 98.7238 76.104 98.6449 75.9248 98.5724C74.0081 97.8007 71.7677 97.8165 69.7406 97.9842C68.7334 98.0673 67.12 98.0722 66.1568 98.5786C66.0952 98.6107 66.0353 98.646 65.9773 98.6842C66.0443 98.6722 66.1125 98.668 66.1805 98.6714C66.2483 98.6714 66.3165 98.675 66.3847 98.6785C66.5207 98.686 66.6566 98.6948 66.7921 98.7071C67.0636 98.7291 67.3338 98.7572 67.6035 98.7863C67.8732 98.8153 68.1425 98.847 68.4109 98.8835C68.6793 98.92 68.9464 98.953 69.213 98.9931C69.7467 99.0701 70.2769 99.1537 70.8041 99.239C71.0681 99.283 71.3321 99.327 71.5921 99.3745C71.8095 99.4139 72.0256 99.456 72.2407 99.5008C71.7897 99.5448 71.3409 99.5985 70.8938 99.6553C70.0552 99.7631 69.2218 99.8863 68.3946 100.031C69.2174 100.194 70.0336 100.38 70.8428 100.579C71.6519 100.778 72.4523 100.995 73.2355 101.235C73.5875 101.343 73.9335 101.457 74.2735 101.576C73.6535 101.781 73.0507 102.01 72.4585 102.253C72.061 102.417 71.6688 102.588 71.2819 102.767C70.8943 102.945 70.511 103.129 70.1348 103.324C70.5555 103.276 70.9765 103.242 71.3963 103.214C71.8161 103.187 72.2358 103.17 72.6534 103.158C73.4782 103.134 74.3036 103.152 75.1266 103.212C75.2406 103.221 75.3545 103.231 75.4676 103.242C74.5603 103.466 73.6698 103.716 72.7867 103.981C71.8627 104.26 70.9515 104.553 70.0477 104.871C71.0047 104.858 71.9595 104.871 72.9077 104.898C73.6047 104.92 74.299 104.952 74.9885 104.998C74.4455 105.181 73.9072 105.372 73.3737 105.57C72.3749 105.94 71.3871 106.329 70.4142 106.745C71.4654 106.628 72.5174 106.541 73.5668 106.475C74.6162 106.41 75.663 106.371 76.6992 106.369C77.2171 106.369 77.7323 106.377 78.2392 106.4L78.3272 106.404C78.1591 106.443 77.9914 106.483 77.8234 106.52C77.5492 106.581 77.2747 106.632 77.0006 106.666C76.4519 106.734 75.9041 106.792 75.3554 106.861C75.0813 106.897 74.8067 106.934 74.5322 106.976L74.1199 107.042C73.9826 107.065 73.8445 107.09 73.7072 107.111C73.1563 107.206 72.6072 107.304 72.0501 107.405L71.842 107.443L71.633 107.48C71.4935 107.506 71.3541 107.53 71.2137 107.554C71.0109 107.592 70.8085 107.624 70.6017 107.657C70.2236 107.51 69.841 107.375 69.4541 107.251C68.7332 107.024 67.9984 106.843 67.2541 106.711C66.5124 106.581 65.7626 106.504 65.0102 106.479C64.9164 106.479 64.8227 106.472 64.7286 106.472H64.4474C64.2595 106.475 64.0721 106.476 63.8851 106.486C63.6981 106.496 63.5111 106.505 63.3245 106.518C63.138 106.531 62.9518 106.55 62.7662 106.573C62.6738 106.584 62.5809 106.594 62.4885 106.607L62.2113 106.646C62.0274 106.676 61.843 106.705 61.6604 106.74C61.4778 106.776 61.2957 106.814 61.1135 106.851C60.9314 106.888 60.7514 106.934 60.5723 106.983C60.4843 107.007 60.3928 107.027 60.3039 107.055L60.0368 107.132C59.9528 107.156 59.8696 107.184 59.786 107.21C59.2241 107.295 58.6703 107.428 58.1303 107.606C58.0991 107.611 58.0674 107.617 58.0366 107.623C57.7474 107.685 57.4639 107.77 57.1887 107.879C56.9204 107.982 56.6577 108.1 56.4016 108.231C56.1468 108.363 55.9004 108.501 55.6602 108.649C55.4207 108.797 55.189 108.956 54.9658 109.127C54.7458 109.297 54.5316 109.479 54.3261 109.67C54.224 109.766 54.1219 109.862 54.0216 109.959L53.7207 110.251C53.5209 110.446 53.3195 110.639 53.1165 110.828C52.9135 111.018 52.711 111.208 52.5089 111.4C52.3077 111.591 52.1081 111.784 51.9101 111.978C51.5146 112.368 51.1285 112.767 50.7515 113.175C50.5641 113.379 50.3767 113.584 50.1923 113.791C50.0079 113.997 49.8249 114.208 49.6471 114.422C49.4694 114.636 49.2951 114.852 49.1222 115.072C49.0377 115.183 48.9537 115.295 48.8736 115.409C48.8336 115.468 48.7944 115.525 48.757 115.585C48.739 115.615 48.7209 115.645 48.7042 115.677C48.6807 115.71 48.6616 115.746 48.6475 115.784ZM61.7643 124.824C61.7603 124.85 61.7568 124.875 61.7533 124.9L61.7066 124.856L61.7643 124.824ZM71.1477 119.104C71.4525 118.726 71.7533 118.344 72.0501 117.96C72.7647 117.034 73.4608 116.094 74.1384 115.14C74.1498 115.124 74.1613 115.108 74.1731 115.092C73.8616 116.06 73.536 117.02 73.1889 117.974C73.0894 118.248 72.9879 118.521 72.8844 118.792C72.503 118.851 72.1229 118.917 71.7439 118.991C71.545 119.027 71.3463 119.065 71.1477 119.104V119.104ZM78.5771 109.004C78.5111 109.024 75.4865 109.459 75.4201 109.48C75.2793 109.524 75.1381 109.568 74.9973 109.616C74.8565 109.664 74.7267 109.707 74.592 109.755C74.255 109.534 73.9124 109.321 73.5642 109.116C73.3961 109.017 73.2265 108.921 73.0555 108.826C73.4247 108.945 73.8059 109.022 74.1921 109.056C74.9691 109.114 75.7439 108.985 76.521 108.986C77.1792 108.989 77.9263 108.894 78.5771 109.004ZM98.0875 121.347C97.8391 121.244 97.5897 121.144 97.3395 121.047L97.3369 121.038C97.1957 120.569 97.0575 120.099 96.9114 119.634L96.8806 119.537C97.0728 119.666 97.2681 119.791 97.4667 119.911C97.4865 119.923 97.5067 119.934 97.527 119.943C97.6849 120.179 97.8447 120.414 98.0083 120.647C98.1012 120.777 98.1931 120.907 98.2877 121.035C98.3823 121.164 98.4778 121.292 98.5755 121.419L98.7365 121.626C98.5203 121.53 98.304 121.437 98.0875 121.347ZM87.2798 126.528C87.264 126.407 87.2499 126.285 87.2398 126.164C87.2266 125.997 87.2185 125.83 87.2156 125.662C87.2913 125.61 87.3674 125.558 87.4457 125.509C87.6415 125.384 87.8417 125.269 88.0384 125.148C88.0894 125.117 88.14 125.085 88.1898 125.052C88.0674 125.268 87.942 125.48 87.8096 125.686C87.6309 125.966 87.4541 126.246 87.279 126.528H87.2798ZM84.3015 125.756C84.2883 125.78 84.2746 125.804 84.261 125.827C84.2562 125.783 84.2509 125.742 84.2447 125.698C84.2227 125.542 84.1959 125.386 84.162 125.231C84.1281 125.077 84.089 124.92 84.045 124.766C84.2347 124.649 84.4263 124.537 84.6196 124.431C84.9043 124.274 85.1916 124.127 85.4842 123.989C85.431 124.063 85.3773 124.137 85.3227 124.211C84.9938 124.65 84.6871 125.105 84.404 125.575C84.3688 125.636 84.3354 125.696 84.3006 125.756H84.3015ZM83.5297 127.458C83.5099 127.515 83.491 127.572 83.4721 127.629C83.4107 127.132 83.3118 126.641 83.1764 126.159C83.1152 125.941 83.0479 125.727 82.9766 125.514C83.0729 125.437 83.1701 125.362 83.2684 125.289C83.348 125.383 83.425 125.478 83.4989 125.577C83.5808 125.686 83.6573 125.797 83.7308 125.916C83.8043 126.034 83.8734 126.153 83.9363 126.279C83.9512 126.309 83.9658 126.339 83.9803 126.367L83.9209 126.492C83.8914 126.555 83.8619 126.617 83.8329 126.681C83.8038 126.746 83.7774 126.809 83.751 126.873L83.6723 127.066C83.6468 127.13 83.623 127.198 83.5984 127.26L83.5623 127.358L83.5297 127.458ZM77.4102 126.006C77.6161 126.373 77.8132 126.745 78.013 127.115C78.0236 127.135 78.0346 127.155 78.0456 127.175C77.9334 127.473 77.8093 127.773 77.6707 128.079C77.665 127.984 77.6584 127.89 77.6522 127.796C77.6478 127.73 77.6408 127.664 77.6351 127.599C77.6293 127.535 77.6223 127.467 77.6157 127.403C77.602 127.271 77.5853 127.143 77.5717 127.013C77.5229 126.675 77.4683 126.34 77.4076 126.006L77.4102 126.006ZM69.1519 117.144C69.2746 117.026 69.4009 116.912 69.5285 116.798C69.6561 116.685 69.7863 116.574 69.9179 116.464C70.1819 116.244 70.4485 116.029 70.7099 115.807C70.9696 115.587 71.2162 115.352 71.4482 115.103C71.6786 114.853 71.8929 114.588 72.0897 114.311C72.1593 114.213 72.227 114.114 72.2943 114.015L72.2697 114.071C71.808 115.123 71.3288 116.167 70.8322 117.202C70.4741 117.943 70.1053 118.677 69.7168 119.402C69.3915 119.473 69.0671 119.548 68.7435 119.629C68.4118 119.711 68.0835 119.802 67.7518 119.897C67.0918 120.09 66.4397 120.312 65.796 120.567C65.6473 120.626 65.4994 120.686 65.352 120.749C65.6322 120.485 65.9133 120.222 66.1955 119.961C66.6945 119.497 67.1934 119.033 67.6836 118.562C68.1737 118.091 68.6586 117.611 69.1519 117.144Z" fill="#9FEC49"/>
<path d="M122.094 195.783C120.297 195.783 118.531 196.249 116.968 197.137C115.406 198.024 114.1 199.302 113.18 200.846C112.732 200.755 112.277 200.709 111.82 200.707C110.563 200.707 109.33 201.048 108.254 201.696C106.383 194.774 100.063 189.681 92.5504 189.681C86.3904 189.681 81.0338 193.106 78.2723 198.155C77.4247 197.86 76.5334 197.709 75.6359 197.71C71.2332 197.71 67.6595 201.254 67.6094 205.646H132.465C132.194 200.153 127.656 195.783 122.094 195.783Z" fill="#9FEC49"/>
<path d="M80.6198 205.646H80.9388C80.182 203.432 79.1964 200.495 78.363 197.992C78.3326 198.046 78.3005 198.1 78.2702 198.155C78.2081 198.133 78.143 198.118 78.0801 198.097C78.6538 199.82 79.7486 203.098 80.6198 205.646Z" fill="#CFF1D6"/>
<path d="M106.964 205.646L108.517 201.548C108.429 201.596 108.338 201.643 108.253 201.696C108.238 201.639 108.22 201.584 108.204 201.527L106.643 205.646H106.964Z" fill="#CFF1D6"/>
<path d="M114.481 205.646H114.797C114.287 203.948 113.697 202.022 113.283 200.682C113.249 200.737 113.212 200.79 113.178 200.846C113.122 200.835 113.065 200.826 113.009 200.816C113.498 202.404 114.03 204.149 114.481 205.646Z" fill="#CFF1D6"/>
<path d="M58.6194 205.427C57.3817 205.581 54.8829 203.927 54.4926 203.856C54.1024 203.785 53.2012 202.815 53.3046 202.38C53.408 201.945 52.466 201.642 52.2425 202.076C52.019 202.509 49.6025 201.994 50.5406 200.649C51.4787 199.304 53.3416 197.818 53.3416 197.818C54.2713 199.325 55.7009 199.035 55.7009 199.035C55.6258 199.816 55.6718 200.604 55.8373 201.37C56.1114 202.609 59.8571 205.273 58.6194 205.427Z" fill="#DA3D3D"/>
<path d="M73.0958 160.675C73.0958 160.675 73.9424 172.562 71.5998 176.7C69.2573 180.838 55.0013 199.586 55.0013 199.586L53.2461 198.096C53.2461 198.096 58.8341 179.864 64.0657 172.018C64.0657 172.018 64.6078 161.687 62.9054 159.615C62.9054 159.615 66.0818 159.388 73.0958 160.675Z" fill="#FEB39E"/>
<path d="M57.2915 204.704C56.899 204.762 55.7348 204.132 55.6926 203.686C55.6503 203.24 54.6621 203.256 54.5891 203.738C54.516 204.22 52.0617 204.505 52.5211 202.931C52.9805 201.357 54.2692 199.353 54.2692 199.353C55.6332 200.483 56.8933 199.749 56.8933 199.749C57.0721 200.513 57.3678 201.244 57.7698 201.917C58.4271 203.003 62.8297 204.328 61.7051 204.87C60.5805 205.412 57.6836 204.647 57.2915 204.704Z" fill="#F56565"/>
<path d="M53.1122 118.426C52.553 119.005 46.987 122.811 45.0928 123.833C42.2997 125.34 32.4023 114.193 32.4023 114.193L34.0475 113.585C34.0475 113.585 43.1207 120.127 44.5248 118.616C45.9288 117.105 47.3526 107.753 51.0469 106.076C54.2835 104.609 57.8528 104.783 61.3169 104.852C66.0464 104.946 68.1932 106.03 70.457 110.193C71.6533 112.393 73.2633 118.761 76.2293 119.037C78.2533 119.226 83.6393 112.514 83.6393 112.514L85.0399 113.409C85.0399 113.409 78.9771 124.418 75.0316 123.726C73.1093 123.389 70.5749 120.602 69.2817 119.414C68.825 118.994 67.8297 117.903 67.1829 117.848C65.668 117.72 64.3454 124.908 65.3191 125.629C68.2425 127.797 71.2102 134.14 72.2909 140.898C73.7253 149.874 73.0952 160.674 73.0952 160.674C73.0952 160.674 63.1178 157.974 51.4521 161.178C51.4521 161.178 47.5647 140.608 49.9491 134.011C52.3334 127.414 55.7918 126.223 55.7016 125.563C55.4983 124.063 53.6714 117.848 53.1122 118.426Z" fill="#F56565"/>
<path d="M60.7795 102.549C59.9501 103.074 60.6255 103.186 58.4915 103.359C54.7954 103.661 53.8951 99.9714 53.7151 97.6684C53.4916 94.8159 54.6884 92.37 58.8294 92.6811C62.9703 92.9921 62.9215 96.8773 62.9215 96.8773C62.9215 96.8773 63.3905 100.898 60.7795 102.549Z" fill="#FEA086"/>
<path d="M57.0799 105.063L56.9541 101.336L59.976 101.374L60.1881 105.102C60.1881 105.102 58.8703 106.809 57.0799 105.063Z" fill="#FEA086"/>
<path d="M85.8496 111.061C86.3111 110.907 89.3299 110.811 89.8812 111.438C90.4326 112.065 88.4623 111.828 87.2215 112.485C85.9807 113.142 85.0514 113.4 85.0514 113.4C85.0514 113.4 83.5994 112.586 83.6395 112.516C84.0218 111.853 85.74 109.621 86.4554 109.788C87.1709 109.955 85.3876 111.215 85.8496 111.061Z" fill="#FEA086"/>
<path d="M31.7853 110.381C32.5201 110.351 33.7952 112.863 34.0482 113.585C34.0751 113.661 32.4968 114.192 32.4968 114.192C32.4968 114.192 31.6318 113.766 30.534 112.89C29.4362 112.015 27.454 111.883 28.114 111.369C28.774 110.855 31.722 111.509 32.1457 111.746C32.5694 111.983 31.0505 110.412 31.7853 110.381Z" fill="#FEA086"/>
<path d="M62.9057 159.615C62.9057 159.615 63.4156 172.9 62.5642 174.523C61.7128 176.145 56.614 196.516 56.8794 199.761C56.8794 199.761 55.9171 201.092 54.1707 199.508C54.1707 199.508 52.0485 178.472 53.5028 174.061C54.957 169.65 51.4541 161.178 51.4541 161.178C51.4541 161.178 58.4748 159.409 62.9057 159.615Z" fill="#FEA086"/>
<path d="M56.9532 103.227L57.079 105.062C57.079 105.062 53.5845 103.83 50.0223 106.778C46.4601 109.726 46.7857 110.54 42.2343 109.077C37.6829 107.615 38.1894 105.244 33.9535 108.234C29.7176 111.224 22.7335 110.966 20.6215 108.234C18.5095 105.502 19.9717 99.7908 21.7594 98.0149C23.5471 96.2391 28.2582 99.4894 32.403 98.6749C36.5478 97.8605 35.7558 95.7393 41.0269 93.6321C46.2981 91.525 46.7857 92.317 49.2233 92.6523C51.6609 92.9875 52.9632 92.5999 54.2608 92.2246C55.5584 91.8493 57.0236 89.9995 61.4112 92.2246C65.7989 94.4496 62.4831 100.722 61.9982 101.333C61.9982 101.333 63.0727 98.3489 61.9982 96.5616C60.9237 94.7744 61.7197 95.2614 58.7215 95.5866C55.7234 95.9118 54.9903 93.6312 54.9903 93.6312C54.9903 93.6312 55.924 96.3209 54.9903 98.0123C54.0566 99.7036 55.0955 101.764 56.9532 103.227Z" fill="url(#paint6_linear)"/>
</g>
<defs>
<linearGradient id="paint0_linear" x1="-16170" y1="139240" x2="-28236.9" y2="152714" gradientUnits="userSpaceOnUse">
<stop stop-color="#A0EC4A"/>
<stop offset="1" stop-color="#FFFF01"/>
</linearGradient>
<linearGradient id="paint1_linear" x1="-18064.2" y1="82481.2" x2="-25210.9" y2="92416.1" gradientUnits="userSpaceOnUse">
<stop stop-color="#A0EC4A"/>
<stop offset="1" stop-color="#FFFF01"/>
</linearGradient>
<linearGradient id="paint2_linear" x1="-12574" y1="87929.8" x2="-20367.6" y2="96594.2" gradientUnits="userSpaceOnUse">
<stop stop-color="#A0EC4A"/>
<stop offset="1" stop-color="#FFFF01"/>
</linearGradient>
<linearGradient id="paint3_linear" x1="-17584.9" y1="52164.6" x2="-21756.7" y2="59614.9" gradientUnits="userSpaceOnUse">
<stop stop-color="#A0EC4A"/>
<stop offset="1" stop-color="#FFFF01"/>
</linearGradient>
<linearGradient id="paint4_linear" x1="-12431.9" y1="59143.8" x2="-17689" y2="65930.8" gradientUnits="userSpaceOnUse">
<stop stop-color="#A0EC4A"/>
<stop offset="1" stop-color="#FFFF01"/>
</linearGradient>
<linearGradient id="paint5_linear" x1="1005.81" y1="63616.2" x2="-3483.41" y2="66542.2" gradientUnits="userSpaceOnUse">
<stop stop-color="#A0EC4A"/>
<stop offset="1" stop-color="#FFFF01"/>
</linearGradient>
<linearGradient id="paint6_linear" x1="18.8998" y1="107.795" x2="60.6698" y2="96.5492" gradientUnits="userSpaceOnUse">
<stop stop-color="#7D3E00"/>
<stop offset="0.96" stop-color="#562B00"/>
<stop offset="1" stop-color="#542A00"/>
</linearGradient>
<clipPath id="clip0">
<path d="M0 0H200C206.627 0 212 5.37258 212 12V208C212 214.627 206.627 220 200 220H0V0Z" fill="white"/>
</clipPath>
</defs>
</svg>
