<svg width="212" height="220" viewBox="0 0 212 220" fill="none" xmlns="http://www.w3.org/2000/svg">
<g clip-path="url(#clip0)">
<g clip-path="url(#clip1)">
<path d="M33.3066 73.7524L30.9443 72.3916L62.5786 47.7046L64.9444 49.0794L33.3066 73.7524Z" fill="#8F9093"/>
<path d="M64.9435 49.0796L65.8891 54.6032L34.2548 79.2937L33.3057 73.7526L64.9435 49.0796Z" fill="#818385"/>
<path d="M34.3411 106.036L31.9971 104.661V78.3308L34.3411 79.6951V106.036Z" fill="#55555F"/>
<path d="M37.1334 75.1482L31.9971 78.3305L34.3419 79.6948L39.7399 76.5684L37.1334 75.1482Z" fill="#3C3C46"/>
<path d="M42.4909 72.0569L37.1348 75.1484L39.7413 76.5686L45.1044 73.4736L42.4909 72.0569Z" fill="#F0F0F5"/>
<path d="M47.8464 68.9653L42.4902 72.0569L45.1037 73.4735L50.4669 70.375L47.8464 68.9653Z" fill="#3C3C46"/>
<path d="M53.2018 65.8701L47.8457 68.9652L50.4662 70.3748L55.8293 67.2798L53.2018 65.8701Z" fill="#F0F0F5"/>
<path d="M58.5627 62.7786L53.2031 65.8701L55.8306 67.2798L61.1902 64.1848L58.5627 62.7786Z" fill="#3C3C46"/>
<path d="M63.9186 59.6873L58.5625 62.7788L61.19 64.185L66.4309 61.233L63.9186 59.6873Z" fill="#F0F0F5"/>
<path d="M66.4307 61.2329V87.4796L34.3428 106.036V79.6949L66.4307 61.2329Z" fill="#191923"/>
<path d="M45.1039 73.4734L39.7408 76.5684L34.3428 85.7384L39.7233 82.6399L45.1039 73.4734Z" fill="#C8C8C8"/>
<path d="M50.4673 70.3748L45.1042 73.4733L39.7236 82.6397L45.0902 79.5412L50.4673 70.3748Z" fill="#191923"/>
<path d="M39.7408 76.5686L34.3428 79.695V85.7385L39.7408 76.5686Z" fill="#191923"/>
<path d="M66.4308 61.2329L61.1898 64.1849L55.8232 73.3444L61.1863 70.2458L66.4308 61.2329Z" fill="#C8C8C8"/>
<path d="M66.431 61.2329L61.1865 70.2458L66.431 67.1473V61.2329Z" fill="#191923"/>
<path d="M61.1898 64.1848L55.8302 67.2798L50.4531 76.4428L55.8232 73.3443L61.1898 64.1848Z" fill="#191923"/>
<path d="M55.831 67.28L50.4679 70.3751L45.0908 79.5415L50.4539 76.443L55.831 67.28Z" fill="#C8C8C8"/>
<path d="M34.2557 79.2937L31.8899 77.9189L30.9443 72.3918L33.3066 73.7527L34.2557 79.2937Z" fill="#55555F"/>
<path d="M36.2128 68.2776L30.9404 72.3915L33.3062 73.7523L38.5786 69.6384L36.2128 68.2776Z" fill="#F0F0F5"/>
<path d="M41.4853 64.1638L36.2129 68.2777L38.5787 69.6386L43.8545 65.5316L41.4853 64.1638Z" fill="#3C3C46"/>
<path d="M46.7577 60.0466L41.4854 64.164L43.8546 65.5319L49.127 61.4214L46.7577 60.0466Z" fill="#F0F0F5"/>
<path d="M52.0337 55.9326L46.7578 60.0465L49.1271 61.4213L54.3995 57.3109L52.0337 55.9326Z" fill="#3C3C46"/>
<path d="M57.3056 51.8188L52.0332 55.9328L54.399 57.311L59.6748 53.2041L57.3056 51.8188Z" fill="#F0F0F5"/>
<path d="M62.579 47.7046L57.3066 51.8185L59.6759 53.2038L64.9448 49.0794L62.579 47.7046Z" fill="#3C3C46"/>
<path d="M64.9507 49.104L59.6748 53.204L65.8893 54.6346L64.9507 49.104Z" fill="#191923"/>
<path d="M38.578 69.6387L33.3057 73.7526L39.5202 75.1623L44.7926 71.0588L38.578 69.6387Z" fill="#C8C8C8"/>
<path d="M33.3057 73.7527L34.2443 79.2693L39.5202 75.1624L33.3057 73.7527Z" fill="#191923"/>
<path d="M43.854 65.5317L38.5781 69.6387L44.7926 71.0588L50.065 66.9519L43.854 65.5317Z" fill="#191923"/>
<path d="M59.6753 53.2039L54.3994 57.3108L60.6174 58.7414L65.8898 54.6345L59.6753 53.2039Z" fill="#C8C8C8"/>
<path d="M49.1279 61.4214L43.8555 65.5318L50.0665 66.952L55.3424 62.845L49.1279 61.4214Z" fill="#C8C8C8"/>
<path d="M54.3993 57.3108L49.127 61.4212L55.3415 62.8449L60.6173 58.7414L54.3993 57.3108Z" fill="#191923"/>
<path d="M38.4438 72.7967L38.3216 72.7235L38.2379 72.6851L38.1437 72.6502L38.032 72.6258H37.9099H37.7703C37.7204 72.6225 37.6703 72.6225 37.6203 72.6258C37.5661 72.634 37.5125 72.6457 37.4598 72.6606C37.3965 72.6763 37.3346 72.6973 37.2748 72.7235C37.2151 72.7478 37.1568 72.7758 37.1004 72.8072L36.2071 73.3236C36.0973 73.388 35.9964 73.4666 35.907 73.5574C35.8727 73.5894 35.8401 73.6232 35.8093 73.6586L35.7361 73.7493L35.6767 73.8296C35.6584 73.8538 35.6421 73.8795 35.6279 73.9063L35.579 73.9796L35.5372 74.0564L35.4988 74.1331C35.4988 74.1576 35.4744 74.182 35.4639 74.2099L35.4325 74.2902L35.4011 74.3739C35.4011 74.4018 35.4011 74.4332 35.3732 74.4646C35.3452 74.496 35.3732 74.5309 35.3487 74.5658C35.3243 74.6007 35.3313 74.6496 35.3278 74.6914C35.3243 74.7495 35.3243 74.8078 35.3278 74.8659L35.3452 82.0434C35.3348 82.1539 35.3534 82.2652 35.3993 82.3662C35.4452 82.4672 35.5168 82.5544 35.6069 82.6192L36.0536 82.8774C35.9624 82.8137 35.89 82.7266 35.844 82.6253C35.7979 82.524 35.7799 82.4123 35.7919 82.3017L35.7709 75.1241C35.7674 75.066 35.7674 75.0077 35.7709 74.9496C35.7709 74.9078 35.7709 74.8659 35.7919 74.824C35.8128 74.7822 35.7919 74.7542 35.8163 74.7228C35.8407 74.6914 35.8163 74.66 35.8442 74.6321L35.8756 74.5449L35.907 74.4681C35.9201 74.442 35.9318 74.4152 35.9419 74.3879C35.9561 74.3642 35.9689 74.3397 35.9803 74.3146L36.0222 74.2378L36.071 74.1645C36.071 74.1366 36.1024 74.1122 36.1199 74.0843L36.1827 74.004L36.2525 73.9168C36.2832 73.8814 36.3159 73.8476 36.3502 73.8156C36.4402 73.7257 36.541 73.6471 36.6503 73.5818L37.5435 73.0654C37.5999 73.034 37.6582 73.006 37.718 72.9817C37.7771 72.954 37.8392 72.9329 37.9029 72.9189C37.9552 72.9022 38.009 72.8906 38.0634 72.884H38.2135H38.3531H38.4752L38.5868 72.9084L38.6811 72.9433C38.7099 72.9539 38.7379 72.9668 38.7648 72.9817L38.4438 72.7967Z" fill="#D7DCDC"/>
<path d="M37.5428 73.0651C38.0348 72.7825 38.6594 72.8034 38.9385 73.1175L43.3246 78.1212C43.6003 78.4387 43.4258 78.9202 42.9338 79.2063L36.674 82.8178C36.182 83.1004 35.7807 82.8701 35.7807 82.3014L35.7598 75.1238C35.775 74.8146 35.8637 74.5134 36.0184 74.2452C36.1731 73.9771 36.3895 73.7496 36.6495 73.5815L37.5428 73.0651Z" fill="#96A5A5"/>
<path d="M36.2866 102.397V98.1885L43.7886 93.8478V98.0594L36.2866 102.397ZM44.3958 97.714V93.5059L54.5149 87.6612V91.8729L44.3958 97.714ZM55.108 91.5309V87.3193L64.3338 81.9946V86.2027L55.108 91.5309ZM36.2656 97.5046V94.2561L64.3129 78.0586V81.3107L36.2726 97.5046H36.2656ZM36.2656 93.5722V90.683L43.7677 86.3458V89.2314L36.2587 93.5722H36.2656ZM44.3783 88.8895V86.0003L54.4974 80.1592V83.0449L44.3783 88.8895ZM55.0906 82.7029V79.8172L64.3164 74.489V77.3782L55.0836 82.7029H55.0906ZM36.2482 89.9991V87.075L43.7642 82.7343V85.6618L36.2517 89.9991H36.2482ZM44.3609 85.3338V82.4098L54.48 76.5652V79.4927L44.3609 85.3338ZM55.0731 79.1508V76.2232L64.2989 70.8985V73.8261L55.0731 79.1333V79.1508ZM64.8852 69.8657L35.6445 86.7296L35.6655 93.9141V98.5305V103.416L64.9061 86.5307V81.6456V77.0292L64.8852 69.8447V69.8657Z" fill="#C8C8C8"/>
<path d="M41.0941 170.578V170.997L39.4023 170.411V169.992L41.0941 170.578Z" fill="#BEBEC8"/>
<path d="M39.4016 169.992V170.411L38.3936 171.388V170.972L39.4016 169.992Z" fill="#AAAAB4"/>
<path d="M44.827 171.873V172.291L43.1318 171.705L43.1353 171.286L44.827 171.873Z" fill="#BEBEC8"/>
<path d="M43.136 171.286L43.1325 171.705L42.1279 172.682V172.267L43.136 171.286Z" fill="#AAAAB4"/>
<path d="M48.5614 173.167V173.586L46.8662 173L46.8697 172.581L48.5614 173.167Z" fill="#BEBEC8"/>
<path d="M46.8694 172.581L46.8659 173L45.8613 173.977V173.562L46.8694 172.581Z" fill="#AAAAB4"/>
<path d="M52.2948 174.465V174.881L50.5996 174.294V173.876L52.2948 174.465Z" fill="#BEBEC8"/>
<path d="M50.5993 173.876V174.294L49.5947 175.271V174.856L50.5993 173.876Z" fill="#AAAAB4"/>
<path d="M56.0282 175.756V176.175L54.333 175.589L54.3365 175.17L56.0282 175.756Z" fill="#BEBEC8"/>
<path d="M54.3362 175.17L54.3327 175.589L53.3281 176.566V176.147L54.3362 175.17Z" fill="#AAAAB4"/>
<path d="M59.7626 177.055V177.47L58.0674 176.884L58.0709 176.465L59.7626 177.055Z" fill="#BEBEC8"/>
<path d="M58.0696 176.465L58.0661 176.884L57.0615 177.861V177.445L58.0696 176.465Z" fill="#AAAAB4"/>
<path d="M63.495 178.345V178.764L61.7998 178.178L61.8033 177.759L63.495 178.345Z" fill="#BEBEC8"/>
<path d="M61.804 177.759L61.8005 178.178L60.7959 179.155V178.74L61.804 177.759Z" fill="#AAAAB4"/>
<path d="M67.2288 179.644V180.059L65.5371 179.473V179.054L67.2288 179.644Z" fill="#BEBEC8"/>
<path d="M65.5373 179.054V179.473L64.5293 180.45V180.034L65.5373 179.054Z" fill="#AAAAB4"/>
<path d="M70.9672 180.935L70.9638 181.353L69.2686 180.767L69.272 180.348L70.9672 180.935Z" fill="#BEBEC8"/>
<path d="M30.5145 180.854L30.5111 181.273L28.8193 180.687V180.268L30.5145 180.854Z" fill="#BEBEC8"/>
<path d="M69.2707 180.348L69.2673 180.767L68.2627 181.744V181.329L69.2707 180.348Z" fill="#AAAAB4"/>
<path d="M28.8196 180.268V180.687L27.8115 181.664V181.245L28.8196 180.268Z" fill="#AAAAB4"/>
<path d="M74.6966 182.233V182.648L73.0049 182.062V181.643L74.6966 182.233Z" fill="#BEBEC8"/>
<path d="M34.2435 182.149V182.568L32.5518 181.981L32.5552 181.563L34.2435 182.149Z" fill="#BEBEC8"/>
<path d="M73.0041 181.643V182.062L71.9961 183.039V182.623L73.0041 181.643Z" fill="#AAAAB4"/>
<path d="M32.5555 181.563L32.552 181.981L31.5439 182.958L31.5474 182.54L32.5555 181.563Z" fill="#AAAAB4"/>
<path d="M37.9818 183.443L37.9783 183.862L36.29 183.272V182.857L37.9818 183.443Z" fill="#BEBEC8"/>
<path d="M36.2889 182.857V183.272L35.2773 184.253L35.2808 183.834L36.2889 182.857Z" fill="#AAAAB4"/>
<path d="M41.7152 184.738V185.153L40.0234 184.57V184.152L41.7152 184.738Z" fill="#BEBEC8"/>
<path d="M40.0237 184.152V184.57L39.0156 185.547V185.129L40.0237 184.152Z" fill="#AAAAB4"/>
<path d="M45.4495 186.032L45.446 186.451L43.7578 185.865V185.446L45.4495 186.032Z" fill="#BEBEC8"/>
<path d="M43.7561 185.446V185.865L42.748 186.842V186.423L43.7561 185.446Z" fill="#AAAAB4"/>
<path d="M49.1825 187.327V187.746L47.4873 187.159L47.4908 186.741L49.1825 187.327Z" fill="#BEBEC8"/>
<path d="M47.491 186.741L47.4875 187.159L46.4795 188.136L46.483 187.718L47.491 186.741Z" fill="#AAAAB4"/>
<path d="M52.9149 188.621L52.9114 189.04L51.2197 188.45V188.032L52.9149 188.621Z" fill="#BEBEC8"/>
<path d="M51.2204 188.032V188.45L50.2158 189.431V189.012L51.2204 188.032Z" fill="#AAAAB4"/>
<path d="M56.6497 189.916V190.335L54.958 189.745V189.33L56.6497 189.916Z" fill="#BEBEC8"/>
<path d="M54.9569 189.33V189.745L53.9453 190.726L53.9488 190.307L54.9569 189.33Z" fill="#AAAAB4"/>
<path d="M60.3831 191.21V191.626L58.6914 191.043V190.624L60.3831 191.21Z" fill="#BEBEC8"/>
<path d="M58.6907 190.624V191.043L57.6826 192.02V191.601L58.6907 190.624Z" fill="#AAAAB4"/>
<path d="M64.1165 192.505V192.924L62.4248 192.334V191.919L64.1165 192.505Z" fill="#BEBEC8"/>
<path d="M62.4241 191.919V192.334L61.416 193.314V192.896L62.4241 191.919Z" fill="#AAAAB4"/>
<path d="M76.5081 181.863V182.282L63.4092 195V194.585L76.5081 181.863Z" fill="#BEBEC8"/>
<path d="M76.5075 181.862L63.4086 194.584L26.0029 181.615L39.1019 168.893L76.5075 181.862ZM43.1356 171.279L42.1271 172.26L43.8195 172.846L44.8279 171.865L43.1356 171.279ZM46.8691 172.574L45.8572 173.561L47.5496 174.148L48.558 173.167L46.8657 172.581L46.8691 172.574ZM58.0699 176.464L57.0615 177.445L58.7538 178.031L59.7622 177.051L58.0699 176.464ZM65.5371 179.053L64.5287 180.034L66.221 180.62L67.2294 179.643L65.5371 179.053ZM69.2707 180.352L68.2622 181.332L69.9546 181.918L70.9665 180.938L69.2707 180.352ZM50.6027 173.879L49.5943 174.859L51.2866 175.446L52.2951 174.465L50.6027 173.879ZM38.3901 170.976L40.0824 171.562L41.0943 170.581L39.402 169.995L38.3936 170.976H38.3901ZM46.4783 187.724L48.1707 188.311L49.1791 187.334L47.4868 186.747L46.4783 187.724ZM53.9455 190.314L55.6378 190.9L56.6463 189.923L54.9539 189.337L53.9455 190.314ZM27.8069 181.241L29.5027 181.828L30.5111 180.85L28.8153 180.264L27.8069 181.241ZM35.2811 183.841L36.9734 184.427L37.9818 183.45L36.2895 182.864L35.2811 183.841ZM54.3363 175.177L53.3279 176.154L55.0202 176.744L56.0286 175.763L54.3363 175.177ZM57.6826 191.608L59.3749 192.194L60.3833 191.217L58.691 190.631L57.6826 191.608ZM61.8035 177.766L60.7951 178.746L62.4874 179.333L63.4958 178.352L61.8035 177.766ZM39.0147 185.128L40.707 185.715L41.7154 184.738L40.0231 184.151L39.0147 185.128ZM50.2154 189.012L51.9077 189.598L52.9162 188.621L51.2203 188.028L50.2154 189.005V189.012ZM73.0042 181.643L71.9993 182.623L73.6882 183.209L74.6966 182.232L73.0042 181.643ZM31.551 182.539L33.2398 183.143L34.2447 182.166L32.5559 181.58L31.551 182.539ZM42.7517 186.423L44.4441 187.009L45.4525 186.032L43.7636 185.446L42.7552 186.423H42.7517ZM62.4281 191.919L61.4197 192.896L63.112 193.482L64.1204 192.505L62.4281 191.919Z" fill="#E6E6EB"/>
<path d="M73.3043 184.208L55.8227 178.091L47.8252 185.785L65.3102 191.902L73.3043 184.208Z" fill="#323232"/>
<path d="M54.6822 177.693L37.2007 171.576L29.2031 179.27L46.6847 185.387L54.6822 177.693Z" fill="#323232"/>
<path d="M63.4092 194.585V195L26 182.03L26.0035 181.615L63.4092 194.585Z" fill="#F0F0F5"/>
<path d="M164.316 115.412V115.831L162.408 115.541V115.122L164.316 115.412Z" fill="#AAAAB4"/>
<path d="M162.408 115.122V115.541L161.916 116.644V116.225L162.408 115.122Z" fill="#9696A0"/>
<path d="M163.231 117.848L163.227 118.263L161.319 117.977V117.558L163.231 117.848Z" fill="#AAAAB4"/>
<path d="M184.343 118.444V118.86L182.435 118.574L182.438 118.155L184.343 118.444Z" fill="#AAAAB4"/>
<path d="M161.319 117.558V117.977L160.831 119.079V118.661L161.319 117.558Z" fill="#9696A0"/>
<path d="M182.438 118.155L182.434 118.574L181.942 119.676V119.261L182.438 118.155Z" fill="#9696A0"/>
<path d="M162.142 120.28V120.698L160.234 120.409V119.993L162.142 120.28Z" fill="#AAAAB4"/>
<path d="M183.257 120.88L183.253 121.298L181.349 121.009V120.59L183.257 120.88Z" fill="#AAAAB4"/>
<path d="M160.234 119.993V120.409L159.742 121.515V121.096L160.234 119.993Z" fill="#9696A0"/>
<path d="M181.349 120.59V121.009L180.854 122.111L180.857 121.693L181.349 120.59Z" fill="#9696A0"/>
<path d="M161.057 122.715L161.054 123.134L159.149 122.844V122.426L161.057 122.715Z" fill="#AAAAB4"/>
<path d="M182.168 123.315V123.734L180.26 123.444L180.263 123.026L182.168 123.315Z" fill="#AAAAB4"/>
<path d="M159.149 122.426V122.844L158.653 123.947L158.657 123.532L159.149 122.426Z" fill="#9696A0"/>
<path d="M180.263 123.026L180.259 123.444L179.768 124.547L179.771 124.128L180.263 123.026Z" fill="#9696A0"/>
<path d="M159.97 125.151V125.569L158.062 125.28V124.861L159.97 125.151Z" fill="#AAAAB4"/>
<path d="M181.083 125.748V126.166L179.175 125.88V125.461L181.083 125.748Z" fill="#AAAAB4"/>
<path d="M158.06 124.861V125.28L157.568 126.382V125.967L158.06 124.861Z" fill="#9696A0"/>
<path d="M179.175 125.461V125.88L178.684 126.983V126.564L179.175 125.461Z" fill="#9696A0"/>
<path d="M179.997 128.183V128.602L178.086 128.312L178.089 127.897L179.997 128.183Z" fill="#AAAAB4"/>
<path d="M178.089 127.897L178.086 128.312L177.598 129.418V128.999L178.089 127.897Z" fill="#9696A0"/>
<path d="M185.999 118.158L185.996 118.577L180.64 130.58V130.161L185.999 118.158Z" fill="#BEBEC8"/>
<path d="M186.001 118.158L180.641 130.161L155.846 126.403L161.202 114.403L186.001 118.158ZM178.104 127.893L177.612 128.999L179.521 129.289L180.013 128.183L178.104 127.893ZM179.189 125.451L178.697 126.553L180.606 126.843L181.098 125.737L179.189 125.451ZM159.15 122.429L158.658 123.535L160.567 123.825L161.059 122.718L159.15 122.429ZM157.569 125.97L159.478 126.257L159.96 125.15L158.054 124.861L157.559 125.967L157.569 125.97ZM182.438 118.158L181.942 119.26L183.851 119.547L184.343 118.444L182.438 118.154V118.158ZM181.349 120.6L180.857 121.703L182.766 121.993L183.258 120.89L181.349 120.6ZM161.32 117.544L160.832 118.646L162.751 118.939L163.247 117.837L161.32 117.544ZM180.264 123.011L179.772 124.114L181.677 124.404L182.173 123.301L180.264 123.011ZM162.402 115.122L161.91 116.225L163.819 116.514L164.311 115.412L162.402 115.122ZM160.228 120.007L159.736 121.11L161.641 121.399L162.137 120.293L160.228 120.007Z" fill="#E6E6EB"/>
<path d="M175.975 129.115L180.93 117.663L165.87 115.45L160.915 126.899L175.975 129.115Z" fill="#323232"/>
<path d="M180.641 130.162V130.58L155.846 126.822V126.404L180.641 130.162Z" fill="#F0F0F5"/>
<path d="M154.414 121.215V121.633L152.506 121.344V120.925L154.414 121.215Z" fill="#AAAAB4"/>
<path d="M152.505 120.925V121.344L152.014 122.45V122.031L152.505 120.925Z" fill="#9696A0"/>
<path d="M153.328 123.65L153.325 124.069L151.417 123.779L151.42 123.364L153.328 123.65Z" fill="#AAAAB4"/>
<path d="M174.439 124.247V124.666L172.534 124.38V123.961L174.439 124.247Z" fill="#AAAAB4"/>
<path d="M151.42 123.364L151.416 123.779L150.928 124.882V124.467L151.42 123.364Z" fill="#9696A0"/>
<path d="M172.534 123.961V124.38L172.039 125.482V125.064L172.534 123.961Z" fill="#9696A0"/>
<path d="M152.24 126.086V126.504L150.332 126.215V125.796L152.24 126.086Z" fill="#AAAAB4"/>
<path d="M173.354 126.686V127.101L171.446 126.811L171.45 126.396L173.354 126.686Z" fill="#AAAAB4"/>
<path d="M150.332 125.796V126.215L149.84 127.317L149.843 126.899L150.332 125.796Z" fill="#9696A0"/>
<path d="M171.449 126.396L171.446 126.811L170.954 127.918V127.499L171.449 126.396Z" fill="#9696A0"/>
<path d="M151.154 128.521V128.937L149.246 128.647V128.232L151.154 128.521Z" fill="#AAAAB4"/>
<path d="M172.268 129.118L172.265 129.537L170.36 129.247V128.832L172.268 129.118Z" fill="#AAAAB4"/>
<path d="M149.247 128.232V128.647L148.755 129.753V129.338L149.247 128.232Z" fill="#9696A0"/>
<path d="M170.361 128.832V129.247L169.869 130.35V129.934L170.361 128.832Z" fill="#9696A0"/>
<path d="M150.066 130.957V131.372L148.158 131.082L148.162 130.667L150.066 130.957Z" fill="#AAAAB4"/>
<path d="M171.18 131.554V131.972L169.272 131.683V131.264L171.18 131.554Z" fill="#AAAAB4"/>
<path d="M148.16 130.667L148.157 131.082L147.665 132.189L147.669 131.77L148.16 130.667Z" fill="#9696A0"/>
<path d="M169.271 131.264V131.683L168.779 132.789V132.37L169.271 131.264Z" fill="#9696A0"/>
<path d="M170.095 133.989V134.404L168.188 134.118V133.699L170.095 133.989Z" fill="#AAAAB4"/>
<path d="M168.187 133.699V134.118L167.695 135.221V134.806L168.187 133.699Z" fill="#9696A0"/>
<path d="M176.097 123.961V124.38L170.737 136.383V135.964L176.097 123.961Z" fill="#BEBEC8"/>
<path d="M176.098 123.961L170.738 135.964L145.946 132.199L151.302 120.196L176.098 123.961ZM168.187 133.699L167.695 134.806L169.604 135.092L170.096 133.989L168.187 133.699ZM169.272 131.257L168.781 132.363L170.689 132.653L171.181 131.547L169.272 131.257ZM149.247 128.225L148.755 129.327L150.664 129.617L151.156 128.514L149.247 128.225ZM147.67 131.763L149.579 132.053L150.067 130.95L148.162 130.66L147.67 131.763ZM172.521 123.961L172.026 125.063L173.934 125.353L174.426 124.247L172.521 123.961ZM171.432 126.403L170.94 127.506L172.849 127.796L173.341 126.693L171.432 126.403ZM151.407 123.368L150.915 124.474L152.82 124.76L153.33 123.65L151.421 123.361L151.407 123.368ZM170.347 128.839L169.855 129.941L171.76 130.231L172.256 129.125L170.347 128.839ZM152.51 120.929L152.014 122.031L153.923 122.321L154.415 121.215L152.51 120.929ZM150.332 125.796L149.844 126.899L151.749 127.188L152.241 126.086L150.332 125.796Z" fill="#E6E6EB"/>
<path d="M166.072 134.917L171.027 123.469L155.967 121.253L151.012 132.705L166.072 134.917Z" fill="#323232"/>
<path d="M170.738 135.964V136.383L145.942 132.628L145.946 132.21L170.738 135.964Z" fill="#F0F0F5"/>
<path d="M49.3777 168.893V169.312L47.4697 169.018L47.4732 168.603L49.3777 168.893Z" fill="#AAAAB4"/>
<path d="M47.4728 168.603L47.4694 169.019L46.9775 170.125L46.981 169.706L47.4728 168.603Z" fill="#9696A0"/>
<path d="M48.2927 171.328V171.743L46.3848 171.454V171.039L48.2927 171.328Z" fill="#AAAAB4"/>
<path d="M69.407 171.925L69.4035 172.344L67.499 172.054V171.635L69.407 171.925Z" fill="#AAAAB4"/>
<path d="M46.3854 171.039V171.454L45.8936 172.56V172.141L46.3854 171.039Z" fill="#9696A0"/>
<path d="M67.4982 171.635V172.054L67.0029 173.157L67.0064 172.742L67.4982 171.635Z" fill="#9696A0"/>
<path d="M47.2074 173.76L47.2039 174.179L45.2959 173.89L45.2994 173.474L47.2074 173.76Z" fill="#AAAAB4"/>
<path d="M68.3172 174.361V174.779L66.4092 174.49L66.4127 174.071L68.3172 174.361Z" fill="#AAAAB4"/>
<path d="M45.2994 173.474L45.2959 173.89L44.8076 174.992V174.577L45.2994 173.474Z" fill="#9696A0"/>
<path d="M66.4133 174.071L66.4098 174.49L65.918 175.592V175.174L66.4133 174.071Z" fill="#9696A0"/>
<path d="M46.1189 176.196V176.615L44.2109 176.325V175.906L46.1189 176.196Z" fill="#AAAAB4"/>
<path d="M67.2322 176.796L67.2287 177.211L65.3242 176.925V176.507L67.2322 176.796Z" fill="#AAAAB4"/>
<path d="M44.2106 175.906V176.325L43.7188 177.428V177.013L44.2106 175.906Z" fill="#9696A0"/>
<path d="M65.3238 176.507V176.925L64.832 178.028V177.609L65.3238 176.507Z" fill="#9696A0"/>
<path d="M45.0295 178.631V179.05L43.125 178.761V178.342L45.0295 178.631Z" fill="#AAAAB4"/>
<path d="M66.1478 179.228L66.1443 179.647L64.2363 179.357L64.2398 178.942L66.1478 179.228Z" fill="#AAAAB4"/>
<path d="M43.1256 178.342V178.761L42.6338 179.863V179.444L43.1256 178.342Z" fill="#9696A0"/>
<path d="M64.2395 178.942L64.236 179.357L63.7441 180.463L63.7476 180.045L64.2395 178.942Z" fill="#9696A0"/>
<path d="M65.0584 181.664V182.083L63.1504 181.793V181.374L65.0584 181.664Z" fill="#AAAAB4"/>
<path d="M63.15 181.374V181.793L62.6582 182.899V182.48L63.15 181.374Z" fill="#9696A0"/>
<path d="M71.0608 171.639V172.058L65.7012 184.057L65.7047 183.642L71.0608 171.639Z" fill="#BEBEC8"/>
<path d="M71.0605 171.628L65.7044 183.632L40.9092 179.884L46.2653 167.884L71.0605 171.628ZM63.1502 181.364L62.6582 182.47L64.5669 182.759L65.0589 181.653L63.1502 181.364ZM64.2389 178.921L63.7469 180.024L65.652 180.313L66.1475 179.207L64.2389 178.921ZM44.2101 175.885L43.7181 176.991L45.6268 177.281L46.1188 176.175L44.2101 175.885ZM42.6329 179.427L44.5416 179.713L45.0301 178.61L43.1249 178.321L42.6329 179.427ZM67.4909 171.628L66.9989 172.734L68.9041 173.021L69.3996 171.918L67.4909 171.628ZM66.4057 174.071L65.9103 175.173L67.8399 175.467L68.3319 174.364L66.4267 174.074L66.4057 174.071ZM46.377 171.039L45.885 172.141L47.7901 172.431L48.2856 171.328L46.377 171.039ZM65.324 176.513L64.8321 177.616L66.7372 177.906L67.2327 176.803L65.324 176.513ZM47.4726 168.61L46.9806 169.713L48.8858 170.002L49.3778 168.9L47.4726 168.61ZM45.2988 173.495L44.8103 174.577L46.7154 174.866L47.2109 173.76L45.3023 173.474L45.2988 173.495Z" fill="#E6E6EB"/>
<path d="M61.04 182.596L65.9949 171.144L50.9314 168.931L45.9766 180.38L61.04 182.596Z" fill="#323232"/>
<path d="M65.7044 183.642L65.7009 184.057L40.9092 180.303V179.884L65.7044 183.642Z" fill="#F0F0F5"/>
<path d="M146.095 46.1802L145.732 45.9708L147.131 45.1648L147.49 45.3742L146.095 46.1802Z" fill="#BEBEC8"/>
<path d="M147.493 45.3741L147.132 45.1647L147.129 43.5562L147.489 43.7655L147.493 45.3741Z" fill="#AAAAB4"/>
<path d="M143.011 47.9597L142.648 47.7504L144.047 46.9443L144.41 47.1537L143.011 47.9597Z" fill="#BEBEC8"/>
<path d="M144.411 47.1536L144.047 46.9442L144.044 45.3391L144.404 45.5485L144.411 47.1536Z" fill="#AAAAB4"/>
<path d="M139.93 49.7393L139.567 49.5299L140.966 48.7239L141.325 48.9332L139.93 49.7393Z" fill="#BEBEC8"/>
<path d="M141.326 48.9333L140.966 48.724L140.963 47.1189L141.323 47.3283L141.326 48.9333Z" fill="#AAAAB4"/>
<path d="M136.846 51.5188L136.486 51.3095L137.885 50.5034L138.244 50.7128L136.846 51.5188Z" fill="#BEBEC8"/>
<path d="M138.246 50.7126L137.886 50.5033L137.879 48.8982L138.243 49.1076L138.246 50.7126Z" fill="#AAAAB4"/>
<path d="M133.764 53.3018L133.401 53.089L134.8 52.283L135.159 52.4923L133.764 53.3018Z" fill="#BEBEC8"/>
<path d="M135.161 52.4924L134.801 52.2831L134.794 50.678L135.158 50.8873L135.161 52.4924Z" fill="#AAAAB4"/>
<path d="M146.047 29.3196L145.688 29.1102L147.083 28.3042L147.442 28.5136L146.047 29.3196Z" fill="#BEBEC8"/>
<path d="M147.445 28.5137L147.085 28.3044L147.081 26.6958L147.441 26.9086L147.445 28.5137Z" fill="#AAAAB4"/>
<path d="M130.68 55.0781L130.32 54.8688L131.716 54.0627L132.078 54.2721L130.68 55.0781Z" fill="#BEBEC8"/>
<path d="M132.08 54.272L131.716 54.0626L131.713 52.4575L132.076 52.6669L132.08 54.272Z" fill="#AAAAB4"/>
<path d="M142.962 31.1029L142.603 30.89L143.998 30.084L144.361 30.2933L142.962 31.1029Z" fill="#BEBEC8"/>
<path d="M144.362 30.2932L143.999 30.0839L143.995 28.4788L144.359 28.6881L144.362 30.2932Z" fill="#AAAAB4"/>
<path d="M127.598 56.8574L127.238 56.6481L128.633 55.842L128.993 56.0514L127.598 56.8574Z" fill="#BEBEC8"/>
<path d="M128.995 56.0515L128.635 55.8421L128.628 54.2371L128.992 54.4464L128.995 56.0515Z" fill="#AAAAB4"/>
<path d="M139.881 32.8824L139.521 32.6696L140.917 31.8635L141.276 32.0729L139.881 32.8824Z" fill="#BEBEC8"/>
<path d="M141.278 32.0728L140.918 31.8634L140.914 30.2583L141.274 30.4677L141.278 32.0728Z" fill="#AAAAB4"/>
<path d="M124.516 58.6405L124.156 58.4276L125.551 57.6216L125.914 57.8309L124.516 58.6405Z" fill="#BEBEC8"/>
<path d="M125.914 57.831L125.55 57.6217L125.547 56.0166L125.91 56.226L125.914 57.831Z" fill="#AAAAB4"/>
<path d="M136.8 34.6585L136.438 34.4491L137.836 33.6431L138.195 33.8524L136.8 34.6585Z" fill="#BEBEC8"/>
<path d="M138.196 33.8523L137.836 33.6429L137.829 32.0378L138.193 32.2472L138.196 33.8523Z" fill="#AAAAB4"/>
<path d="M121.433 60.4165L121.073 60.2072L122.468 59.4011L122.831 59.6105L121.433 60.4165Z" fill="#BEBEC8"/>
<path d="M122.833 59.6106L122.469 59.4012L122.466 57.7961L122.826 58.0055L122.833 59.6106Z" fill="#AAAAB4"/>
<path d="M133.715 36.4415L133.353 36.2321L134.751 35.4226L135.114 35.632L133.715 36.4415Z" fill="#BEBEC8"/>
<path d="M135.115 35.6321L134.752 35.4227L134.748 33.8176L135.108 34.027L135.115 35.6321Z" fill="#AAAAB4"/>
<path d="M118.352 62.1995L117.989 61.9867L119.388 61.1807L119.747 61.39L118.352 62.1995Z" fill="#BEBEC8"/>
<path d="M119.749 61.3901L119.389 61.1808L119.382 59.5757L119.745 59.785L119.749 61.3901Z" fill="#AAAAB4"/>
<path d="M130.634 38.2178L130.271 38.0084L131.67 37.2024L132.029 37.4118L130.634 38.2178Z" fill="#BEBEC8"/>
<path d="M132.031 37.4114L131.67 37.202L131.667 35.5969L132.027 35.8063L132.031 37.4114Z" fill="#AAAAB4"/>
<path d="M127.551 40.0006L127.191 39.7877L128.587 38.9817L128.949 39.191L127.551 40.0006Z" fill="#BEBEC8"/>
<path d="M128.949 39.1912L128.586 38.9818L128.582 37.3767L128.942 37.5861L128.949 39.1912Z" fill="#AAAAB4"/>
<path d="M124.469 41.7801L124.106 41.5708L125.505 40.7612L125.864 40.9706L124.469 41.7801Z" fill="#BEBEC8"/>
<path d="M125.866 40.9705L125.506 40.7611L125.499 39.156L125.863 39.3654L125.866 40.9705Z" fill="#AAAAB4"/>
<path d="M121.384 43.5597L121.024 43.3503L122.423 42.5408L122.782 42.7501L121.384 43.5597Z" fill="#BEBEC8"/>
<path d="M122.784 42.75L122.424 42.5406L122.417 40.9355L122.781 41.1449L122.784 42.75Z" fill="#AAAAB4"/>
<path d="M118.303 45.3394L117.943 45.13L119.339 44.324L119.698 44.5333L118.303 45.3394Z" fill="#BEBEC8"/>
<path d="M119.699 44.5333L119.339 44.3239L119.332 42.7153L119.696 42.9247L119.699 44.5333Z" fill="#AAAAB4"/>
<path d="M117.407 43.0433L117.044 42.8305L147.928 25L148.287 25.2128L117.407 43.0433Z" fill="#E6E6EB"/>
<path d="M117.39 43.0434L148.274 25.2129L148.333 46.086L117.449 63.9165L117.39 43.0434ZM144.397 47.1538V45.5487L143.001 46.3547V47.9598L144.397 47.1538ZM138.231 50.7129V49.1078L136.836 49.9138V51.5189L138.231 50.7129ZM138.183 33.8525V32.2474L136.787 33.0534V34.6585L138.183 33.8525ZM144.362 30.3108V28.7057L142.966 29.5117V31.1168L144.362 30.3108ZM141.326 48.9508V47.3457L139.931 48.1517V49.7568L141.326 48.9508ZM141.278 32.0904V30.4853L139.882 31.2913V32.8964L141.278 32.0904ZM132.08 54.272V52.6669L130.684 53.4729V55.085L132.08 54.279V54.272ZM132.045 37.4116V35.8065L130.649 36.6125V38.2211L132.045 37.4116ZM122.833 59.6211V58.0161L121.437 58.8221V60.4307L122.833 59.6211ZM135.161 52.5029V50.8978L133.765 51.7039V53.309L135.161 52.5029ZM125.914 57.8416V56.2365L124.518 57.0425V58.6511L125.914 57.8416ZM125.865 40.9812V39.383L124.47 40.1891V41.7977L125.865 40.9881V40.9812ZM135.115 35.6425V34.0374L133.72 34.8434V36.452L135.115 35.6425ZM122.784 42.7607V41.1556L121.388 41.9617V43.5702L122.784 42.7607ZM147.492 45.3847V43.7656L146.096 44.5752V46.1803L147.492 45.3742V45.3847ZM147.443 28.5243V26.9192L146.048 27.7252V29.3303L147.443 28.5243ZM128.995 56.0516V54.4465L127.599 55.2525V56.8576L128.995 56.0516ZM128.95 39.1911V37.586L127.554 38.3921V39.9972L128.95 39.1911ZM119.748 61.3902V59.7851L118.353 60.5912V62.1998L119.748 61.3902ZM119.7 44.5333V42.9247L118.304 43.7307V45.3393L119.7 44.5333Z" fill="#D2D2DC"/>
<path d="M147.799 29.6096L133.332 37.9631L133.367 50.6189L147.834 42.2689L147.799 29.6096Z" fill="#323232"/>
<path d="M132.386 38.5073L117.916 46.8608L117.954 59.5201L132.421 51.1666L132.386 38.5073Z" fill="#323232"/>
<path d="M117.463 63.9163L117.103 63.707L117.044 42.8303L117.408 43.0432L117.463 63.9163Z" fill="#F0F0F5"/>
<path d="M183.613 57.3181H183.589L184.185 57.6671H184.213L183.613 57.3181Z" fill="#96A5A5"/>
<path d="M139.051 142.196V140.448H142.08L146.623 143.072L149.651 146.568V148.316L139.051 142.196Z" fill="#55555F"/>
<path d="M155.704 144.82V143.072L149.65 146.568V148.316L155.704 144.82Z" fill="#6E6E78"/>
<path d="M152.68 139.575L155.705 143.072L149.651 146.568L146.622 143.072L152.68 139.575Z" fill="#1E1E28"/>
<path d="M148.138 136.952L152.681 139.576L146.623 143.072L142.08 140.448L148.138 136.952Z" fill="#3C3C46"/>
<path d="M145.108 136.952H148.137L142.08 140.448H139.051L145.108 136.952Z" fill="#6E6E78"/>
<path d="M143.29 138.867L142.651 139.237L144.351 139.139L147.379 140.887L148.499 140.238L145.865 138.717L143.29 138.867Z" fill="#1E1E28"/>
<path d="M145.864 138.717V138.264L148.893 140.012L148.499 140.239L145.864 138.717Z" fill="#AAAAB4"/>
<path d="M143.29 138.867V138.417L145.864 138.264V138.717L143.29 138.867Z" fill="#7D7D87"/>
<path d="M142.651 139.237L143.289 138.867V138.417L141.775 139.29L142.651 139.237Z" fill="#1E1E28"/>
<path d="M146.378 138.675L146.486 138.773L146.594 138.881C146.633 138.92 146.671 138.961 146.706 139.003L146.807 139.139C146.838 139.181 146.87 139.223 146.898 139.269L146.95 139.352C146.965 139.375 146.979 139.398 146.992 139.422L147.013 139.453C147.036 139.493 147.057 139.534 147.076 139.576C147.1 139.624 147.124 139.677 147.145 139.726C147.166 139.778 147.184 139.823 147.201 139.876C147.219 139.928 147.201 139.876 147.201 139.876C147.222 139.926 147.239 139.977 147.253 140.029C147.253 140.029 147.281 140.127 147.292 140.176C147.292 140.228 147.309 140.28 147.32 140.329C147.32 140.382 147.32 140.434 147.337 140.483C147.337 140.532 147.337 140.581 147.337 140.629L147.899 140.301V140.183C147.899 140.183 147.899 140.162 147.899 140.155C147.9 140.148 147.9 140.141 147.899 140.134C147.9 140.113 147.9 140.092 147.899 140.071C147.9 140.049 147.9 140.027 147.899 140.005C147.9 139.985 147.9 139.965 147.899 139.945C147.9 139.922 147.9 139.899 147.899 139.876C147.899 139.876 147.899 139.876 147.899 139.855C147.899 139.834 147.899 139.855 147.899 139.855C147.899 139.855 147.899 139.834 147.899 139.823C147.899 139.813 147.899 139.778 147.899 139.754C147.899 139.729 147.899 139.722 147.899 139.705C147.899 139.687 147.899 139.705 147.899 139.705C147.893 139.682 147.886 139.66 147.878 139.638C147.871 139.616 147.863 139.594 147.853 139.572V139.53L147.825 139.467C147.825 139.467 147.825 139.44 147.808 139.422C147.808 139.422 147.791 139.384 147.78 139.363C147.77 139.342 147.756 139.317 147.745 139.296L147.717 139.241L147.679 139.174C147.674 139.163 147.669 139.153 147.662 139.143C147.662 139.122 147.634 139.101 147.623 139.084L147.574 139.003C147.522 138.939 147.462 138.88 147.396 138.829C147.396 138.804 147.358 138.78 147.341 138.752C147.323 138.724 147.306 138.714 147.292 138.693L147.243 138.637L147.194 138.581L147.159 138.546L147.103 138.49L147.086 138.473L147.062 138.449L147.006 138.396L146.978 138.379L146.957 138.361L146.901 138.319L146.859 138.292L146.803 138.253L146.751 138.222L146.709 138.197L146.657 138.169L146.626 138.152H146.605L146.552 138.131L146.503 138.11H146.486H146.451H146.399H146.343H146.291H146.106H146.029C146.004 138.113 145.979 138.118 145.956 138.128H145.935C145.905 138.138 145.877 138.152 145.851 138.169L145.286 138.494L145.37 138.456L145.45 138.431C145.483 138.428 145.515 138.428 145.548 138.431H145.677C145.713 138.434 145.749 138.44 145.785 138.449L145.897 138.476L146.022 138.525C146.066 138.543 146.108 138.564 146.148 138.588L146.28 138.672C146.301 138.613 146.35 138.644 146.378 138.675Z" fill="#D2D2DC"/>
<path d="M146.123 138.497C146.497 138.74 146.808 139.068 147.031 139.454C147.254 139.841 147.383 140.274 147.406 140.72L144.832 139.233C144.839 138.417 145.415 138.089 146.123 138.497Z" fill="#E6E6EB"/>
<path d="M84.2822 168.708L101.9 178.883L145.942 153.453L128.328 143.281L84.2822 168.708Z" fill="#141E28"/>
<path d="M84.2363 170.432L84.2817 168.708L101.899 178.883V180.575L84.2363 170.432Z" fill="#7D8C8C"/>
<path d="M145.893 155.176L145.942 153.453L101.899 178.883V180.575L145.893 155.176Z" fill="#0A141E"/>
<path d="M99.4053 175.264L104.838 172.127L107.333 173.569L101.9 176.705L99.4053 175.264Z" fill="#55555F"/>
<path d="M101.899 176.999V176.706L99.4053 175.264V175.558L101.899 176.999Z" fill="#555F5F"/>
<path d="M107.332 173.569V173.862L101.899 176.999V176.705L107.332 173.569Z" fill="#141E28"/>
<path d="M105.276 171.873L107.771 170.432L110.266 171.873L107.771 173.314L105.276 171.873Z" fill="#55555F"/>
<path d="M107.77 173.607V173.314L105.276 171.873V172.166L107.77 173.607Z" fill="#555F5F"/>
<path d="M110.267 172.166V171.873L107.773 173.314V173.607L110.267 172.166Z" fill="#141E28"/>
<path d="M108.211 170.177L110.706 168.736L113.204 170.177L110.706 171.618L108.211 170.177Z" fill="#55555F"/>
<path d="M110.705 171.911V171.618L108.211 170.177V170.474L110.705 171.911Z" fill="#555F5F"/>
<path d="M113.205 170.474V170.177L110.708 171.618V171.911L113.205 170.474Z" fill="#141E28"/>
<path d="M96.4668 173.569L101.9 170.432L104.395 171.873L98.9652 175.01L96.4668 173.569Z" fill="#55555F"/>
<path d="M98.9643 175.303V175.01L96.4668 173.569V173.862L98.9643 175.303Z" fill="#555F5F"/>
<path d="M104.394 172.166V171.873L98.9648 175.01V175.303L104.394 172.166Z" fill="#141E28"/>
<path d="M93.5322 171.873L96.0271 170.432L98.522 171.873L96.0271 173.314L93.5322 171.873Z" fill="#55555F"/>
<path d="M96.0262 173.607V173.314L93.5322 171.873V172.166L96.0262 173.607Z" fill="#555F5F"/>
<path d="M98.5203 171.873V172.166L96.0264 173.607V173.314L98.5203 171.873Z" fill="#141E28"/>
<path d="M96.4668 170.177L98.9652 168.736L101.46 170.177L98.9652 171.618L96.4668 170.177Z" fill="#55555F"/>
<path d="M98.9643 171.911V171.618L96.4668 170.177V170.474L98.9643 171.911Z" fill="#555F5F"/>
<path d="M101.459 170.474V170.177L98.9648 171.618V171.911L101.459 170.474Z" fill="#141E28"/>
<path d="M90.5947 170.177L93.0931 168.736L95.588 170.177L93.0931 171.618L90.5947 170.177Z" fill="#55555F"/>
<path d="M93.0922 171.911V171.618L90.5947 170.177V170.474L93.0922 171.911Z" fill="#555F5F"/>
<path d="M95.5868 170.474V170.177L93.0928 171.618V171.911L95.5868 170.474Z" fill="#141E28"/>
<path d="M87.6592 168.481L93.0921 165.344L95.587 166.789L90.1541 169.922L87.6592 168.481Z" fill="#55555F"/>
<path d="M90.1532 170.219V169.922L87.6592 168.481V168.778L90.1532 170.219Z" fill="#555F5F"/>
<path d="M95.5872 167.082V166.789L90.1543 169.922V170.219L95.5872 167.082Z" fill="#141E28"/>
<path d="M93.5322 168.481L96.0271 167.04L98.522 168.481L96.0271 169.922L93.5322 168.481Z" fill="#55555F"/>
<path d="M96.0262 170.219V169.922L93.5322 168.481V168.778L96.0262 170.219Z" fill="#555F5F"/>
<path d="M98.5203 168.778V168.481L96.0264 169.922V170.219L98.5203 168.778Z" fill="#141E28"/>
<path d="M102.339 170.177L104.837 168.736L107.332 170.177L104.837 171.618L102.339 170.177Z" fill="#55555F"/>
<path d="M104.837 171.911V171.618L107.331 170.177V170.474L104.837 171.911Z" fill="#141E28"/>
<path d="M102.339 170.177V170.474L104.836 171.911V171.618L102.339 170.177Z" fill="#555F5F"/>
<path d="M105.276 168.481L107.771 167.04L110.266 168.481L107.771 169.922L105.276 168.481Z" fill="#55555F"/>
<path d="M107.77 170.219V169.922L105.276 168.481V168.778L107.77 170.219Z" fill="#555F5F"/>
<path d="M110.267 168.778V168.481L107.773 169.922V170.219L110.267 168.778Z" fill="#141E28"/>
<path d="M99.4053 168.485L101.9 167.04L104.395 168.485L101.9 169.922L99.4053 168.485Z" fill="#55555F"/>
<path d="M101.899 170.219V169.922L104.393 168.485V168.778L101.899 170.219Z" fill="#141E28"/>
<path d="M99.4053 168.778V168.485L101.899 169.922V170.219L99.4053 168.778Z" fill="#555F5F"/>
<path d="M96.4668 166.789L98.9652 165.348L101.46 166.789L98.9652 168.23L96.4668 166.789Z" fill="#55555F"/>
<path d="M98.9643 168.523V168.23L96.4668 166.789V167.082L98.9643 168.523Z" fill="#555F5F"/>
<path d="M101.459 167.082V166.789L98.9648 168.23V168.523L101.459 167.082Z" fill="#141E28"/>
<path d="M93.5322 165.093L96.0271 163.652L98.522 165.093L96.0271 166.531L93.5322 165.093Z" fill="#55555F"/>
<path d="M96.0262 166.827V166.531L93.5322 165.093V165.386L96.0262 166.827Z" fill="#555F5F"/>
<path d="M98.5203 165.386V165.093L96.0264 166.531V166.827L98.5203 165.386Z" fill="#141E28"/>
<path d="M102.339 166.789L104.837 165.348L107.332 166.789L104.837 168.23L102.339 166.789Z" fill="#55555F"/>
<path d="M104.836 168.523V168.23L102.339 166.789V167.082L104.836 168.523Z" fill="#555F5F"/>
<path d="M107.331 167.082V166.789L104.837 168.23V168.523L107.331 167.082Z" fill="#141E28"/>
<path d="M99.4053 165.093L101.9 163.652L104.395 165.093L101.9 166.531L99.4053 165.093Z" fill="#55555F"/>
<path d="M101.899 166.827V166.531L104.393 165.093V165.386L101.899 166.827Z" fill="#141E28"/>
<path d="M99.4053 165.386V165.093L101.899 166.531V166.827L99.4053 165.386Z" fill="#555F5F"/>
<path d="M96.4668 163.397L98.9652 161.956L101.46 163.397L98.9652 164.838L96.4668 163.397Z" fill="#55555F"/>
<path d="M98.9643 165.131V164.838L96.4668 163.397V163.69L98.9643 165.131Z" fill="#555F5F"/>
<path d="M101.459 163.69V163.397L98.9648 164.838V165.131L101.459 163.69Z" fill="#141E28"/>
<path d="M108.211 166.789L110.706 165.348L113.204 166.789L110.706 168.23L108.211 166.789Z" fill="#55555F"/>
<path d="M110.705 168.523V168.23L108.211 166.789V167.082L110.705 168.523Z" fill="#555F5F"/>
<path d="M113.205 167.082V166.789L110.708 168.23V168.523L113.205 167.082Z" fill="#141E28"/>
<path d="M105.276 165.093L107.771 163.652L110.266 165.093L107.771 166.531L105.276 165.093Z" fill="#55555F"/>
<path d="M107.773 166.827V166.531L110.267 165.093V165.386L107.773 166.827Z" fill="#141E28"/>
<path d="M105.276 165.386V165.093L107.77 166.531V166.827L105.276 165.386Z" fill="#555F5F"/>
<path d="M102.339 163.397L104.837 161.956L107.332 163.397L104.837 164.838L102.339 163.397Z" fill="#55555F"/>
<path d="M104.837 165.131V164.838L107.331 163.397V163.69L104.837 165.131Z" fill="#141E28"/>
<path d="M102.339 163.69V163.397L104.836 164.838V165.131L102.339 163.69Z" fill="#555F5F"/>
<path d="M99.4053 161.701L101.9 160.26L104.395 161.701L101.9 163.142L99.4053 161.701Z" fill="#55555F"/>
<path d="M101.899 163.436V163.143L104.393 161.701V161.995L101.899 163.436Z" fill="#141E28"/>
<path d="M99.4053 161.995V161.701L101.899 163.143V163.436L99.4053 161.995Z" fill="#555F5F"/>
<path d="M102.339 160.006L104.837 158.564L107.332 160.006L104.837 161.447L102.339 160.006Z" fill="#55555F"/>
<path d="M104.836 161.74V161.447L102.339 160.006V160.302L104.836 161.74Z" fill="#555F5F"/>
<path d="M107.331 160.302V160.006L104.837 161.447V161.74L107.331 160.302Z" fill="#141E28"/>
<path d="M111.15 165.093L113.645 163.652L116.14 165.093L113.645 166.531L111.15 165.093Z" fill="#55555F"/>
<path d="M113.644 166.827V166.531L111.15 165.093V165.386L113.644 166.827Z" fill="#555F5F"/>
<path d="M116.139 165.386V165.093L113.646 166.531V166.827L116.139 165.386Z" fill="#141E28"/>
<path d="M108.211 163.397L110.706 161.956L113.204 163.397L110.706 164.838L108.211 163.397Z" fill="#55555F"/>
<path d="M110.708 165.131V164.838L113.205 163.397V163.69L110.708 165.131Z" fill="#141E28"/>
<path d="M108.211 163.397V163.69L110.705 165.131V164.838L108.211 163.397Z" fill="#555F5F"/>
<path d="M105.276 161.701L107.771 160.26L110.266 161.701L107.771 163.142L105.276 161.701Z" fill="#55555F"/>
<path d="M107.773 163.436V163.143L110.267 161.701V161.995L107.773 163.436Z" fill="#141E28"/>
<path d="M105.276 161.995V161.701L107.77 163.143V163.436L105.276 161.995Z" fill="#555F5F"/>
<path d="M105.276 158.313L107.771 156.872L110.266 158.313L107.771 159.751L105.276 158.313Z" fill="#55555F"/>
<path d="M107.77 160.047V159.751L105.276 158.313V158.606L107.77 160.047Z" fill="#555F5F"/>
<path d="M110.267 158.606V158.313L107.773 159.751V160.047L110.267 158.606Z" fill="#141E28"/>
<path d="M108.211 160.006L110.706 158.564L113.204 160.006L110.706 161.447L108.211 160.006Z" fill="#55555F"/>
<path d="M110.705 161.74V161.447L108.211 160.006V160.302L110.705 161.74Z" fill="#555F5F"/>
<path d="M113.205 160.302V160.006L110.708 161.447V161.74L113.205 160.302Z" fill="#141E28"/>
<path d="M111.15 161.701L113.645 160.26L116.14 161.701L113.645 163.142L111.15 161.701Z" fill="#55555F"/>
<path d="M113.644 163.436V163.143L111.15 161.701V161.995L113.644 163.436Z" fill="#555F5F"/>
<path d="M116.139 161.995V161.701L113.646 163.143V163.436L116.139 161.995Z" fill="#141E28"/>
<path d="M114.085 163.397L116.583 161.956L119.078 163.397L116.583 164.838L114.085 163.397Z" fill="#55555F"/>
<path d="M116.582 165.131V164.838L114.085 163.397V163.69L116.582 165.131Z" fill="#555F5F"/>
<path d="M119.078 163.69V163.397L116.584 164.838V165.131L119.078 163.69Z" fill="#141E28"/>
<path d="M111.15 168.481L128.328 158.564L130.82 160.006L113.645 169.922L111.15 168.481Z" fill="#55555F"/>
<path d="M111.15 168.778V168.481L113.644 169.922V170.219L111.15 168.778Z" fill="#555F5F"/>
<path d="M130.82 160.302V160.006L113.646 169.922V170.219L130.82 160.302Z" fill="#141E28"/>
<path d="M117.019 161.701L119.517 160.264L122.012 161.701L119.517 163.142L117.019 161.701Z" fill="#55555F"/>
<path d="M119.516 163.436V163.143L117.019 161.701V161.995L119.516 163.436Z" fill="#555F5F"/>
<path d="M122.012 161.995V161.701L119.518 163.143V163.436L122.012 161.995Z" fill="#141E28"/>
<path d="M114.085 160.006L116.583 158.564L119.078 160.006L116.583 161.447L114.085 160.006Z" fill="#55555F"/>
<path d="M116.584 161.74V161.447L119.078 160.006V160.302L116.584 161.74Z" fill="#141E28"/>
<path d="M114.085 160.302V160.006L116.582 161.447V161.74L114.085 160.302Z" fill="#555F5F"/>
<path d="M111.15 158.313L113.645 156.872L116.14 158.313L113.645 159.751L111.15 158.313Z" fill="#55555F"/>
<path d="M113.646 160.047V159.751L116.139 158.313V158.606L113.646 160.047Z" fill="#141E28"/>
<path d="M111.15 158.606V158.313L113.644 159.751V160.047L111.15 158.606Z" fill="#555F5F"/>
<path d="M110.708 158.352V158.059L113.205 156.614V156.911L110.708 158.352Z" fill="#141E28"/>
<path d="M108.211 156.614L110.706 155.176L113.204 156.614L110.706 158.058L108.211 156.614Z" fill="#55555F"/>
<path d="M108.211 156.911V156.614L110.705 158.059V158.352L108.211 156.911Z" fill="#555F5F"/>
<path d="M119.958 160.006L122.453 158.564L124.951 160.006L122.453 161.447L119.958 160.006Z" fill="#55555F"/>
<path d="M122.452 161.74V161.447L124.95 160.006V160.302L122.452 161.74Z" fill="#141E28"/>
<path d="M119.958 160.302V160.006L122.452 161.447V161.74L119.958 160.302Z" fill="#555F5F"/>
<path d="M117.019 158.313L119.517 156.872L122.012 158.313L119.517 159.751L117.019 158.313Z" fill="#55555F"/>
<path d="M119.518 160.044V159.751L122.012 158.313V158.606L119.518 160.044Z" fill="#141E28"/>
<path d="M117.019 158.606V158.313L119.516 159.751V160.044L117.019 158.606Z" fill="#555F5F"/>
<path d="M114.085 156.614L116.583 155.176L119.078 156.614L116.583 158.055L114.085 156.614Z" fill="#55555F"/>
<path d="M116.584 158.348V158.055L119.078 156.614V156.911L116.584 158.348Z" fill="#141E28"/>
<path d="M114.085 156.911V156.614L116.582 158.055V158.348L114.085 156.911Z" fill="#555F5F"/>
<path d="M111.15 154.922L113.645 153.48L116.14 154.922L113.645 156.363L111.15 154.922Z" fill="#55555F"/>
<path d="M113.646 156.656V156.362L116.139 154.921V155.214L113.646 156.656Z" fill="#141E28"/>
<path d="M111.15 155.214V154.921L113.644 156.362V156.656L111.15 155.214Z" fill="#555F5F"/>
<path d="M128.765 158.313L131.263 156.872L133.758 158.313L131.263 159.751L128.765 158.313Z" fill="#55555F"/>
<path d="M131.263 160.044V159.751L133.757 158.313V158.606L131.263 160.044Z" fill="#141E28"/>
<path d="M128.765 158.606V158.313L131.262 159.751V160.044L128.765 158.606Z" fill="#555F5F"/>
<path d="M122.892 158.313L125.39 156.872L127.885 158.313L125.39 159.751L122.892 158.313Z" fill="#55555F"/>
<path d="M125.39 160.047V159.751L127.884 158.313V158.606L125.39 160.047Z" fill="#141E28"/>
<path d="M122.892 158.606V158.313L125.389 159.751V160.047L122.892 158.606Z" fill="#555F5F"/>
<path d="M119.958 156.614L122.453 155.176L124.951 156.614L122.453 158.055L119.958 156.614Z" fill="#55555F"/>
<path d="M122.452 158.348V158.055L124.95 156.614V156.911L122.452 158.348Z" fill="#141E28"/>
<path d="M119.958 156.911V156.614L122.452 158.055V158.348L119.958 156.911Z" fill="#555F5F"/>
<path d="M117.019 154.922L119.517 153.48L122.012 154.922L119.517 156.363L117.019 154.922Z" fill="#55555F"/>
<path d="M119.518 156.656V156.362L122.012 154.921V155.214L119.518 156.656Z" fill="#141E28"/>
<path d="M117.019 155.214V154.921L119.516 156.362V156.656L117.019 155.214Z" fill="#555F5F"/>
<path d="M114.085 153.226L116.583 151.785L119.078 153.226L116.583 154.667L114.085 153.226Z" fill="#55555F"/>
<path d="M116.584 154.96V154.667L119.078 153.226V153.519L116.584 154.96Z" fill="#141E28"/>
<path d="M114.085 153.519V153.226L116.582 154.667V154.96L114.085 153.519Z" fill="#555F5F"/>
<path d="M125.829 156.614L128.327 155.176L130.819 156.614L128.327 158.055L125.829 156.614Z" fill="#55555F"/>
<path d="M128.329 158.348V158.055L130.82 156.614V156.911L128.329 158.348Z" fill="#141E28"/>
<path d="M125.829 156.911V156.614L128.327 158.055V158.348L125.829 156.911Z" fill="#555F5F"/>
<path d="M122.892 154.922L125.39 153.48L127.885 154.922L125.39 156.363L122.892 154.922Z" fill="#55555F"/>
<path d="M125.39 156.656V156.362L127.884 154.921V155.214L125.39 156.656Z" fill="#141E28"/>
<path d="M122.892 155.214V154.921L125.389 156.362V156.656L122.892 155.214Z" fill="#555F5F"/>
<path d="M119.958 153.226L122.453 151.785L124.951 153.226L122.453 154.667L119.958 153.226Z" fill="#55555F"/>
<path d="M122.452 154.96V154.667L124.95 153.226V153.519L122.452 154.96Z" fill="#141E28"/>
<path d="M119.958 153.519V153.226L122.452 154.667V154.96L119.958 153.519Z" fill="#555F5F"/>
<path d="M117.019 151.53L119.517 150.089L122.012 151.53L119.517 152.971L117.019 151.53Z" fill="#55555F"/>
<path d="M119.518 153.264V152.971L122.012 151.53V151.823L119.518 153.264Z" fill="#141E28"/>
<path d="M117.019 151.823V151.53L119.516 152.971V153.264L117.019 151.823Z" fill="#555F5F"/>
<path d="M131.703 156.614L134.198 155.176L136.696 156.614L134.198 158.058L131.703 156.614Z" fill="#55555F"/>
<path d="M134.197 158.348V158.059L136.695 156.614V156.911L134.197 158.348Z" fill="#141E28"/>
<path d="M131.703 156.911V156.614L134.197 158.059V158.348L131.703 156.911Z" fill="#555F5F"/>
<path d="M128.765 154.922L131.263 153.48L133.758 154.922L131.263 156.363L128.765 154.922Z" fill="#55555F"/>
<path d="M131.263 156.656V156.362L133.757 154.921V155.214L131.263 156.656Z" fill="#141E28"/>
<path d="M128.765 155.214V154.921L131.262 156.362V156.656L128.765 155.214Z" fill="#555F5F"/>
<path d="M125.829 153.226L128.327 151.785L130.819 153.226L128.327 154.667L125.829 153.226Z" fill="#55555F"/>
<path d="M128.329 154.96V154.667L130.82 153.226V153.519L128.329 154.96Z" fill="#141E28"/>
<path d="M125.829 153.519V153.226L128.327 154.667V154.96L125.829 153.519Z" fill="#555F5F"/>
<path d="M122.892 151.53L125.39 150.089L127.885 151.53L125.39 152.971L122.892 151.53Z" fill="#55555F"/>
<path d="M125.39 153.264V152.971L127.884 151.53V151.823L125.39 153.264Z" fill="#141E28"/>
<path d="M122.892 151.823V151.53L125.389 152.971V153.264L122.892 151.823Z" fill="#555F5F"/>
<path d="M119.958 149.834L122.453 148.393L124.951 149.834L122.453 151.275L119.958 149.834Z" fill="#55555F"/>
<path d="M122.452 151.568V151.275L124.95 149.834V150.127L122.452 151.568Z" fill="#141E28"/>
<path d="M119.958 150.127V149.834L122.452 151.275V151.568L119.958 150.127Z" fill="#555F5F"/>
<path d="M134.64 154.922L137.135 153.48L139.629 154.922L137.135 156.363L134.64 154.922Z" fill="#55555F"/>
<path d="M137.136 156.656V156.362L139.63 154.921V155.214L137.136 156.656Z" fill="#141E28"/>
<path d="M134.64 155.214V154.921L137.134 156.362V156.656L134.64 155.214Z" fill="#555F5F"/>
<path d="M137.575 153.226L140.07 151.785L142.565 153.226L140.07 154.667L137.575 153.226Z" fill="#55555F"/>
<path d="M140.069 154.96V154.667L142.563 153.226V153.519L140.069 154.96Z" fill="#141E28"/>
<path d="M137.575 153.519V153.226L140.069 154.667V154.96L137.575 153.519Z" fill="#555F5F"/>
<path d="M131.703 153.226L137.136 150.089L139.631 151.53L134.198 154.667L131.703 153.226Z" fill="#55555F"/>
<path d="M134.197 154.96V154.667L131.703 153.226V153.519L134.197 154.96Z" fill="#555F5F"/>
<path d="M139.63 151.823V151.53L134.197 154.667V154.96L139.63 151.823Z" fill="#141E28"/>
<path d="M122.892 148.138L125.39 149.579L130.819 146.443L128.328 145.001L122.892 148.138Z" fill="#55555F"/>
<path d="M122.892 148.435V148.138L125.389 149.58V149.873L122.892 148.435Z" fill="#555F5F"/>
<path d="M130.819 146.739V146.443L125.39 149.58V149.873L130.819 146.739Z" fill="#141E28"/>
<path d="M125.829 149.834L128.324 148.393L130.819 149.834L128.324 151.275L125.829 149.834Z" fill="#55555F"/>
<path d="M128.323 151.568V151.275L125.829 149.834V150.131L128.323 151.568Z" fill="#555F5F"/>
<path d="M130.819 150.131V149.834L128.325 151.275V151.568L130.819 150.131Z" fill="#141E28"/>
<path d="M128.765 148.435V148.138L131.703 149.834V150.127L128.765 148.435Z" fill="#555F5F"/>
<path d="M128.765 151.53L131.703 149.834L128.765 148.138L131.263 146.697L136.696 149.834L131.263 152.971L128.765 151.53Z" fill="#55555F"/>
<path d="M128.765 151.823V151.53L131.262 152.971V153.264L128.765 151.823Z" fill="#555F5F"/>
<path d="M136.696 150.127V149.834L131.263 152.971V153.264L136.696 150.127Z" fill="#141E28"/>
<path d="M144.875 54.1288C144.425 53.8671 143.803 53.902 143.13 54.2998L54.6091 105.397C53.8905 105.864 53.2923 106.494 52.863 107.235C52.4337 107.977 52.1855 108.809 52.1387 109.665L52.3062 168.373C52.3062 169.151 52.5853 169.699 53.0285 169.957L57.4494 172.529C57.0063 172.27 56.7306 171.719 56.7271 170.941L56.5597 112.233C56.6052 111.378 56.8521 110.546 57.2801 109.804C57.7082 109.063 58.3054 108.433 59.0231 107.966L147.534 56.8679C148.231 56.4736 148.846 56.4353 149.296 56.697L144.875 54.1288Z" fill="#D7DCDC"/>
<path d="M150.014 58.2846C150.014 56.7144 148.901 56.0829 147.533 56.8889L59.0299 107.969C58.3116 108.436 57.7139 109.065 57.2858 109.807C56.8576 110.549 56.6111 111.381 56.5664 112.237L56.7199 166.492L150.168 112.54L150.014 58.2846Z" fill="#6F50CB"/>
<path d="M150.168 112.54L56.7197 166.492V170.945C56.7197 172.511 57.8363 173.143 59.2006 172.34L147.718 121.26C148.437 120.794 149.036 120.164 149.465 119.423C149.894 118.681 150.142 117.848 150.189 116.993L150.168 112.54Z" fill="#96A5A5"/>
<path d="M78.2525 156.963L76.8154 157.793L76.8189 159.447L78.256 158.617L78.2525 156.963Z" fill="black"/>
<path d="M66.0469 163.586L66.0539 166.084L67.5433 163.973L66.0469 163.586Z" fill="black"/>
<path d="M87.667 151.418L87.6705 153.292L88.7902 151.705L87.667 151.418Z" fill="black"/>
<path d="M89.2001 150.466L89.0078 150.574L89.0148 152.584L89.2036 152.476L89.2001 150.466Z" fill="black"/>
<path d="M83.7515 153.679L82.6318 155.26L83.755 155.553L83.7515 153.679Z" fill="black"/>
<path d="M82.4095 154.384L82.2207 154.492L82.2277 156.506L82.413 156.398L82.4095 154.384Z" fill="black"/>
<path d="M99.3108 144.129L98.2295 146.477L100.406 145.221L99.3108 144.129Z" fill="black"/>
<path d="M100.485 145.605L98.1514 146.955V147.241L100.485 145.895V145.605Z" fill="black"/>
<path d="M61.0191 166.803L59.8994 168.387L61.0226 168.677L61.0191 166.803Z" fill="black"/>
<path d="M62.2675 166.081L61.1514 167.665L62.2745 167.954L62.2675 166.081Z" fill="black"/>
<path d="M94.1152 147.695L94.1187 149.569L95.2419 147.981L94.1152 147.695Z" fill="black"/>
<path d="M92.8623 148.417L92.8693 150.291L93.9889 148.704L92.8623 148.417Z" fill="black"/>
<path d="M71.8498 160.142L71.6016 160.285L71.6086 162.971L71.8568 162.825L71.8498 160.142Z" fill="black"/>
<path d="M72.5476 159.74L72.2959 159.884L72.3029 162.57L72.5546 162.424L72.5476 159.74Z" fill="black"/>
<path d="M110.672 138.194L103.969 142.063C103.767 142.195 103.598 142.373 103.477 142.582C103.355 142.791 103.285 143.026 103.271 143.267C103.271 143.707 103.586 143.885 103.969 143.661L110.672 139.792C110.519 139.602 110.442 139.362 110.456 139.118C110.463 138.799 110.535 138.484 110.669 138.194H110.672Z" fill="#F1F2F2"/>
<path d="M126.835 128.863L112.717 137.014C112.871 137.205 112.948 137.447 112.933 137.691C112.926 138.009 112.854 138.321 112.72 138.609L126.838 130.454C127.042 130.324 127.211 130.148 127.332 129.939C127.454 129.73 127.524 129.495 127.536 129.254C127.536 128.811 127.222 128.633 126.838 128.856L126.835 128.863Z" fill="black"/>
<path d="M111.691 136.983C111.236 137.274 110.881 137.696 110.672 138.194C110.539 138.484 110.466 138.799 110.46 139.118C110.445 139.362 110.523 139.602 110.676 139.792C110.899 140.04 111.276 140.067 111.701 139.823C112.157 139.532 112.512 139.108 112.72 138.609C112.854 138.321 112.926 138.009 112.933 137.691C112.947 137.447 112.87 137.205 112.716 137.014C112.493 136.767 112.116 136.739 111.691 136.983Z" fill="#E6E7E8"/>
<path d="M131.591 125.276L131.081 126.355L130.098 126.923L130.105 128.633L131.088 128.068L131.598 128.553L131.591 125.276Z" fill="black"/>
<path d="M133.831 125.468L132.136 126.445L132.139 126.759L133.834 125.779L133.831 125.468Z" fill="black"/>
<path d="M132.065 127.119L131.933 127.468L133.412 127.576L133.544 127.223L132.065 127.119Z" fill="black"/>
<path d="M133.401 124.163L131.929 125.974L132.061 126.169L133.537 124.362L133.401 124.163Z" fill="black"/>
<path d="M140.666 120.876L136.433 123.319C136.231 123.45 136.062 123.627 135.941 123.836C135.82 124.044 135.749 124.278 135.735 124.519C135.735 124.959 136.049 125.136 136.433 124.917L140.662 122.474C140.512 122.283 140.436 122.044 140.449 121.801C140.455 121.481 140.526 121.167 140.659 120.876H140.666ZM146.947 117.251L142.714 119.693C142.868 119.884 142.945 120.125 142.93 120.37C142.923 120.688 142.851 121.002 142.717 121.291L146.95 118.849C147.153 118.719 147.321 118.542 147.443 118.334C147.564 118.126 147.634 117.892 147.648 117.652C147.648 117.209 147.334 117.031 146.95 117.251H146.947Z" fill="#F1F2F2"/>
<path d="M141.684 119.666C141.231 119.957 140.876 120.379 140.666 120.876C140.533 121.167 140.462 121.482 140.457 121.801C140.443 122.044 140.519 122.283 140.669 122.474C140.896 122.722 141.269 122.75 141.695 122.506C142.15 122.216 142.506 121.793 142.713 121.295C142.847 121.006 142.919 120.692 142.926 120.374C142.94 120.129 142.863 119.888 142.71 119.697C142.487 119.449 142.11 119.421 141.684 119.666Z" fill="black"/>
<path d="M103.334 101.025C98.5642 103.778 94.6945 110.481 94.712 115.963C94.7294 121.445 98.62 123.664 103.39 120.908C108.16 118.151 112.033 111.455 112.016 105.97C111.998 100.485 108.108 98.2688 103.334 101.025ZM103.39 119.774C99.1644 122.216 95.7134 120.248 95.7134 115.391C95.7134 110.534 99.1295 104.602 103.352 102.163C107.574 99.7238 111.028 101.685 111.028 106.542C111.028 111.399 107.619 117.334 103.39 119.774Z" fill="#E6E7E8"/>
<path d="M101.278 117.293L107.94 108.325L101.247 107.066L101.278 117.293Z" fill="#E6E7E8"/>
<path d="M148.528 108.887L146.09 110.297L146.097 113.102L148.538 111.692L148.528 108.887Z" fill="white"/>
<path d="M145.595 110.579L143.157 111.989L143.164 114.794L145.606 113.385L145.595 110.579Z" fill="white"/>
<path d="M142.668 112.268L140.227 113.678L140.234 116.483L142.675 115.073L142.668 112.268Z" fill="white"/>
<path d="M139.738 113.96L137.3 115.37L137.307 118.176L139.748 116.766L139.738 113.96Z" fill="white"/>
<path d="M136.807 115.653L134.369 117.062L134.376 119.868L136.818 118.458L136.807 115.653Z" fill="white"/>
<path d="M133.879 117.345L131.438 118.754L131.448 121.56L133.886 120.15L133.879 117.345Z" fill="white"/>
<path d="M130.95 119.034L128.509 120.444L128.516 123.249L130.957 121.839L130.95 119.034Z" fill="white"/>
<path d="M128.016 120.726L125.578 122.136L125.585 124.941L128.027 123.531L128.016 120.726Z" fill="white"/>
<path d="M125.089 122.418L122.65 123.828L122.657 126.634L125.099 125.224L125.089 122.418Z" fill="white"/>
<path d="M122.161 124.107L119.72 125.517L119.727 128.323L122.168 126.913L122.161 124.107Z" fill="white"/>
<path d="M119.231 125.803L116.789 127.209L116.8 130.015L119.238 128.605L119.231 125.803Z" fill="white"/>
<path d="M116.3 127.492L113.861 128.902L113.868 131.707L116.31 130.297L116.3 127.492Z" fill="white"/>
<path d="M113.372 129.184L110.934 130.594L110.941 133.396L113.379 131.986L113.372 129.184Z" fill="white"/>
<path d="M110.441 130.877L108.003 132.286L108.01 135.092L110.448 133.682L110.441 130.877Z" fill="white"/>
<path d="M107.514 132.565L105.072 133.975L105.079 136.781L107.521 135.371L107.514 132.565Z" fill="white"/>
<path d="M104.583 134.258L102.145 135.668L102.152 138.473L104.593 137.063L104.583 134.258Z" fill="white"/>
<path d="M101.651 135.95L99.2129 137.36L99.2199 140.165L101.662 138.756L101.651 135.95Z" fill="white"/>
<path d="M98.7248 137.643L96.2832 139.049L96.2937 141.854L98.7318 140.445L98.7248 137.643Z" fill="white"/>
<path d="M95.7961 139.331L93.3545 140.741L93.3615 143.546L95.8031 142.137L95.7961 139.331Z" fill="white"/>
<path d="M92.862 141.024L90.4238 142.433L90.4308 145.239L92.8725 143.829L92.862 141.024Z" fill="white"/>
<path d="M89.9348 142.716L87.4932 144.125L87.5036 146.931L89.9418 145.521L89.9348 142.716Z" fill="white"/>
<path d="M87.0061 144.405L84.5645 145.815L84.5749 148.62L87.0131 147.21L87.0061 144.405Z" fill="white"/>
<path d="M84.0754 146.097L81.6338 147.507L81.6408 150.312L84.0824 148.902L84.0754 146.097Z" fill="white"/>
<path d="M81.1442 147.789L78.7061 149.199L78.713 152.004L81.1547 150.595L81.1442 147.789Z" fill="white"/>
<path d="M78.2161 149.482L75.7744 150.888L75.7849 153.693L78.223 152.284L78.2161 149.482Z" fill="white"/>
<path d="M75.2854 151.174L72.8438 152.584L72.8542 155.386L75.2924 153.979L75.2854 151.174Z" fill="white"/>
<path d="M72.3542 152.863L69.916 154.272L69.923 157.078L72.3647 155.668L72.3542 152.863Z" fill="white"/>
<path d="M69.4274 154.555L66.9893 155.965L66.9962 158.77L69.4344 157.361L69.4274 154.555Z" fill="white"/>
<path d="M66.4968 156.248L64.0586 157.657L64.0656 160.463L66.5037 159.053L66.4968 156.248Z" fill="white"/>
<path d="M63.5686 157.936L61.127 159.346L61.1339 162.151L63.5756 160.742L63.5686 157.936Z" fill="white"/>
<path d="M60.6374 159.629L58.1992 161.038L58.2062 163.844L60.6478 162.434L60.6374 159.629Z" fill="white"/>
<path d="M59.5953 179.615C59.4975 179.558 59.3948 179.509 59.2883 179.469C59.2051 179.435 59.12 179.406 59.0335 179.382C58.9613 179.36 58.8879 179.343 58.8137 179.329C58.6775 179.303 58.5401 179.283 58.402 179.27H58.2833H57.9763H57.746L57.4773 179.308C57.3424 179.332 57.2094 179.366 57.0795 179.41C56.9081 179.463 56.7431 179.536 56.5875 179.626C56.4913 179.684 56.4012 179.752 56.3189 179.828C56.2714 179.871 56.2281 179.917 56.1897 179.968C56.1579 180.007 56.1298 180.049 56.106 180.094C56.0825 180.131 56.0637 180.17 56.0502 180.212C56.0349 180.251 56.0232 180.29 56.0153 180.331C56.0136 180.345 56.0136 180.359 56.0153 180.373C56.0136 180.398 56.0136 180.424 56.0153 180.449V181.081C56.0153 181.081 56.0153 181.081 56.0153 181.06C56.0118 181.035 56.0118 181.009 56.0153 180.983C56.0136 180.969 56.0136 180.955 56.0153 180.941C56.022 180.901 56.0326 180.861 56.0467 180.823C56.0632 180.782 56.0818 180.743 56.1025 180.704C56.1263 180.66 56.1544 180.618 56.1863 180.579C56.2259 180.528 56.2703 180.481 56.3189 180.439C56.4012 180.362 56.4913 180.295 56.5875 180.237C56.7422 180.147 56.906 180.075 57.076 180.02C57.2071 179.977 57.3412 179.943 57.4773 179.919C57.5645 179.919 57.6553 179.891 57.746 179.881H57.9763H58.2799H58.402C58.4718 179.881 58.5381 179.881 58.6044 179.902L58.8137 179.94L59.0335 179.992L59.2883 180.08C59.3944 180.12 59.4971 180.169 59.5953 180.226C59.7673 180.302 59.9157 180.422 60.025 180.575C60.1343 180.728 60.2004 180.908 60.2164 181.095V180.484C60.1983 180.298 60.1314 180.119 60.0223 179.967C59.9133 179.814 59.766 179.693 59.5953 179.615Z" fill="#5A3BB6"/>
<path d="M77.4744 174.629C77.4764 174.637 77.4764 174.646 77.4744 174.654V174.682C77.4683 174.695 77.46 174.706 77.4499 174.717L77.4115 174.758L70.4678 180.554V181.165L77.4081 175.369H77.429L77.4674 175.327L77.4883 175.292V175.268C77.4879 175.26 77.4879 175.252 77.4883 175.243C77.4883 175.243 77.4883 175.226 77.4883 175.219V174.608C77.4857 174.617 77.4809 174.624 77.4744 174.629Z" fill="#28323C"/>
<path d="M61.5596 180.52V181.13C61.563 181.173 61.563 181.216 61.5596 181.259C61.5616 181.281 61.5616 181.304 61.5596 181.326V180.718V180.649C61.5596 180.607 61.5596 180.561 61.5596 180.52Z" fill="#931E1E"/>
<path d="M61.529 180.718V181.325C61.5169 181.392 61.4993 181.457 61.4766 181.521V180.91C61.5 180.848 61.5187 180.784 61.5325 180.718H61.529Z" fill="#981F1F"/>
<path d="M61.4728 180.91V181.521C61.4512 181.574 61.4267 181.627 61.3994 181.678V181.067C61.4256 181.016 61.449 180.964 61.4693 180.91H61.4728Z" fill="#6F50CB"/>
<path d="M67.4744 180.422L67.4709 181.032L66.3408 182.292L66.3443 181.681L67.4744 180.422Z" fill="#37495B"/>
<path d="M61.4931 180.125L67.4738 180.422L66.3432 181.681L61.4023 181.067C61.4705 180.936 61.5165 180.795 61.5384 180.648C61.5656 180.473 61.55 180.293 61.4931 180.125Z" fill="#7D8C8C"/>
<path d="M66.3438 181.681L66.3403 182.292L61.3994 181.678L61.4029 181.067L66.3438 181.681Z" fill="#555F5F"/>
<path d="M68.6913 180.861C68.7539 180.896 68.8095 180.942 68.8552 180.997C69.0541 181.238 68.8762 181.524 68.4611 181.636C68.1465 181.724 67.8103 181.69 67.5193 181.542C67.4557 181.507 67.399 181.461 67.3519 181.406C67.1566 181.165 67.3519 180.875 67.7495 180.764C68.0647 180.678 68.4003 180.713 68.6913 180.861Z" fill="#B9BEBE"/>
<path d="M70.4329 180.568V181.179L68.7412 182.588L68.7447 181.978L70.4329 180.568Z" fill="#1E2D3C"/>
<path d="M61.4028 181.067V181.678L61.3818 181.716V181.106L61.4028 181.067Z" fill="#6F50CB"/>
<path d="M61.2456 181.308C61.18 181.39 61.1077 181.467 61.0293 181.538C60.8977 181.66 60.7539 181.767 60.6001 181.859C60.3443 182.006 60.0727 182.123 59.7906 182.208C59.5779 182.275 59.3611 182.329 59.1416 182.369C58.9985 182.393 58.852 182.414 58.7054 182.428C58.5589 182.442 58.4542 182.449 58.3251 182.456H57.8296H57.6342C57.5225 182.456 57.4109 182.435 57.2853 182.417C57.168 182.404 57.0515 182.384 56.9363 182.358C56.8107 182.334 56.6921 182.306 56.5874 182.271C56.4827 182.236 56.3047 182.184 56.1722 182.131C56.0004 182.064 55.8337 181.985 55.6732 181.894C55.0416 181.528 54.6543 181.022 54.6543 180.474V181.085C54.6543 181.632 55.0381 182.131 55.6732 182.505C55.833 182.597 55.9998 182.676 56.1722 182.742C56.3047 182.794 56.4408 182.84 56.5874 182.882C56.7339 182.923 56.8247 182.944 56.9363 182.969C57.0515 182.995 57.168 183.014 57.2853 183.028C57.3934 183.028 57.5051 183.056 57.6342 183.066H57.8261H58.3251C58.4507 183.066 58.5798 183.066 58.7019 183.039C58.824 183.011 58.9985 183.004 59.1416 182.979C59.36 182.94 59.5756 182.886 59.7871 182.819C60.0692 182.733 60.3408 182.616 60.5966 182.47C60.7515 182.378 60.8965 182.27 61.0293 182.149C61.1066 182.078 61.1778 182.001 61.2422 181.918C61.293 181.855 61.3386 181.787 61.3782 181.716V181.105C61.3397 181.176 61.2953 181.244 61.2456 181.308Z" fill="#5A3BB6"/>
<path d="M61.4024 181.067C60.9418 181.943 59.4693 182.546 57.8293 182.463C57.0803 182.439 56.3471 182.241 55.6868 181.887C54.989 181.482 54.5947 180.913 54.6819 180.306C54.8354 179.211 56.4999 178.394 58.3911 178.488C59.1405 178.512 59.8741 178.711 60.5335 179.068C60.9707 179.287 61.3121 179.66 61.4931 180.114C61.55 180.283 61.5656 180.462 61.5385 180.638C61.5177 180.788 61.4717 180.933 61.4024 181.067ZM57.9375 181.695C59.0959 181.754 60.1148 181.255 60.2125 180.582C60.22 180.377 60.1648 180.175 60.0545 180.002C59.9442 179.83 59.7838 179.695 59.5949 179.615C59.1911 179.398 58.7416 179.278 58.2829 179.266C57.1244 179.207 56.1021 179.706 56.0079 180.38C56.0004 180.584 56.0555 180.787 56.1659 180.959C56.2762 181.132 56.4365 181.267 56.6255 181.346C57.0297 181.563 57.4789 181.682 57.9375 181.695Z" fill="#6F50CB"/>
<path d="M83.0161 181.399C83.0178 181.408 83.0178 181.417 83.0161 181.427C83.0176 181.436 83.0176 181.445 83.0161 181.455C83.0116 181.466 83.0057 181.476 82.9986 181.486C82.9932 181.501 82.9849 181.515 82.9742 181.528L81.7669 182.924L81.7076 182.983C81.6555 183.031 81.5981 183.073 81.5366 183.108C81.4198 183.177 81.2957 183.232 81.1667 183.272C81.066 183.304 80.9635 183.33 80.8597 183.349L80.6608 183.377H80.5003H80.3642H80.2386H80.1792L68.7656 181.957V182.568L80.1827 183.988H80.242H80.3642H80.5037H80.6608C80.7286 183.983 80.7962 183.975 80.8632 183.963C80.9669 183.944 81.0694 183.918 81.1702 183.887C81.2987 183.845 81.4226 183.79 81.5401 183.723C81.601 183.686 81.6583 183.644 81.7111 183.597L81.7669 183.538L82.9777 182.142L83.0056 182.1C83.0069 182.09 83.0069 182.079 83.0056 182.069V182.041C83.0037 182.033 83.0037 182.024 83.0056 182.016V181.399H83.0161Z" fill="#555F5F"/>
<path d="M81.7454 182.948C81.5269 183.13 81.2727 183.264 80.9993 183.341C80.7258 183.419 80.4391 183.438 80.1577 183.398L68.7441 181.978L70.433 180.582L82.5863 181.182C82.6977 181.184 82.8074 181.21 82.9073 181.259C82.9354 181.271 82.9599 181.29 82.9786 181.314C82.9973 181.338 83.0095 181.366 83.0141 181.396C83.0186 181.426 83.0154 181.457 83.0046 181.486C82.9939 181.514 82.976 181.539 82.9527 181.559L81.7454 182.948Z" fill="#7D8C8C"/>
<path d="M65.1258 184.699C64.9755 184.614 64.8193 184.539 64.6584 184.476H64.627C64.49 184.422 64.3503 184.376 64.2084 184.337L64.0166 184.284V184.888L64.2119 184.94C64.3528 184.979 64.4914 185.025 64.627 185.08H64.6619C64.8217 185.143 64.9767 185.218 65.1258 185.303C65.1991 185.345 65.2653 185.387 65.3316 185.432V184.822C65.2653 184.783 65.1956 184.741 65.1258 184.699Z" fill="#151F2A"/>
<path d="M68.7446 181.978L65.3286 184.829C65.2658 184.783 65.196 184.741 65.1262 184.699C64.9759 184.614 64.8196 184.539 64.6586 184.476C64.4496 184.393 64.2351 184.324 64.0166 184.27L66.344 181.681L67.492 180.422L72.8551 174.42C73.0808 174.244 73.3404 174.115 73.6177 174.043C73.895 173.971 74.1841 173.957 74.4672 174.001L77.1051 174.35C77.1964 174.359 77.2852 174.385 77.3668 174.427C77.5064 174.511 77.5203 174.633 77.3668 174.751L70.423 180.547L68.7446 181.978ZM68.462 181.629C68.8772 181.517 69.0552 181.231 68.8563 180.99C68.8105 180.935 68.7549 180.889 68.6923 180.854C68.4012 180.706 68.0655 180.671 67.7502 180.757C67.335 180.868 67.157 181.158 67.3524 181.399C67.3995 181.454 67.4563 181.5 67.5199 181.535C67.811 181.683 68.1473 181.717 68.462 181.629Z" fill="#555F5F"/>
<path d="M68.7442 181.978L68.7407 182.588L65.3281 185.439V184.829L68.7442 181.978Z" fill="#28323C"/>
<path d="M64.1868 185.237C64.0946 185.184 63.999 185.138 63.9007 185.097H63.8798C63.7995 185.066 63.7123 185.035 63.6251 185.01L63.4052 184.958L63.1959 184.919L62.9935 184.898C62.9237 184.898 62.8539 184.898 62.7841 184.898H62.5678H62.334L62.0618 184.937C61.9262 184.963 61.7922 184.997 61.6606 185.038C61.491 185.091 61.3282 185.164 61.1755 185.254C61.1018 185.299 61.0318 185.349 60.9662 185.404L60.9103 185.453C60.8634 185.497 60.8192 185.544 60.7778 185.593C60.7466 185.634 60.7186 185.677 60.694 185.722C60.6726 185.759 60.6539 185.797 60.6382 185.837C60.6382 185.879 60.6138 185.917 60.6033 185.956C60.5928 185.994 60.6033 186.036 60.6033 186.078V186.688C60.5981 186.648 60.5981 186.607 60.6033 186.566C60.6109 186.526 60.6214 186.486 60.6347 186.448L60.6905 186.329C60.716 186.285 60.7452 186.243 60.7778 186.203C60.8182 186.154 60.8625 186.107 60.9103 186.064L60.9627 186.015C61.0296 185.961 61.0995 185.911 61.172 185.865C61.3267 185.776 61.4904 185.703 61.6606 185.649C61.791 185.607 61.9239 185.573 62.0583 185.547L62.334 185.509H62.5678H62.7841C62.8527 185.506 62.9214 185.506 62.99 185.509C63.0598 185.509 63.1261 185.509 63.1959 185.53L63.4017 185.568C63.4758 185.582 63.5492 185.6 63.6216 185.621C63.7123 185.645 63.796 185.677 63.8798 185.708C63.979 185.746 64.0748 185.793 64.1659 185.848C64.3379 185.923 64.4863 186.044 64.5956 186.197C64.7049 186.35 64.771 186.529 64.787 186.716V186.109C64.7718 185.924 64.7084 185.746 64.6031 185.593C64.4978 185.44 64.3543 185.317 64.1868 185.237Z" fill="#5A3BB6"/>
<path d="M66.1366 186.155C66.1347 186.22 66.1277 186.285 66.1157 186.35C66.1019 186.415 66.0833 186.479 66.0599 186.542C66.034 186.609 66.0037 186.674 65.9691 186.737C65.9275 186.809 65.8808 186.878 65.8296 186.943C65.7634 187.024 65.6923 187.101 65.6167 187.173L65.526 187.25C65.4167 187.34 65.3 187.421 65.1771 187.491C64.9273 187.64 64.6601 187.757 64.3815 187.84C64.1682 187.91 63.9501 187.965 63.729 188.004C63.5824 188.032 63.4359 188.053 63.2824 188.067C63.1288 188.081 63.0311 188.088 62.902 188.091C62.7729 188.095 62.6648 188.091 62.5531 188.091H62.2042L61.8727 188.053C61.7575 188.035 61.6459 188.018 61.5237 187.993C61.4016 187.969 61.2795 187.938 61.1748 187.906V188.517C61.2934 188.548 61.4121 188.58 61.5237 188.604C61.6354 188.628 61.7505 188.646 61.8727 188.663L62.2216 188.702H62.5705C62.6892 188.702 62.8078 188.702 62.9195 188.702C63.0311 188.702 63.1777 188.702 63.3033 188.677C63.4289 188.653 63.6034 188.642 63.7499 188.614C63.9709 188.576 64.1889 188.523 64.4024 188.454C64.68 188.368 64.9469 188.251 65.198 188.105C65.3197 188.032 65.4363 187.95 65.5469 187.861L65.6342 187.784C65.7118 187.713 65.7841 187.636 65.8505 187.554C65.9007 187.488 65.9461 187.42 65.9866 187.348C66.0225 187.286 66.0529 187.22 66.0773 187.152C66.1023 187.091 66.121 187.026 66.1331 186.961C66.1462 186.896 66.1544 186.831 66.1576 186.765V186.155H66.1366Z" fill="#5A3BB6"/>
<path d="M60.7666 187.756H60.7387C60.5781 187.691 60.4219 187.615 60.2713 187.529C59.6086 187.145 59.2563 186.629 59.2598 186.109V186.72C59.2598 187.24 59.6086 187.767 60.2713 188.14C60.4227 188.227 60.5801 188.302 60.7422 188.367H60.7701C60.9062 188.419 61.0457 188.468 61.1887 188.51V187.899C61.0456 187.859 60.9047 187.811 60.7666 187.756Z" fill="#5A3BB6"/>
<path d="M65.5272 187.25C64.449 188.15 62.2996 188.374 60.7399 187.746C60.5791 187.681 60.4229 187.605 60.2723 187.519C59.1104 186.849 58.908 185.774 59.871 184.972C60.8341 184.169 62.5508 183.925 64.0164 184.274C64.2348 184.328 64.4493 184.396 64.6584 184.48C64.8194 184.543 64.9756 184.617 65.126 184.703C65.1957 184.745 65.2655 184.787 65.3283 184.832C66.3054 185.502 66.4449 186.496 65.5272 187.25ZM61.4971 187.111C62.4566 187.498 63.7721 187.362 64.4316 186.81C65.0213 186.315 64.8992 185.656 64.1873 185.247C64.0951 185.195 63.9995 185.148 63.9012 185.108C62.9451 184.724 61.6262 184.86 60.9667 185.411C60.377 185.903 60.4991 186.563 61.2109 186.974C61.3033 187.026 61.3988 187.071 61.4971 187.111Z" fill="#6F50CB"/>
</g>
</g>
<defs>
<clipPath id="clip0">
<path d="M0 0H200C206.627 0 212 5.37258 212 12V208C212 214.627 206.627 220 200 220H0V0Z" fill="white"/>
</clipPath>
<clipPath id="clip1">
<rect width="160" height="170" fill="white" transform="translate(26 25)"/>
</clipPath>
</defs>
</svg>
