<svg width="16" height="16" viewBox="0 0 16 16" fill="none" xmlns="http://www.w3.org/2000/svg">
<path d="M0.33766 9.9342L4.3634 15.3559C4.7118 15.8251 5.27064 16.0645 5.83145 15.9849L12.2706 15.0708C12.8434 14.9895 13.3294 14.5881 13.5405 14.0219L15.89 7.71767C16.0957 7.16598 16.0091 6.54104 15.6623 6.07406L11.6305 0.644134C11.2809 0.17329 10.7194 -0.0660814 10.1569 0.015866L3.81266 0.940125C3.24934 1.02219 2.77035 1.41406 2.55592 1.96828L0.117571 8.27054C-0.0975475 8.82655 -0.0135942 9.46115 0.33766 9.9342Z" fill="#8A179E"/>
</svg>
