<svg width="365" height="314" viewBox="0 0 365 314" fill="none" xmlns="http://www.w3.org/2000/svg">
<g clip-path="url(#clip0)">
<g clip-path="url(#clip1)">
<path d="M251.556 156.274H221.395L187.827 136.889C183.509 134.392 175.952 134.712 170.958 137.58L138.605 156.274H108.461V243.548H108.478C108.36 245.235 109.304 246.871 111.379 248.069L172.19 283.178C176.508 285.675 184.065 285.354 189.058 282.486L247.44 248.778C250.038 247.276 251.421 245.387 251.539 243.565H251.556V156.274Z" fill="url(#paint0_linear)"/>
<path d="M247.423 247.361L189.041 281.069C184.048 283.954 176.491 284.258 172.173 281.761L111.379 246.669C109.304 245.471 108.36 243.835 108.478 242.148H108.461V243.548H108.478C108.36 245.235 109.304 246.872 111.379 248.069L172.19 283.178C176.508 285.675 184.065 285.355 189.058 282.486L247.44 248.778C250.038 247.277 251.421 245.387 251.539 243.565H251.556V242.165H251.539C251.404 243.97 250.021 245.859 247.423 247.361Z" fill="url(#paint1_linear)"/>
<path d="M110.384 244.931L110.367 157.674H140.511L172.865 138.998C177.858 136.113 185.415 135.809 189.733 138.306L223.301 157.691H251.556V156.29H221.395L187.827 136.906C183.509 134.409 175.952 134.729 170.958 137.597L138.605 156.274H108.461V243.548H108.478C108.36 245.235 109.304 246.871 111.379 248.069L111.717 248.272C110.738 247.259 110.3 246.112 110.384 244.931Z" fill="#D4088C"/>
<path d="M249.835 157.893V245.066H249.819C249.751 246.096 249.245 247.158 248.385 248.154C250.358 246.77 251.421 245.134 251.539 243.548H251.556V156.493C250.932 156.881 250.358 157.337 249.835 157.893Z" fill="#6EE8FC"/>
<path d="M172.175 195.904L111.381 160.795C107.063 158.298 107.603 153.945 112.596 151.06L170.977 117.352C175.97 114.467 183.528 114.163 187.846 116.66L248.656 151.769C252.975 154.266 252.435 158.619 247.442 161.504L189.06 195.212C184.05 198.08 176.51 198.401 172.175 195.904Z" fill="url(#paint2_linear)"/>
<path d="M248.638 151.752L187.827 116.643C185.584 115.344 182.48 114.821 179.309 115.007C181.62 115.142 183.762 115.682 185.449 116.643L246.259 151.752C250.578 154.249 250.038 158.602 245.045 161.487L186.663 195.195C184.251 196.579 181.249 197.372 178.313 197.54C181.957 197.76 185.989 196.967 189.042 195.195L247.423 161.487C252.416 158.602 252.956 154.249 248.638 151.752Z" fill="#6EE8FC"/>
<path d="M174.182 185.781L128.907 159.631C125.685 157.775 126.09 154.519 129.801 152.376L173.271 127.289C176.982 125.146 182.616 124.91 185.821 126.766L231.096 152.899C234.318 154.755 233.913 158.011 230.202 160.154L186.732 185.258C183.021 187.401 177.404 187.637 174.182 185.781Z" fill="url(#paint3_linear)"/>
<path d="M175.784 177.649L142.992 158.703C140.664 157.354 140.951 155.008 143.65 153.456L175.126 135.269C177.825 133.717 181.89 133.548 184.218 134.898L217.01 153.844C219.338 155.194 219.051 157.539 216.352 159.091L184.859 177.278C182.194 178.83 178.112 178.999 175.784 177.649Z" fill="#6DE0F6"/>
<path d="M174.905 195.904L114.094 160.795C109.776 158.298 110.316 153.946 115.309 151.061L173.691 117.352C176.069 115.986 179.004 115.21 181.905 115.024C178.194 114.754 174.079 115.564 170.958 117.352L112.576 151.061C107.583 153.946 107.043 158.298 111.362 160.795L172.172 195.904C174.45 197.22 177.604 197.743 180.826 197.541C178.599 197.372 176.524 196.832 174.905 195.904Z" fill="#D4088C"/>
<path d="M143.634 156.021L175.127 137.834C177.826 136.282 181.892 136.113 184.236 137.463L217.045 156.409C217.568 156.712 217.923 157.067 218.192 157.438C218.985 156.156 218.648 154.772 217.045 153.844L184.236 134.881C181.908 133.532 177.826 133.7 175.127 135.252L143.634 153.456C141.542 154.671 140.918 156.358 141.829 157.674C142.183 157.084 142.774 156.51 143.634 156.021Z" fill="#267FE5"/>
<path d="M143.634 159.108L175.127 140.921C177.826 139.369 181.891 139.2 184.236 140.55L217.045 159.496C217.45 159.732 217.754 160.002 218.007 160.306C219.052 158.939 218.766 157.404 217.045 156.409L184.236 137.446C181.908 136.096 177.826 136.265 175.127 137.817L143.634 156.021C141.407 157.303 140.85 159.125 142.014 160.475C142.385 159.985 142.925 159.513 143.634 159.108Z" fill="#25BFEC"/>
<path d="M142.333 163.9C142.671 163.545 143.092 163.191 143.632 162.887L175.126 144.683C177.824 143.131 181.89 142.963 184.234 144.312L217.044 163.258C217.297 163.41 217.499 163.562 217.685 163.731C219.068 162.28 218.916 160.576 217.044 159.496L184.234 140.533C181.907 139.183 177.824 139.352 175.126 140.904L143.632 159.108C141.22 160.492 140.748 162.516 142.333 163.9Z" fill="#18D0F7"/>
<path d="M200.967 260.199L197.593 262.14C196.733 262.646 196.024 262.106 196.024 260.959V213.855C196.024 212.69 196.733 211.358 197.593 210.852L200.967 208.911C201.827 208.405 202.536 208.945 202.536 210.092V257.18C202.536 258.344 201.844 259.693 200.967 260.199Z" fill="#6DE0F6"/>
<path d="M200.967 208.912L200.157 209.384V255.628C200.157 256.792 199.449 258.125 198.588 258.631L196.024 260.115V260.959C196.024 262.123 196.733 262.646 197.593 262.14L200.967 260.2C201.827 259.694 202.536 258.361 202.536 257.197V210.109C202.536 208.945 201.844 208.405 200.967 208.912Z" fill="#267FE5"/>
<path d="M213.397 253.029L210.023 254.969C209.163 255.476 208.454 254.936 208.454 253.788V206.701C208.454 205.537 209.163 204.204 210.023 203.698L213.397 201.758C214.257 201.252 214.965 201.792 214.965 202.939V250.026C214.965 251.173 214.257 252.523 213.397 253.029Z" fill="#6DE0F6"/>
<path d="M225.815 245.842L222.441 247.782C221.581 248.289 220.872 247.749 220.872 246.601V199.514C220.872 198.35 221.581 197.017 222.441 196.511L225.815 194.571C226.675 194.065 227.383 194.605 227.383 195.752V242.839C227.383 244.003 226.692 245.353 225.815 245.842Z" fill="#6DE0F6"/>
<path d="M238.244 238.672L234.871 240.612C234.01 241.118 233.302 240.579 233.302 239.431V192.344C233.302 191.18 234.01 189.847 234.871 189.341L238.244 187.401C239.104 186.895 239.813 187.435 239.813 188.582V235.669C239.813 236.833 239.104 238.166 238.244 238.672Z" fill="#6DE0F6"/>
<path d="M213.397 201.741L212.587 202.214V248.44C212.587 249.605 211.878 250.937 211.018 251.443L208.454 252.928V253.772C208.454 254.936 209.163 255.459 210.023 254.953L213.397 253.013C214.257 252.506 214.965 251.174 214.965 250.009V202.922C214.965 201.758 214.257 201.235 213.397 201.741Z" fill="#267FE5"/>
<path d="M225.815 194.554L225.005 195.026V241.27C225.005 242.434 224.296 243.767 223.436 244.273L220.872 245.758V246.601C220.872 247.766 221.581 248.289 222.441 247.782L225.815 245.842C226.675 245.336 227.383 244.003 227.383 242.839V195.752C227.383 194.588 226.692 194.065 225.815 194.554Z" fill="#267FE5"/>
<path d="M238.244 187.384L237.435 187.856V234.1C237.435 235.264 236.726 236.597 235.866 237.103L233.302 238.588V239.431C233.302 240.595 234.01 241.118 234.871 240.612L238.244 238.672C239.104 238.166 239.813 236.833 239.813 235.669V188.582C239.813 187.418 239.104 186.878 238.244 187.384Z" fill="#267FE5"/>
<path d="M167.161 265.969C166.773 265.969 166.352 265.851 165.93 265.598L122.021 240.241C120.503 239.364 119.306 237.103 119.306 235.095V185.258C119.306 184.111 119.711 183.234 120.419 182.829C121.026 182.474 121.785 182.525 122.544 182.964L166.453 208.321C167.971 209.198 169.169 211.459 169.169 213.467V263.304C169.169 264.451 168.764 265.328 168.055 265.733C167.769 265.902 167.482 265.969 167.161 265.969ZM121.296 183.638C121.161 183.638 121.043 183.672 120.925 183.74C120.554 183.959 120.335 184.533 120.335 185.275V235.112C120.335 236.732 121.347 238.672 122.528 239.364L166.436 264.721C166.74 264.89 167.161 265.058 167.532 264.856C167.904 264.637 168.123 264.063 168.123 263.321V213.483C168.123 211.864 167.111 209.924 165.93 209.232L122.021 183.875C121.802 183.74 121.549 183.638 121.296 183.638Z" fill="#480689"/>
<path d="M127.876 195.044C127.876 196.41 126.915 196.967 125.734 196.275C124.553 195.6 123.592 193.93 123.592 192.58C123.592 191.214 124.553 190.657 125.734 191.349C126.932 192.024 127.876 193.677 127.876 195.044Z" fill="#6DE0F6"/>
<path d="M127.876 201.977C127.876 203.344 126.915 203.901 125.734 203.209C124.553 202.534 123.592 200.864 123.592 199.514C123.592 198.148 124.553 197.591 125.734 198.283C126.932 198.957 127.876 200.611 127.876 201.977Z" fill="#6DE0F6"/>
<path d="M127.876 208.911C127.876 210.278 126.915 210.835 125.734 210.143C124.553 209.468 123.592 207.798 123.592 206.448C123.592 205.082 124.553 204.525 125.734 205.217C126.932 205.892 127.876 207.545 127.876 208.911Z" fill="#6DE0F6"/>
<path d="M126.814 209.3C125.633 208.625 124.671 206.954 124.671 205.605C124.671 205.352 124.722 205.132 124.773 204.93C124.081 204.93 123.592 205.487 123.592 206.448C123.592 207.815 124.553 209.468 125.734 210.143C126.696 210.7 127.488 210.43 127.758 209.569C127.488 209.586 127.168 209.502 126.814 209.3Z" fill="#267FE5"/>
<path d="M126.814 202.365C125.633 201.691 124.671 200.02 124.671 198.671C124.671 198.418 124.722 198.198 124.773 197.996C124.081 197.996 123.592 198.553 123.592 199.514C123.592 200.881 124.553 202.534 125.734 203.209C126.696 203.766 127.488 203.496 127.758 202.652C127.488 202.635 127.168 202.551 126.814 202.365Z" fill="#267FE5"/>
<path d="M126.814 195.415C125.633 194.74 124.671 193.069 124.671 191.72C124.671 191.467 124.722 191.247 124.773 191.045C124.081 191.045 123.592 191.602 123.592 192.563C123.592 193.93 124.553 195.583 125.734 196.258C126.696 196.815 127.488 196.545 127.758 195.701C127.488 195.701 127.168 195.617 126.814 195.415Z" fill="#267FE5"/>
<path d="M163.198 241.102L161.781 240.292C161.343 240.039 160.988 239.364 160.988 238.773V231.974C160.988 231.384 161.343 231.114 161.781 231.367L163.198 232.177C163.637 232.43 163.991 233.105 163.991 233.695V240.494C164.008 241.085 163.637 241.355 163.198 241.102Z" fill="#480689"/>
<g opacity="0.08" filter="url(#filter0_f)">
<path d="M218.595 -8H141.473V156.459C141.473 157.303 141.996 158.113 143.041 158.72L175.817 177.65C178.145 178.999 182.21 178.831 184.909 177.278L216.368 159.108C217.769 158.298 218.511 157.286 218.578 156.291H218.595V-8Z" fill="url(#paint4_linear)"/>
</g>
<g opacity="0.08" filter="url(#filter1_f)">
<path d="M214.935 7.67334H145.134V156.51C145.134 157.286 145.606 158.012 146.551 158.568L176.205 175.693C178.314 176.907 181.991 176.755 184.437 175.355L212.911 158.906C214.176 158.18 214.851 157.252 214.918 156.358H214.935V7.67334Z" fill="url(#paint5_linear)"/>
</g>
<path d="M164.599 142.676C164.599 144.262 163.317 145.544 161.731 145.544C160.145 145.544 158.863 144.262 158.863 142.676C158.863 141.09 160.145 139.808 161.731 139.808C163.317 139.808 164.599 141.09 164.599 142.676Z" fill="#6DE0F6"/>
<path d="M188.298 123.409C188.298 126.125 186.105 128.318 183.389 128.318C180.673 128.318 178.48 126.125 178.48 123.409C178.48 120.693 180.673 118.5 183.389 118.5C186.105 118.5 188.298 120.693 188.298 123.409Z" fill="#6DE0F6"/>
<path d="M178.601 120.288C178.601 120.98 178.044 121.553 177.335 121.553C176.644 121.553 176.07 120.996 176.07 120.288C176.07 119.579 176.627 119.022 177.335 119.022C178.044 119.022 178.601 119.579 178.601 120.288Z" fill="#6DE0F6"/>
<path d="M201.221 95.656C201.221 97.0056 200.125 98.1023 198.775 98.1023C197.426 98.1023 196.329 97.0056 196.329 95.656C196.329 94.3063 197.426 93.2097 198.775 93.2097C200.108 93.1928 201.221 94.2894 201.221 95.656Z" fill="#6DE0F6"/>
<path d="M185.835 76.5748C186.795 76.5748 187.573 75.7968 187.573 74.8371C187.573 73.8774 186.795 73.0994 185.835 73.0994C184.876 73.0994 184.098 73.8774 184.098 74.8371C184.098 75.7968 184.876 76.5748 185.835 76.5748Z" fill="#6DE0F6"/>
<path d="M164.597 64.6977C166.33 64.6977 167.735 63.2927 167.735 61.5597C167.735 59.8266 166.33 58.4216 164.597 58.4216C162.865 58.4216 161.46 59.8266 161.46 61.5597C161.46 63.2927 162.865 64.6977 164.597 64.6977Z" fill="#6DE0F6"/>
<path d="M181.938 45.65C185.45 45.65 188.297 42.8024 188.297 39.2896C188.297 35.7769 185.45 32.9292 181.938 32.9292C178.425 32.9292 175.578 35.7769 175.578 39.2896C175.578 42.8024 178.425 45.65 181.938 45.65Z" fill="#6DE0F6"/>
<path d="M175.579 35.2575C175.579 36.2192 174.803 37.0121 173.825 37.0121C172.863 37.0121 172.07 36.236 172.07 35.2575C172.07 34.2959 172.846 33.5029 173.825 33.5029C174.786 33.5029 175.579 34.2959 175.579 35.2575Z" fill="#6DE0F6"/>
<path d="M189.124 46.9323C189.124 48.0795 188.196 48.9905 187.066 48.9905C185.919 48.9905 185.008 48.0626 185.008 46.9323C185.008 45.785 185.936 44.874 187.066 44.874C188.196 44.8571 189.124 45.785 189.124 46.9323Z" fill="#6DE0F6"/>
<path d="M190.658 42.6133C190.658 43.1701 190.22 43.6087 189.663 43.6087C189.107 43.6087 188.668 43.1701 188.668 42.6133C188.668 42.0566 189.107 41.6179 189.663 41.6179C190.203 41.6179 190.658 42.0734 190.658 42.6133Z" fill="#6DE0F6"/>
<path d="M200.732 24.0551C202.325 24.0551 203.617 22.7634 203.617 21.1701C203.617 19.5768 202.325 18.2852 200.732 18.2852C199.139 18.2852 197.848 19.5768 197.848 21.1701C197.848 22.7634 199.139 24.0551 200.732 24.0551Z" fill="#6DE0F6"/>
</g>
</g>
<defs>
<filter id="filter0_f" x="137.473" y="-12" width="85.1224" height="194.562" filterUnits="userSpaceOnUse" color-interpolation-filters="sRGB">
<feFlood flood-opacity="0" result="BackgroundImageFix"/>
<feBlend mode="normal" in="SourceGraphic" in2="BackgroundImageFix" result="shape"/>
<feGaussianBlur stdDeviation="2" result="effect1_foregroundBlur"/>
</filter>
<filter id="filter1_f" x="141.134" y="3.67334" width="77.8015" height="176.84" filterUnits="userSpaceOnUse" color-interpolation-filters="sRGB">
<feFlood flood-opacity="0" result="BackgroundImageFix"/>
<feBlend mode="normal" in="SourceGraphic" in2="BackgroundImageFix" result="shape"/>
<feGaussianBlur stdDeviation="2" result="effect1_foregroundBlur"/>
</filter>
<linearGradient id="paint0_linear" x1="94.9245" y1="210.029" x2="269.263" y2="210.029" gradientUnits="userSpaceOnUse">
<stop stop-color="#A31FA9"/>
<stop offset="0.0668" stop-color="#8B17A0"/>
<stop offset="0.1494" stop-color="#740F98"/>
<stop offset="0.2393" stop-color="#640A92"/>
<stop offset="0.3408" stop-color="#5B078F"/>
<stop offset="0.4785" stop-color="#58068E"/>
<stop offset="0.6264" stop-color="#4D22A3"/>
<stop offset="0.9436" stop-color="#3168DA"/>
<stop offset="1" stop-color="#2C75E4"/>
</linearGradient>
<linearGradient id="paint1_linear" x1="94.9245" y1="263.499" x2="269.263" y2="263.499" gradientUnits="userSpaceOnUse">
<stop stop-color="#D4088C"/>
<stop offset="0.2258" stop-color="#D4088C"/>
<stop offset="0.5108" stop-color="#6EE1F8"/>
<stop offset="0.7796" stop-color="#6EE8FC"/>
<stop offset="1" stop-color="#6EE8FC"/>
</linearGradient>
<linearGradient id="paint2_linear" x1="107.288" y1="156.274" x2="241.507" y2="189.481" gradientUnits="userSpaceOnUse">
<stop stop-color="#8D139B"/>
<stop offset="0.1651" stop-color="#851BA1"/>
<stop offset="0.4284" stop-color="#6E33B2"/>
<stop offset="0.7551" stop-color="#4958CD"/>
<stop offset="1" stop-color="#2979E4"/>
</linearGradient>
<linearGradient id="paint3_linear" x1="125.867" y1="156.274" x2="225.793" y2="180.996" gradientUnits="userSpaceOnUse">
<stop stop-color="#630692"/>
<stop offset="0.2262" stop-color="#5B0E94"/>
<stop offset="0.587" stop-color="#432399"/>
<stop offset="1" stop-color="#2142A1"/>
</linearGradient>
<linearGradient id="paint4_linear" x1="180.034" y1="-8" x2="180.034" y2="178.562" gradientUnits="userSpaceOnUse">
<stop stop-color="#6DE0F6" stop-opacity="0"/>
<stop offset="1" stop-color="#6DE0F6"/>
</linearGradient>
<linearGradient id="paint5_linear" x1="180.035" y1="7.67334" x2="180.035" y2="176.513" gradientUnits="userSpaceOnUse">
<stop stop-color="#6DE0F6" stop-opacity="0"/>
<stop offset="1" stop-color="#3040A3"/>
</linearGradient>
<clipPath id="clip0">
<rect width="365" height="314" fill="white"/>
</clipPath>
<clipPath id="clip1">
<rect width="170" height="370" fill="white" transform="translate(95 -8)"/>
</clipPath>
</defs>
</svg>
