<svg width="365" height="324" viewBox="0 0 365 324" fill="none" xmlns="http://www.w3.org/2000/svg">
<g clip-path="url(#clip0)">
<g clip-path="url(#clip1)">
<path opacity="0.6" d="M212.072 379.031L166.262 352.647C163.009 350.77 163.415 347.499 167.177 345.331L211.157 319.999C214.919 317.83 220.612 317.602 223.865 319.479L269.676 345.863C272.929 347.74 272.522 351.011 268.761 353.179L224.78 378.511C221.019 380.68 215.326 380.908 212.072 379.031Z" fill="#0C0F38"/>
<path d="M217.509 386.36C214.968 386.36 212.553 385.853 210.736 384.813L156.78 353.724C154.938 352.659 153.921 351.163 153.921 349.515C153.921 347.563 155.357 345.61 157.86 344.165L209.669 314.319C214.244 311.681 221.195 311.402 225.185 313.697L279.141 344.786C280.984 345.851 282 347.347 282 348.995C282 350.948 280.564 352.9 278.061 354.346L226.252 384.192C223.762 385.624 220.559 386.36 217.509 386.36ZM218.412 313.203C215.565 313.203 212.553 313.9 210.215 315.244L158.407 345.09C156.246 346.333 155.014 347.943 155.014 349.502C155.014 350.758 155.84 351.924 157.339 352.786L211.295 383.875C214.981 385.992 221.449 385.713 225.718 383.253L277.527 353.407C279.687 352.165 280.92 350.555 280.92 348.995C280.92 347.74 280.094 346.586 278.595 345.724L224.638 314.636C222.974 313.672 220.75 313.203 218.412 313.203Z" fill="url(#paint0_linear)"/>
<path d="M271.86 261.562H249.138L223.85 246.994C220.597 245.118 214.904 245.358 211.143 247.514L186.77 261.549H164.074V327.137H164.087C163.998 328.405 164.71 329.635 166.273 330.535L212.083 356.92C215.336 358.796 221.029 358.555 224.791 356.4L268.772 331.067C270.729 329.939 271.771 328.519 271.86 327.15H271.872V261.562H271.86Z" fill="url(#paint1_linear)"/>
<path d="M165.51 328.189L165.497 262.602H188.206L212.579 248.566C216.34 246.398 222.033 246.17 225.286 248.046L250.574 262.614H271.86V261.562H249.138L223.85 246.994C220.597 245.118 214.904 245.358 211.143 247.514L186.77 261.549H164.074V327.137H164.087C163.998 328.405 164.71 329.635 166.273 330.535L166.527 330.687C165.777 329.939 165.447 329.077 165.51 328.189Z" fill="#D4088C"/>
<path d="M270.577 262.779V328.291H270.565C270.514 329.064 270.132 329.863 269.484 330.611C270.971 329.571 271.772 328.341 271.861 327.15H271.873V261.727C271.391 262.018 270.958 262.361 270.577 262.779Z" fill="#6EE8FC"/>
<path d="M212.07 291.344L166.26 264.96C163.007 263.083 163.413 259.812 167.175 257.644L211.155 232.312C214.917 230.143 220.61 229.915 223.863 231.792L269.674 258.176C272.927 260.053 272.52 263.324 268.759 265.492L224.778 290.824C221.017 292.98 215.324 293.221 212.07 291.344Z" fill="url(#paint2_linear)"/>
<path d="M269.661 258.164L223.851 231.779C222.161 230.803 219.822 230.41 217.433 230.537C219.174 230.638 220.788 231.044 222.059 231.779L267.87 258.164C271.123 260.04 270.716 263.312 266.955 265.48L222.974 290.812C221.157 291.852 218.895 292.448 216.684 292.574C219.428 292.739 222.466 292.143 224.766 290.812L268.746 265.48C272.508 263.312 272.914 260.04 269.661 258.164Z" fill="#6EE8FC"/>
<path d="M213.57 283.737L179.463 264.098C177.036 262.703 177.341 260.256 180.137 258.646L212.884 239.78C215.68 238.169 219.924 237.992 222.338 239.386L256.445 259.026C258.873 260.421 258.568 262.868 255.772 264.478L223.025 283.344C220.229 284.954 215.997 285.132 213.57 283.737Z" fill="url(#paint3_linear)"/>
<path d="M214.779 277.626L190.075 263.388C188.322 262.373 188.538 260.611 190.571 259.445L214.296 245.777C216.329 244.61 219.392 244.484 221.145 245.498L245.849 259.736C247.602 260.751 247.386 262.513 245.353 263.679L221.628 277.347C219.608 278.514 216.545 278.64 214.779 277.626Z" fill="#6DE0F6"/>
<path d="M214.116 291.345L168.306 264.96C165.053 263.083 165.459 259.812 169.221 257.644L213.201 232.312C214.98 231.285 217.204 230.702 219.39 230.562C216.594 230.359 213.494 230.968 211.143 232.312L167.162 257.644C163.401 259.812 162.994 263.083 166.247 264.96L212.058 291.345C213.773 292.333 216.15 292.726 218.577 292.574C216.899 292.448 215.336 292.042 214.116 291.345Z" fill="#D4088C"/>
<path d="M190.556 261.372L214.281 247.704C216.314 246.538 219.377 246.411 221.143 247.425L245.859 261.663C246.253 261.892 246.52 262.158 246.723 262.437C247.321 261.473 247.067 260.434 245.859 259.736L221.143 245.498C219.389 244.484 216.314 244.61 214.281 245.777L190.556 259.445C188.98 260.357 188.51 261.625 189.196 262.614C189.476 262.171 189.908 261.739 190.556 261.372Z" fill="#267FE5"/>
<path d="M190.557 263.692L214.282 250.024C216.315 248.858 219.378 248.731 221.144 249.745L245.86 263.984C246.165 264.161 246.394 264.364 246.584 264.592C247.372 263.565 247.156 262.412 245.86 261.663L221.144 247.425C219.39 246.411 216.315 246.538 214.282 247.704L190.557 261.372C188.879 262.335 188.46 263.705 189.337 264.719C189.617 264.351 190.023 263.996 190.557 263.692Z" fill="#25BFEC"/>
<path d="M189.578 267.293C189.832 267.027 190.15 266.76 190.557 266.532L214.282 252.864C216.315 251.698 219.377 251.571 221.144 252.586L245.86 266.824C246.051 266.938 246.203 267.052 246.343 267.179C247.385 266.088 247.27 264.808 245.86 263.996L221.144 249.758C219.39 248.744 216.315 248.871 214.282 250.037L190.557 263.705C188.74 264.732 188.384 266.253 189.578 267.293Z" fill="#18D0F7"/>
<path d="M233.751 339.664L231.209 341.122C230.561 341.502 230.027 341.096 230.027 340.234V304.848C230.027 303.973 230.561 302.971 231.209 302.591L233.751 301.133C234.399 300.752 234.932 301.158 234.932 302.02V337.407C234.945 338.269 234.411 339.283 233.751 339.664Z" fill="#6DE0F6"/>
<path d="M233.751 301.12L233.141 301.475V336.228C233.141 337.102 232.607 338.104 231.959 338.484L230.027 339.6V340.234C230.027 341.109 230.561 341.502 231.209 341.122L233.751 339.664C234.399 339.283 234.932 338.282 234.932 337.407V302.02C234.945 301.133 234.411 300.739 233.751 301.12Z" fill="#267FE5"/>
<path d="M243.114 334.263L240.572 335.721C239.924 336.101 239.391 335.695 239.391 334.833V299.446C239.391 298.572 239.924 297.57 240.572 297.19L243.114 295.731C243.762 295.351 244.296 295.757 244.296 296.619V332.006C244.296 332.881 243.762 333.895 243.114 334.263Z" fill="#6DE0F6"/>
<path d="M252.482 328.874L249.941 330.332C249.292 330.712 248.759 330.307 248.759 329.444V294.058C248.759 293.183 249.292 292.181 249.941 291.801L252.482 290.343C253.13 289.962 253.664 290.368 253.664 291.23V326.617C253.664 327.492 253.13 328.493 252.482 328.874Z" fill="#6DE0F6"/>
<path d="M261.833 323.485L259.291 324.943C258.643 325.324 258.109 324.918 258.109 324.056V288.669C258.109 287.794 258.643 286.793 259.291 286.412L261.833 284.954C262.481 284.574 263.014 284.98 263.014 285.842V321.229C263.014 322.091 262.493 323.105 261.833 323.485Z" fill="#6DE0F6"/>
<path d="M243.114 295.719L242.504 296.074V330.826C242.504 331.701 241.97 332.703 241.322 333.083L239.391 334.199V334.833C239.391 335.708 239.924 336.101 240.572 335.721L243.114 334.262C243.762 333.882 244.296 332.88 244.296 332.006V296.619C244.296 295.744 243.762 295.351 243.114 295.719Z" fill="#267FE5"/>
<path d="M252.482 290.33L251.872 290.685V325.438C251.872 326.313 251.338 327.315 250.69 327.695L248.759 328.811V329.445C248.759 330.319 249.292 330.713 249.941 330.332L252.482 328.874C253.13 328.494 253.664 327.492 253.664 326.617V291.231C253.664 290.356 253.13 289.95 252.482 290.33Z" fill="#267FE5"/>
<path d="M261.833 284.942L261.223 285.297V320.049C261.223 320.924 260.689 321.926 260.041 322.306L258.109 323.422V324.056C258.109 324.931 258.643 325.324 259.291 324.943L261.833 323.485C262.481 323.105 263.014 322.103 263.014 321.229V285.842C263.014 284.967 262.481 284.561 261.833 284.942Z" fill="#267FE5"/>
<path d="M208.282 344C207.989 344 207.672 343.911 207.354 343.721L174.276 324.664C173.133 324.005 172.23 322.306 172.23 320.797V283.344C172.23 282.482 172.535 281.823 173.069 281.518C173.527 281.252 174.098 281.29 174.67 281.62L207.748 300.676C208.892 301.335 209.794 303.034 209.794 304.543V341.996C209.794 342.859 209.489 343.518 208.955 343.822C208.752 343.949 208.523 344 208.282 344ZM173.73 282.127C173.628 282.127 173.539 282.152 173.45 282.203C173.171 282.368 173.006 282.799 173.006 283.357V320.81C173.006 322.027 173.768 323.485 174.658 324.005L207.735 343.061C207.964 343.188 208.282 343.315 208.561 343.163C208.841 342.998 209.006 342.567 209.006 342.009V304.556C209.006 303.339 208.244 301.881 207.354 301.361L174.276 282.304C174.124 282.203 173.921 282.127 173.73 282.127Z" fill="#480689"/>
<path d="M178.7 290.685C178.7 291.712 177.976 292.131 177.087 291.611C176.197 291.104 175.473 289.849 175.473 288.834C175.473 287.807 176.197 287.389 177.087 287.909C177.976 288.416 178.7 289.671 178.7 290.685Z" fill="#6DE0F6"/>
<path d="M178.7 295.909C178.7 296.936 177.976 297.354 177.087 296.835C176.197 296.327 175.473 295.072 175.473 294.058C175.473 293.031 176.197 292.612 177.087 293.132C177.976 293.627 178.7 294.882 178.7 295.909Z" fill="#6DE0F6"/>
<path d="M178.7 301.12C178.7 302.147 177.976 302.565 177.087 302.046C176.197 301.538 175.473 300.283 175.473 299.269C175.473 298.255 176.197 297.824 177.087 298.343C177.976 298.851 178.7 300.093 178.7 301.12Z" fill="#6DE0F6"/>
<path d="M177.9 301.412C177.01 300.905 176.286 299.649 176.286 298.635C176.286 298.445 176.324 298.28 176.362 298.128C175.841 298.128 175.473 298.546 175.473 299.269C175.473 300.296 176.197 301.539 177.087 302.046C177.811 302.464 178.408 302.261 178.611 301.615C178.395 301.615 178.154 301.564 177.9 301.412Z" fill="#267FE5"/>
<path d="M177.9 296.188C177.01 295.681 176.286 294.426 176.286 293.411C176.286 293.221 176.324 293.056 176.362 292.904C175.841 292.904 175.473 293.322 175.473 294.045C175.473 295.072 176.197 296.315 177.087 296.822C177.811 297.24 178.408 297.037 178.611 296.403C178.395 296.403 178.154 296.34 177.9 296.188Z" fill="#267FE5"/>
<path d="M177.9 290.976C177.01 290.469 176.286 289.214 176.286 288.2C176.286 288.009 176.324 287.845 176.362 287.692C175.841 287.692 175.473 288.111 175.473 288.833C175.473 289.86 176.197 291.103 177.087 291.61C177.811 292.029 178.408 291.826 178.611 291.179C178.395 291.192 178.154 291.128 177.9 290.976Z" fill="#267FE5"/>
<path d="M205.31 325.311L204.243 324.703C203.912 324.512 203.646 324.005 203.646 323.561V318.452C203.646 318.008 203.912 317.805 204.243 317.995L205.31 318.604C205.641 318.794 205.907 319.301 205.907 319.745V324.855C205.907 325.298 205.641 325.501 205.31 325.311Z" fill="#480689"/>
<path d="M271.86 196.266H249.138L223.85 181.698C220.597 179.821 214.904 180.062 211.143 182.218L186.77 196.253H164.074V261.841H164.087C163.998 263.109 164.71 264.339 166.273 265.239L212.083 291.623C215.336 293.5 221.029 293.259 224.791 291.104L268.772 265.771C270.729 264.643 271.771 263.223 271.86 261.853H271.872V196.266H271.86Z" fill="url(#paint4_linear)"/>
<path d="M268.746 264.732L224.765 290.064C221.004 292.232 215.311 292.46 212.057 290.584L166.247 264.199C164.684 263.299 163.972 262.069 164.061 260.801H164.074V261.854H164.087C163.998 263.122 164.709 264.351 166.272 265.252L212.083 291.636C215.336 293.513 221.029 293.272 224.79 291.116L268.771 265.784C270.728 264.656 271.77 263.236 271.859 261.866H271.872V260.814H271.859C271.745 262.171 270.703 263.603 268.746 264.732Z" fill="url(#paint5_linear)"/>
<path d="M165.51 262.906L165.497 197.318H188.206L212.579 183.283C216.34 181.115 222.033 180.886 225.286 182.763L250.574 197.331H271.86V196.279H249.138L223.85 181.711C220.597 179.834 214.904 180.075 211.143 182.23L186.77 196.266H164.074V261.854H164.087C163.998 263.121 164.71 264.351 166.273 265.251L166.527 265.404C165.777 264.643 165.447 263.781 165.51 262.906Z" fill="#D4088C"/>
<path d="M270.577 197.483V262.995H270.565C270.514 263.768 270.132 264.567 269.484 265.315C270.971 264.275 271.772 263.045 271.861 261.854H271.873V196.431C271.391 196.735 270.958 197.077 270.577 197.483Z" fill="#6EE8FC"/>
<path d="M212.07 226.048L166.26 199.664C163.007 197.787 163.413 194.516 167.175 192.348L211.155 167.016C214.917 164.848 220.61 164.619 223.863 166.496L269.674 192.881C272.927 194.757 272.52 198.028 268.759 200.196L224.778 225.529C221.017 227.697 215.324 227.925 212.07 226.048Z" fill="url(#paint6_linear)"/>
<path d="M269.661 192.868L223.851 166.483C222.161 165.507 219.822 165.114 217.433 165.253C219.174 165.355 220.788 165.761 222.059 166.483L267.87 192.868C271.123 194.744 270.716 198.015 266.955 200.184L222.974 225.516C221.157 226.556 218.895 227.151 216.684 227.278C219.428 227.443 222.466 226.847 224.766 225.516L268.746 200.184C272.508 198.028 272.914 194.744 269.661 192.868Z" fill="#6EE8FC"/>
<path d="M213.57 218.441L179.463 198.802C177.036 197.407 177.341 194.96 180.137 193.35L212.884 174.484C215.68 172.873 219.924 172.696 222.338 174.091L256.445 193.73C258.873 195.125 258.568 197.572 255.772 199.182L223.025 218.048C220.229 219.658 215.997 219.836 213.57 218.441Z" fill="url(#paint7_linear)"/>
<path d="M214.779 212.33L190.075 198.092C188.322 197.077 188.538 195.315 190.571 194.148L214.296 180.481C216.329 179.314 219.392 179.187 221.145 180.202L245.849 194.44C247.602 195.454 247.386 197.217 245.353 198.383L221.628 212.051C219.608 213.217 216.545 213.344 214.779 212.33Z" fill="#6DE0F6"/>
<path d="M214.116 226.048L168.306 199.663C165.053 197.787 165.459 194.516 169.221 192.348L213.201 167.015C214.98 165.988 217.204 165.405 219.39 165.266C216.594 165.063 213.494 165.671 211.143 167.015L167.162 192.348C163.401 194.516 162.994 197.787 166.247 199.663L212.058 226.048C213.773 227.037 216.15 227.43 218.577 227.278C216.899 227.164 215.336 226.758 214.116 226.048Z" fill="#D4088C"/>
<path d="M190.556 196.076L214.281 182.408C216.314 181.241 219.377 181.115 221.143 182.129L245.859 196.367C246.253 196.595 246.52 196.862 246.723 197.141C247.321 196.177 247.067 195.137 245.859 194.44L221.143 180.202C219.389 179.187 216.314 179.314 214.281 180.481L190.556 194.148C188.98 195.061 188.51 196.329 189.196 197.318C189.476 196.874 189.908 196.443 190.556 196.076Z" fill="#267FE5"/>
<path d="M190.557 198.396L214.282 184.728C216.315 183.562 219.378 183.435 221.144 184.449L245.86 198.688C246.165 198.865 246.394 199.068 246.584 199.296C247.372 198.269 247.156 197.115 245.86 196.367L221.144 182.129C219.39 181.115 216.315 181.241 214.282 182.408L190.557 196.076C188.879 197.039 188.46 198.409 189.337 199.423C189.617 199.055 190.023 198.713 190.557 198.396Z" fill="#25BFEC"/>
<path d="M189.578 201.997C189.832 201.73 190.15 201.464 190.557 201.236L214.282 187.568C216.315 186.402 219.377 186.275 221.144 187.289L245.86 201.527C246.051 201.642 246.203 201.756 246.343 201.882C247.385 200.792 247.27 199.512 245.86 198.7L221.144 184.462C219.39 183.447 216.315 183.574 214.282 184.741L190.557 198.408C188.74 199.448 188.384 200.97 189.578 201.997Z" fill="#18D0F7"/>
<path d="M271.861 130.982H249.139L223.851 116.414C220.598 114.538 214.905 114.779 211.144 116.934L186.771 130.982H164.075V196.57H164.088C163.999 197.838 164.711 199.068 166.274 199.968L212.084 226.353C215.337 228.229 221.03 227.988 224.792 225.833L268.773 200.5C270.73 199.372 271.772 197.952 271.861 196.583H271.873V130.982H271.861Z" fill="url(#paint8_linear)"/>
<path d="M268.747 199.436L224.766 224.768C221.005 226.936 215.312 227.164 212.058 225.288L166.248 198.903C164.685 198.003 163.973 196.773 164.062 195.505H164.075V196.557H164.088C163.999 197.825 164.71 199.055 166.273 199.955L212.084 226.34C215.337 228.217 221.03 227.976 224.791 225.82L268.772 200.488C270.729 199.36 271.771 197.939 271.86 196.57H271.873V195.518H271.86C271.746 196.887 270.704 198.307 268.747 199.436Z" fill="url(#paint9_linear)"/>
<path d="M165.511 197.61L165.498 132.022H188.207L212.58 117.987C216.341 115.818 222.034 115.59 225.287 117.467L250.575 132.035H271.86V130.982H249.139L223.851 116.414C220.598 114.538 214.905 114.779 211.144 116.934L186.771 130.982H164.075V196.57H164.088C163.999 197.838 164.711 199.068 166.274 199.968L166.528 200.12C165.778 199.359 165.448 198.497 165.511 197.61Z" fill="#D4088C"/>
<path d="M270.576 132.2V197.711H270.564C270.513 198.485 270.131 199.283 269.483 200.031C270.97 198.992 271.771 197.762 271.86 196.57H271.872V131.147C271.39 131.439 270.957 131.781 270.576 132.2Z" fill="#6EE8FC"/>
<path d="M212.07 160.765L166.26 134.38C163.007 132.504 163.413 129.233 167.175 127.065L211.156 101.732C214.917 99.5641 220.61 99.3359 223.863 101.212L269.674 127.597C272.927 129.474 272.52 132.745 268.759 134.913L224.778 160.245C221.017 162.4 215.324 162.641 212.07 160.765Z" fill="url(#paint10_linear)"/>
<path d="M269.66 127.584L223.862 101.2C222.172 100.223 219.834 99.8304 217.445 99.9699C219.186 100.071 220.8 100.477 222.071 101.2L267.881 127.584C271.134 129.461 270.728 132.732 266.966 134.9L222.986 160.232C221.168 161.272 218.906 161.868 216.695 161.995C219.44 162.16 222.477 161.564 224.777 160.232L268.758 134.9C272.507 132.732 272.913 129.461 269.66 127.584Z" fill="#6EE8FC"/>
<path d="M213.57 153.158L179.463 133.506C177.036 132.111 177.341 129.664 180.137 128.054L212.884 109.188C215.68 107.577 219.924 107.4 222.338 108.794L256.445 128.434C258.873 129.829 258.568 132.276 255.772 133.886L223.025 152.752C220.229 154.375 215.997 154.552 213.57 153.158Z" fill="url(#paint11_linear)"/>
<path d="M214.779 147.046L190.075 132.808C188.322 131.794 188.538 130.031 190.571 128.865L214.296 115.197C216.329 114.031 219.392 113.904 221.145 114.918L245.849 129.157C247.602 130.171 247.386 131.933 245.353 133.1L221.641 146.768C219.608 147.934 216.545 148.061 214.779 147.046Z" fill="#6DE0F6"/>
<path d="M214.116 160.765L168.318 134.38C165.065 132.504 165.472 129.233 169.233 127.065L213.214 101.732C214.993 100.705 217.217 100.122 219.403 99.9825C216.607 99.7797 213.506 100.388 211.156 101.732L167.175 127.052C163.413 129.22 163.007 132.491 166.26 134.368L212.07 160.752C213.786 161.741 216.162 162.134 218.589 161.982C216.899 161.868 215.336 161.462 214.116 160.765Z" fill="#D4088C"/>
<path d="M190.557 130.792L214.282 117.124C216.315 115.958 219.378 115.831 221.144 116.845L245.86 131.084C246.254 131.312 246.521 131.578 246.724 131.857C247.322 130.894 247.067 129.854 245.86 129.157L221.144 114.918C219.39 113.904 216.315 114.031 214.282 115.197L190.557 128.865C188.981 129.778 188.511 131.046 189.197 132.035C189.477 131.591 189.909 131.16 190.557 130.792Z" fill="#267FE5"/>
<path d="M190.558 133.112L214.283 119.445C216.316 118.278 219.379 118.151 221.145 119.166L245.861 133.404C246.166 133.582 246.395 133.784 246.585 134.013C247.373 132.986 247.157 131.832 245.861 131.084L221.145 116.846C219.391 115.831 216.316 115.958 214.283 117.124L190.558 130.792C188.88 131.756 188.461 133.125 189.338 134.139C189.618 133.772 190.024 133.417 190.558 133.112Z" fill="#25BFEC"/>
<path d="M189.579 136.713C189.833 136.447 190.151 136.181 190.558 135.952L214.283 122.285C216.316 121.118 219.378 120.991 221.145 122.006L245.861 136.244C246.052 136.358 246.204 136.472 246.344 136.599C247.386 135.509 247.271 134.228 245.861 133.417L221.145 119.178C219.391 118.164 216.316 118.291 214.283 119.457L190.558 133.112C188.741 134.152 188.385 135.673 189.579 136.713Z" fill="#18D0F7"/>
<path d="M233.751 209.084L231.209 210.542C230.561 210.922 230.027 210.517 230.027 209.655V174.268C230.027 173.393 230.561 172.391 231.209 172.011L233.751 170.553C234.399 170.173 234.932 170.578 234.932 171.441V206.827C234.945 207.689 234.411 208.704 233.751 209.084Z" fill="#6DE0F6"/>
<path d="M233.751 170.54L233.141 170.895V205.648C233.141 206.523 232.607 207.525 231.959 207.905L230.027 209.021V209.655C230.027 210.529 230.561 210.922 231.209 210.542L233.751 209.084C234.399 208.704 234.932 207.702 234.932 206.827V171.441C234.945 170.566 234.411 170.16 233.751 170.54Z" fill="#267FE5"/>
<path d="M243.114 203.696L240.572 205.154C239.924 205.534 239.391 205.128 239.391 204.266V168.879C239.391 168.005 239.924 167.003 240.572 166.623L243.114 165.165C243.762 164.784 244.296 165.19 244.296 166.052V201.439C244.296 202.301 243.762 203.315 243.114 203.696Z" fill="#6DE0F6"/>
<path d="M252.482 198.294L249.941 199.752C249.292 200.133 248.759 199.727 248.759 198.865V163.478C248.759 162.603 249.292 161.602 249.941 161.221L252.482 159.763C253.13 159.383 253.664 159.789 253.664 160.651V196.037C253.664 196.912 253.13 197.927 252.482 198.294Z" fill="#6DE0F6"/>
<path d="M261.833 192.906L259.291 194.364C258.643 194.744 258.109 194.339 258.109 193.476V158.09C258.109 157.215 258.643 156.213 259.291 155.833L261.833 154.375C262.481 153.994 263.014 154.4 263.014 155.262V190.649C263.014 191.524 262.493 192.525 261.833 192.906Z" fill="#6DE0F6"/>
<path d="M243.114 165.152L242.504 165.507V200.26C242.504 201.134 241.97 202.136 241.322 202.516L239.391 203.632V204.266C239.391 205.141 239.924 205.534 240.572 205.154L243.114 203.696C243.762 203.315 244.296 202.314 244.296 201.439V166.052C244.296 165.165 243.762 164.771 243.114 165.152Z" fill="#267FE5"/>
<path d="M252.482 159.751L251.872 160.106V194.858C251.872 195.733 251.338 196.735 250.69 197.115L248.759 198.231V198.865C248.759 199.74 249.292 200.133 249.941 199.752L252.482 198.294C253.13 197.914 253.664 196.912 253.664 196.037V160.651C253.664 159.776 253.13 159.383 252.482 159.751Z" fill="#267FE5"/>
<path d="M261.833 154.362L261.223 154.717V189.47C261.223 190.345 260.689 191.346 260.041 191.727L258.109 192.842V193.476C258.109 194.351 258.643 194.744 259.291 194.364L261.833 192.906C262.481 192.525 263.014 191.524 263.014 190.649V155.262C263.014 154.387 262.481 153.982 261.833 154.362Z" fill="#267FE5"/>
<path d="M208.286 213.42C207.993 213.42 207.676 213.331 207.358 213.141L174.28 194.085C173.137 193.426 172.234 191.727 172.234 190.218V152.764C172.234 151.902 172.539 151.243 173.073 150.939C173.531 150.672 174.102 150.711 174.674 151.04L207.752 170.096C208.896 170.756 209.798 172.455 209.798 173.964V211.417C209.798 212.279 209.493 212.938 208.959 213.243C208.756 213.369 208.527 213.42 208.286 213.42ZM173.734 151.547C173.632 151.547 173.543 151.573 173.454 151.623C173.175 151.788 173.01 152.219 173.01 152.777V190.23C173.01 191.448 173.772 192.906 174.662 193.426L207.739 212.482C207.968 212.609 208.286 212.735 208.565 212.583C208.845 212.418 209.01 211.987 209.01 211.43V173.976C209.01 172.759 208.248 171.301 207.358 170.781L174.28 151.712C174.128 151.623 173.924 151.547 173.734 151.547Z" fill="#480689"/>
<path d="M178.701 160.117C178.701 161.144 177.977 161.563 177.087 161.043C176.198 160.536 175.474 159.281 175.474 158.266C175.474 157.239 176.198 156.821 177.087 157.341C177.977 157.848 178.701 159.09 178.701 160.117Z" fill="#6DE0F6"/>
<path d="M178.701 165.33C178.701 166.356 177.977 166.775 177.087 166.255C176.198 165.748 175.474 164.493 175.474 163.478C175.474 162.464 176.198 162.033 177.087 162.553C177.977 163.06 178.701 164.303 178.701 165.33Z" fill="#6DE0F6"/>
<path d="M178.701 170.54C178.701 171.567 177.977 171.986 177.087 171.466C176.198 170.959 175.474 169.703 175.474 168.689C175.474 167.662 176.198 167.244 177.087 167.764C177.977 168.271 178.701 169.513 178.701 170.54Z" fill="#6DE0F6"/>
<path d="M177.901 170.832C177.011 170.325 176.287 169.07 176.287 168.055C176.287 167.865 176.325 167.7 176.363 167.548C175.842 167.548 175.474 167.967 175.474 168.689C175.474 169.716 176.198 170.959 177.087 171.466C177.812 171.884 178.409 171.682 178.612 171.048C178.396 171.048 178.155 170.984 177.901 170.832Z" fill="#267FE5"/>
<path d="M177.901 165.621C177.011 165.114 176.287 163.859 176.287 162.844C176.287 162.654 176.325 162.489 176.363 162.337C175.842 162.337 175.474 162.756 175.474 163.478C175.474 164.505 176.198 165.748 177.087 166.255C177.812 166.673 178.409 166.47 178.612 165.837C178.396 165.824 178.155 165.76 177.901 165.621Z" fill="#267FE5"/>
<path d="M177.901 160.397C177.011 159.89 176.287 158.635 176.287 157.621C176.287 157.43 176.325 157.266 176.363 157.114C175.842 157.114 175.474 157.532 175.474 158.255C175.474 159.282 176.198 160.524 177.087 161.031C177.812 161.45 178.409 161.247 178.612 160.613C178.396 160.613 178.155 160.549 177.901 160.397Z" fill="#267FE5"/>
<path d="M205.309 194.732L204.242 194.123C203.911 193.933 203.645 193.426 203.645 192.982V187.872C203.645 187.429 203.911 187.226 204.242 187.416L205.309 188.024C205.64 188.215 205.906 188.722 205.906 189.165V194.275C205.906 194.719 205.64 194.922 205.309 194.732Z" fill="#480689"/>
<g opacity="0.08" filter="url(#filter0_f)">
<path d="M247.028 25H188.929V148.593C188.929 149.227 189.323 149.836 190.111 150.292L214.801 164.518C216.555 165.532 219.617 165.406 221.651 164.239L245.35 150.584C246.405 149.975 246.964 149.215 247.015 148.467H247.028V25Z" fill="url(#paint12_linear)"/>
</g>
<g opacity="0.08" filter="url(#filter1_f)">
<path d="M244.27 36.7786H191.687V148.631C191.687 149.215 192.042 149.76 192.754 150.178L215.094 163.047C216.682 163.96 219.452 163.846 221.295 162.794L242.745 150.432C243.698 149.887 244.207 149.189 244.258 148.517H244.27V36.7786Z" fill="url(#paint13_linear)"/>
</g>
<path d="M206.366 138.235C206.366 139.427 205.401 140.39 204.206 140.39C203.012 140.39 202.046 139.427 202.046 138.235C202.046 137.043 203.012 136.079 204.206 136.079C205.401 136.079 206.366 137.043 206.366 138.235Z" fill="#6DE0F6"/>
<path d="M224.207 123.755C224.207 125.797 222.555 127.445 220.509 127.445C218.463 127.445 216.812 125.797 216.812 123.755C216.812 121.714 218.463 120.066 220.509 120.066C222.555 120.066 224.207 121.714 224.207 123.755Z" fill="#6DE0F6"/>
<path d="M216.914 121.41C216.914 121.93 216.495 122.361 215.961 122.361C215.44 122.361 215.008 121.942 215.008 121.41C215.008 120.877 215.427 120.459 215.961 120.459C216.482 120.459 216.914 120.877 216.914 121.41Z" fill="#6DE0F6"/>
<path d="M233.942 102.899C233.942 103.913 233.116 104.737 232.099 104.737C231.083 104.737 230.257 103.913 230.257 102.899C230.257 101.885 231.083 101.06 232.099 101.06C233.116 101.048 233.942 101.872 233.942 102.899Z" fill="#6DE0F6"/>
<path d="M223.66 87.2532C223.66 87.9759 223.075 88.5591 222.351 88.5591C221.627 88.5591 221.042 87.9759 221.042 87.2532C221.042 86.5305 221.627 85.9473 222.351 85.9473C223.075 85.9473 223.66 86.5305 223.66 87.2532Z" fill="#6DE0F6"/>
<path d="M208.73 77.2749C208.73 78.5808 207.675 79.6331 206.367 79.6331C205.058 79.6331 204.003 78.5808 204.003 77.2749C204.003 75.969 205.058 74.9166 206.367 74.9166C207.675 74.9039 208.73 75.969 208.73 77.2749Z" fill="#6DE0F6"/>
<path d="M228.79 76.5598C231.436 76.5598 233.581 74.4198 233.581 71.7799C233.581 69.14 231.436 67 228.79 67C226.144 67 223.999 69.14 223.999 71.7799C223.999 74.4198 226.144 76.5598 228.79 76.5598Z" fill="#6DE0F6"/>
<path d="M214.627 57.5085C214.627 58.2312 214.042 58.8271 213.305 58.8271C212.581 58.8271 211.983 58.2439 211.983 57.5085C211.983 56.7858 212.568 56.1899 213.305 56.1899C214.029 56.1899 214.627 56.7858 214.627 57.5085Z" fill="#6DE0F6"/>
<path d="M224.83 66.2823C224.83 67.1445 224.131 67.8292 223.28 67.8292C222.416 67.8292 221.729 67.1318 221.729 66.2823C221.729 65.4202 222.428 64.7355 223.28 64.7355C224.131 64.7228 224.83 65.4202 224.83 66.2823Z" fill="#6DE0F6"/>
<path d="M225.237 63.7847C225.651 63.7847 225.987 63.4498 225.987 63.0366C225.987 62.6235 225.651 62.2886 225.237 62.2886C224.823 62.2886 224.487 62.6235 224.487 63.0366C224.487 63.4498 224.823 63.7847 225.237 63.7847Z" fill="#6DE0F6"/>
<path d="M208.172 50.3362C209.372 50.3362 210.345 49.3655 210.345 48.1681C210.345 46.9707 209.372 46 208.172 46C206.972 46 205.999 46.9707 205.999 48.1681C205.999 49.3655 206.972 50.3362 208.172 50.3362Z" fill="#6DE0F6"/>
<path d="M202.828 353.37V333.958H192.294C190.273 332.272 187.999 330.649 185.394 329.153C162.152 315.764 124.461 315.764 101.219 329.153C98.6139 330.649 96.3392 332.272 94.3187 333.958H83.7969V353.395C83.7969 362.169 89.6042 370.942 101.232 377.637C124.474 391.026 162.164 391.026 185.406 377.637C197.034 370.942 202.841 362.156 202.828 353.37Z" fill="url(#paint14_linear)"/>
<path d="M143.32 368.242C176.193 368.242 202.842 352.892 202.842 333.958C202.842 315.024 176.193 299.675 143.32 299.675C110.447 299.675 83.7979 315.024 83.7979 333.958C83.7979 352.892 110.447 368.242 143.32 368.242Z" fill="url(#paint15_linear)"/>
<path d="M102.835 310.071C114.64 303.275 130.067 299.839 145.532 299.738C129.571 299.395 113.407 302.692 101.221 309.716C83.1127 320.15 78.9573 335.822 89.2886 348.272C80.406 335.53 84.9045 320.404 102.835 310.071Z" fill="#D4088C"/>
<path d="M185.409 309.716C179.234 306.153 172.028 303.58 164.353 301.906C171.24 303.58 177.709 306.014 183.325 309.247C206.567 322.636 206.567 344.342 183.325 357.731C166.259 367.557 141.416 370.144 120.207 365.541C141.848 370.79 167.784 368.356 185.409 358.2C208.651 344.811 208.651 323.105 185.409 309.716Z" fill="#6EE8FC"/>
<path d="M143.029 355.867C164.034 355.867 181.062 346.058 181.062 333.958C181.062 321.858 164.034 312.049 143.029 312.049C122.023 312.049 104.995 321.858 104.995 333.958C104.995 346.058 122.023 355.867 143.029 355.867Z" fill="#6DE0F6"/>
<path d="M116.138 330.205C130.993 321.647 155.074 321.647 169.929 330.205C174.733 332.969 177.96 336.304 179.663 339.828C183.208 332.462 179.981 324.246 169.929 318.465C155.074 309.906 130.993 309.906 116.138 318.465C106.086 324.246 102.871 332.462 106.404 339.828C108.094 336.304 111.322 332.982 116.138 330.205Z" fill="#18D0F7"/>
<path d="M116.139 326.059C130.994 317.501 155.075 317.501 169.93 326.059C175.674 329.368 179.168 333.476 180.477 337.749C182.548 330.953 179.041 323.701 169.93 318.452C155.075 309.894 130.994 309.894 116.139 318.452C107.027 323.701 103.533 330.953 105.604 337.736C106.9 333.476 110.395 329.368 116.139 326.059Z" fill="#25BFEC"/>
<path d="M116.137 322.369C130.992 313.811 155.073 313.811 169.928 322.369C176.498 326.147 180.145 330.965 180.908 335.91C181.873 329.672 178.214 323.244 169.928 318.464C155.073 309.906 130.992 309.906 116.137 318.464C107.852 323.244 104.192 329.672 105.158 335.91C105.921 330.965 109.568 326.147 116.137 322.369Z" fill="#267FE5"/>
<path d="M202.828 305.519V286.108H192.294C190.273 284.422 187.999 282.799 185.394 281.303C162.152 267.914 124.461 267.914 101.219 281.303C98.6139 282.799 96.3392 284.422 94.3187 286.108H83.7969V305.545C83.7969 314.319 89.6042 323.092 101.232 329.787C124.474 343.176 162.164 343.176 185.406 329.787C197.034 323.092 202.841 314.306 202.828 305.519Z" fill="url(#paint16_linear)"/>
<path d="M84.3433 305.038V286.108H83.7969V305.545C83.7969 313.393 88.486 321.241 97.8006 327.606C88.8418 320.988 84.3433 313.013 84.3433 305.038Z" fill="#D4088C"/>
<path d="M201.892 286.108V304.886C201.905 313.672 196.097 322.458 184.457 329.166C161.215 342.554 123.525 342.554 100.283 329.166C99.1007 328.481 98.0206 327.771 96.9531 327.048C98.2747 327.999 99.6852 328.912 101.223 329.787C124.465 343.176 162.155 343.176 185.398 329.787C197.038 323.08 202.845 314.293 202.832 305.507V286.095H201.892V286.108Z" fill="#6EE8FC"/>
<path d="M143.32 320.392C176.193 320.392 202.842 305.042 202.842 286.108C202.842 267.174 176.193 251.824 143.32 251.824C110.447 251.824 83.7979 267.174 83.7979 286.108C83.7979 305.042 110.447 320.392 143.32 320.392Z" fill="url(#paint17_linear)"/>
<path d="M102.835 262.22C114.64 255.425 130.067 251.989 145.532 251.887C129.571 251.545 113.407 254.841 101.221 261.865C83.1127 272.3 78.9573 287.971 89.2886 300.422C80.406 287.68 84.9045 272.554 102.835 262.22Z" fill="#D4088C"/>
<path d="M185.409 261.866C179.234 258.303 172.028 255.73 164.353 254.056C171.24 255.73 177.709 258.164 183.325 261.397C206.567 274.786 206.567 296.492 183.325 309.881C166.259 319.707 141.416 322.293 120.207 317.691C141.848 322.94 167.784 320.506 185.409 310.35C208.651 296.961 208.651 275.255 185.409 261.866Z" fill="#6EE8FC"/>
<path d="M143.029 308.017C164.034 308.017 181.062 298.208 181.062 286.108C181.062 274.008 164.034 264.199 143.029 264.199C122.023 264.199 104.995 274.008 104.995 286.108C104.995 298.208 122.023 308.017 143.029 308.017Z" fill="#6DE0F6"/>
<path d="M116.138 282.355C130.993 273.797 155.074 273.797 169.929 282.355C174.733 285.119 177.96 288.454 179.663 291.978C183.208 284.612 179.981 276.396 169.929 270.614C155.074 262.056 130.993 262.056 116.138 270.614C106.086 276.396 102.871 284.612 106.404 291.978C108.094 288.454 111.322 285.132 116.138 282.355Z" fill="#18D0F7"/>
<path d="M116.139 278.209C130.994 269.651 155.075 269.651 169.93 278.209C175.674 281.518 179.168 285.626 180.477 289.899C182.548 283.103 179.041 275.851 169.93 270.602C155.075 262.044 130.994 262.044 116.139 270.602C107.027 275.851 103.533 283.103 105.604 289.886C106.9 285.626 110.395 281.518 116.139 278.209Z" fill="#25BFEC"/>
<path d="M116.137 274.519C130.992 265.961 155.073 265.961 169.928 274.519C176.498 278.297 180.145 283.115 180.908 288.06C181.873 281.822 178.214 275.394 169.928 270.614C155.073 262.056 130.992 262.056 116.137 270.614C107.852 275.394 104.192 281.822 105.158 288.06C105.921 283.115 109.568 278.297 116.137 274.519Z" fill="#267FE5"/>
<path d="M202.828 257.67V238.258H192.294C190.273 236.572 187.999 234.949 185.394 233.453C162.152 220.064 124.461 220.064 101.219 233.453C98.6139 234.949 96.3392 236.572 94.3187 238.258H83.7969V257.695C83.7969 266.469 89.6042 275.242 101.232 281.937C124.474 295.326 162.164 295.326 185.406 281.937C197.034 275.242 202.841 266.456 202.828 257.67Z" fill="url(#paint18_linear)"/>
<path d="M84.3433 257.188V238.258H83.7969V257.695C83.7969 265.556 88.486 273.391 97.8006 279.756C88.8418 273.138 84.3433 265.176 84.3433 257.188Z" fill="#D4088C"/>
<path d="M201.892 238.258V257.036C201.905 265.822 196.097 274.609 184.457 281.316C161.215 294.705 123.525 294.705 100.283 281.316C99.1007 280.631 98.0206 279.921 96.9531 279.198C98.2747 280.149 99.6852 281.062 101.223 281.937C124.465 295.326 162.155 295.326 185.398 281.937C197.038 275.23 202.845 266.443 202.832 257.657V238.258H201.892Z" fill="#6EE8FC"/>
<path d="M143.32 272.542C176.193 272.542 202.842 257.193 202.842 238.258C202.842 219.324 176.193 203.975 143.32 203.975C110.447 203.975 83.7979 219.324 83.7979 238.258C83.7979 257.193 110.447 272.542 143.32 272.542Z" fill="url(#paint19_linear)"/>
<path d="M102.835 214.371C114.64 207.575 130.067 204.139 145.532 204.038C129.571 203.695 113.407 206.992 101.221 214.016C83.1127 224.451 78.9573 240.122 89.2886 252.572C80.406 239.83 84.9045 224.704 102.835 214.371Z" fill="#D4088C"/>
<path d="M185.409 214.016C179.234 210.453 172.028 207.88 164.353 206.206C171.24 207.88 177.709 210.314 183.325 213.547C206.567 226.936 206.567 248.642 183.325 262.031C166.259 271.857 141.416 274.444 120.207 269.841C141.848 275.09 167.784 272.656 185.409 262.5C208.651 249.111 208.651 227.405 185.409 214.016Z" fill="#6EE8FC"/>
<path d="M143.029 260.167C164.034 260.167 181.062 250.358 181.062 238.258C181.062 226.158 164.034 216.349 143.029 216.349C122.023 216.349 104.995 226.158 104.995 238.258C104.995 250.358 122.023 260.167 143.029 260.167Z" fill="#6DE0F6"/>
<path d="M116.138 234.505C130.993 225.947 155.074 225.947 169.929 234.505C174.733 237.269 177.96 240.604 179.663 244.128C183.208 236.762 179.981 228.546 169.929 222.764C155.074 214.206 130.993 214.206 116.138 222.764C106.086 228.546 102.871 236.762 106.404 244.128C108.094 240.604 111.322 237.282 116.138 234.505Z" fill="#18D0F7"/>
<path d="M116.139 230.359C130.994 221.801 155.075 221.801 169.93 230.359C175.674 233.668 179.168 237.776 180.477 242.049C182.548 235.253 179.041 228.001 169.93 222.752C155.075 214.194 130.994 214.194 116.139 222.752C107.027 228.001 103.533 235.253 105.604 242.036C106.9 237.776 110.395 233.668 116.139 230.359Z" fill="#25BFEC"/>
<path d="M116.137 226.669C130.992 218.111 155.073 218.111 169.928 226.669C176.498 230.447 180.145 235.265 180.908 240.21C181.873 233.972 178.214 227.544 169.928 222.764C155.073 214.206 130.992 214.206 116.137 222.764C107.852 227.544 104.192 233.972 105.158 240.21C105.921 235.265 109.568 230.447 116.137 226.669Z" fill="#267FE5"/>
<path d="M202.574 204.127V184.716H192.04C190.019 183.029 187.745 181.406 185.14 179.91C161.898 166.521 124.207 166.521 100.965 179.91C98.36 181.406 96.0853 183.029 94.0648 184.716H83.543V204.152C83.543 212.926 89.3503 221.7 100.978 228.394C124.22 241.783 161.91 241.783 185.152 228.394C196.78 221.7 202.587 212.913 202.574 204.127Z" fill="url(#paint20_linear)"/>
<path d="M84.0894 203.658V184.728H83.543V204.165C83.543 212.026 88.232 219.861 97.5467 226.226C88.5879 219.608 84.0894 211.633 84.0894 203.658Z" fill="#D4088C"/>
<path d="M201.638 184.728V203.506C201.651 212.292 195.843 221.079 184.203 227.786C160.961 241.174 123.271 241.174 100.029 227.786C98.8468 227.101 97.7667 226.391 96.6992 225.668C98.0208 226.619 99.444 227.532 100.969 228.407C124.211 241.796 161.902 241.796 185.144 228.407C196.784 221.7 202.591 212.913 202.578 204.127V184.716H201.638V184.728Z" fill="#6EE8FC"/>
<path d="M143.053 219.012C175.926 219.012 202.575 203.662 202.575 184.728C202.575 165.794 175.926 150.445 143.053 150.445C110.18 150.445 83.5312 165.794 83.5312 184.728C83.5312 203.662 110.18 219.012 143.053 219.012Z" fill="url(#paint21_linear)"/>
<path d="M102.581 160.841C114.386 154.045 129.813 150.609 145.278 150.508C129.318 150.165 113.154 153.462 100.967 160.486C82.8588 170.92 78.7034 186.592 89.0347 199.042C80.1394 186.287 84.6506 171.161 102.581 160.841Z" fill="#D4088C"/>
<path d="M185.14 160.486C178.964 156.923 171.759 154.35 164.083 152.676C170.971 154.35 177.439 156.784 183.056 160.017C206.298 173.406 206.298 195.112 183.056 208.501C165.99 218.327 141.146 220.914 119.938 216.311C141.578 221.56 167.515 219.126 185.14 208.97C208.382 195.581 208.382 173.875 185.14 160.486Z" fill="#6EE8FC"/>
<path d="M142.775 206.637C163.78 206.637 180.809 196.828 180.809 184.728C180.809 172.628 163.78 162.819 142.775 162.819C121.769 162.819 104.741 172.628 104.741 184.728C104.741 196.828 121.769 206.637 142.775 206.637Z" fill="#6DE0F6"/>
<path d="M115.872 180.975C130.728 172.416 154.808 172.416 169.663 180.975C174.467 183.739 177.695 187.073 179.397 190.598C182.943 183.232 179.715 175.016 169.663 169.234C154.808 160.676 130.728 160.676 115.872 169.234C105.821 175.016 102.606 183.232 106.138 190.598C107.841 187.073 111.069 183.739 115.872 180.975Z" fill="#18D0F7"/>
<path d="M115.872 176.829C130.727 168.271 154.808 168.271 169.663 176.829C175.407 180.138 178.901 184.246 180.21 188.519C182.282 181.723 178.774 174.471 169.663 169.222C154.808 160.664 130.727 160.664 115.872 169.222C106.761 174.471 103.266 181.723 105.338 188.506C106.634 184.234 110.128 180.138 115.872 176.829Z" fill="#25BFEC"/>
<path d="M115.873 173.127C130.728 164.569 154.809 164.569 169.664 173.127C176.234 176.905 179.881 181.723 180.643 186.668C181.609 180.43 177.949 174.002 169.664 169.222C154.809 160.664 130.728 160.664 115.873 169.222C107.587 174.002 103.928 180.43 104.893 186.668C105.656 181.736 109.316 176.918 115.873 173.127Z" fill="#267FE5"/>
<path d="M173.859 158.242C172.664 157.811 171.089 158.027 170.352 158.724C169.615 159.421 169.983 160.321 171.19 160.753C172.385 161.184 173.961 160.968 174.698 160.271C175.435 159.573 175.053 158.673 173.859 158.242Z" fill="#6EE8FC"/>
<path opacity="0.8" d="M182.26 162.312C181.244 161.767 179.655 161.805 178.715 162.388C177.774 162.971 177.825 163.884 178.842 164.429C179.858 164.975 181.447 164.937 182.387 164.353C183.34 163.77 183.277 162.857 182.26 162.312Z" fill="#6EE8FC"/>
<path opacity="0.6" d="M189.145 167.231C188.331 166.585 186.768 166.445 185.637 166.902C184.519 167.371 184.265 168.271 185.078 168.918C185.891 169.564 187.455 169.704 188.585 169.247C189.704 168.778 189.958 167.878 189.145 167.231Z" fill="#6EE8FC"/>
<path opacity="0.4" d="M194.243 172.823C193.672 172.1 192.172 171.783 190.914 172.113C189.656 172.442 189.097 173.305 189.681 174.027C190.253 174.75 191.753 175.067 193.011 174.737C194.269 174.408 194.828 173.545 194.243 172.823Z" fill="#6EE8FC"/>
<path opacity="0.2" d="M197.342 178.883C197.025 178.11 195.665 177.628 194.318 177.806C192.971 177.996 192.132 178.769 192.463 179.543C192.78 180.316 194.14 180.798 195.487 180.62C196.834 180.443 197.673 179.657 197.342 178.883Z" fill="#6EE8FC"/>
<path opacity="0.1" d="M198.079 185.869C198.689 185.147 198.168 184.285 196.923 183.942C195.677 183.587 194.178 183.891 193.568 184.602C192.958 185.324 193.479 186.186 194.724 186.529C195.97 186.884 197.482 186.579 198.079 185.869Z" fill="#6EE8FC"/>
<g opacity="0.08" filter="url(#filter2_f)">
<path d="M180.81 78.6189H104.756V183.777H104.768C104.336 189.698 108.034 195.695 115.875 200.209C130.73 208.767 154.811 208.767 169.666 200.209C177.506 195.695 181.204 189.698 180.772 183.777H180.81V78.6189Z" fill="url(#paint22_linear)"/>
</g>
<g opacity="0.08" filter="url(#filter3_f)">
<path d="M175.065 82.8538H110.485V181.153H110.498C110.129 186.174 113.268 191.271 119.927 195.112C132.545 202.377 152.992 202.377 165.61 195.112C172.269 191.271 175.408 186.186 175.039 181.153H175.077V82.8538H175.065Z" fill="url(#paint23_linear)"/>
</g>
</g>
</g>
<defs>
<filter id="filter0_f" x="184.929" y="21" width="66.0989" height="148.203" filterUnits="userSpaceOnUse" color-interpolation-filters="sRGB">
<feFlood flood-opacity="0" result="BackgroundImageFix"/>
<feBlend mode="normal" in="SourceGraphic" in2="BackgroundImageFix" result="shape"/>
<feGaussianBlur stdDeviation="2" result="effect1_foregroundBlur"/>
</filter>
<filter id="filter1_f" x="187.687" y="32.7786" width="60.5838" height="134.885" filterUnits="userSpaceOnUse" color-interpolation-filters="sRGB">
<feFlood flood-opacity="0" result="BackgroundImageFix"/>
<feBlend mode="normal" in="SourceGraphic" in2="BackgroundImageFix" result="shape"/>
<feGaussianBlur stdDeviation="2" result="effect1_foregroundBlur"/>
</filter>
<filter id="filter2_f" x="100.734" y="74.6189" width="84.0758" height="136.009" filterUnits="userSpaceOnUse" color-interpolation-filters="sRGB">
<feFlood flood-opacity="0" result="BackgroundImageFix"/>
<feBlend mode="normal" in="SourceGraphic" in2="BackgroundImageFix" result="shape"/>
<feGaussianBlur stdDeviation="2" result="effect1_foregroundBlur"/>
</filter>
<filter id="filter3_f" x="106.469" y="78.8538" width="72.6087" height="125.707" filterUnits="userSpaceOnUse" color-interpolation-filters="sRGB">
<feFlood flood-opacity="0" result="BackgroundImageFix"/>
<feBlend mode="normal" in="SourceGraphic" in2="BackgroundImageFix" result="shape"/>
<feGaussianBlur stdDeviation="2" result="effect1_foregroundBlur"/>
</filter>
<linearGradient id="paint0_linear" x1="153.925" y1="349.25" x2="281.997" y2="349.25" gradientUnits="userSpaceOnUse">
<stop stop-color="#D4088C"/>
<stop offset="0.2258" stop-color="#D4088C"/>
<stop offset="0.5108" stop-color="#6EE1F8"/>
<stop offset="0.7796" stop-color="#6EE8FC"/>
<stop offset="1" stop-color="#6EE8FC"/>
</linearGradient>
<linearGradient id="paint1_linear" x1="153.869" y1="301.957" x2="285.203" y2="301.957" gradientUnits="userSpaceOnUse">
<stop stop-color="#A31FA9"/>
<stop offset="0.0668" stop-color="#8B17A0"/>
<stop offset="0.1494" stop-color="#740F98"/>
<stop offset="0.2393" stop-color="#640A92"/>
<stop offset="0.3408" stop-color="#5B078F"/>
<stop offset="0.4785" stop-color="#58068E"/>
<stop offset="0.6264" stop-color="#4D22A3"/>
<stop offset="0.9436" stop-color="#3168DA"/>
<stop offset="1" stop-color="#2C75E4"/>
</linearGradient>
<linearGradient id="paint2_linear" x1="163.181" y1="261.559" x2="264.264" y2="286.627" gradientUnits="userSpaceOnUse">
<stop stop-color="#8D139B"/>
<stop offset="0.1651" stop-color="#851BA1"/>
<stop offset="0.4284" stop-color="#6E33B2"/>
<stop offset="0.7551" stop-color="#4958CD"/>
<stop offset="1" stop-color="#2979E4"/>
</linearGradient>
<linearGradient id="paint3_linear" x1="177.178" y1="261.558" x2="252.433" y2="280.222" gradientUnits="userSpaceOnUse">
<stop stop-color="#630692"/>
<stop offset="0.2262" stop-color="#5B0E94"/>
<stop offset="0.587" stop-color="#432399"/>
<stop offset="1" stop-color="#2142A1"/>
</linearGradient>
<linearGradient id="paint4_linear" x1="153.869" y1="236.668" x2="285.203" y2="236.668" gradientUnits="userSpaceOnUse">
<stop stop-color="#A31FA9"/>
<stop offset="0.0668" stop-color="#8B17A0"/>
<stop offset="0.1494" stop-color="#740F98"/>
<stop offset="0.2393" stop-color="#640A92"/>
<stop offset="0.3408" stop-color="#5B078F"/>
<stop offset="0.4785" stop-color="#58068E"/>
<stop offset="0.6264" stop-color="#4D22A3"/>
<stop offset="0.9436" stop-color="#3168DA"/>
<stop offset="1" stop-color="#2C75E4"/>
</linearGradient>
<linearGradient id="paint5_linear" x1="153.868" y1="276.852" x2="285.203" y2="276.852" gradientUnits="userSpaceOnUse">
<stop stop-color="#D4088C"/>
<stop offset="0.2258" stop-color="#D4088C"/>
<stop offset="0.5108" stop-color="#6EE1F8"/>
<stop offset="0.7796" stop-color="#6EE8FC"/>
<stop offset="1" stop-color="#6EE8FC"/>
</linearGradient>
<linearGradient id="paint6_linear" x1="163.181" y1="196.271" x2="264.264" y2="221.34" gradientUnits="userSpaceOnUse">
<stop stop-color="#8D139B"/>
<stop offset="0.1651" stop-color="#851BA1"/>
<stop offset="0.4284" stop-color="#6E33B2"/>
<stop offset="0.7551" stop-color="#4958CD"/>
<stop offset="1" stop-color="#2979E4"/>
</linearGradient>
<linearGradient id="paint7_linear" x1="177.178" y1="196.27" x2="252.433" y2="214.934" gradientUnits="userSpaceOnUse">
<stop stop-color="#630692"/>
<stop offset="0.2262" stop-color="#5B0E94"/>
<stop offset="0.587" stop-color="#432399"/>
<stop offset="1" stop-color="#2142A1"/>
</linearGradient>
<linearGradient id="paint8_linear" x1="153.87" y1="171.38" x2="285.204" y2="171.38" gradientUnits="userSpaceOnUse">
<stop stop-color="#A31FA9"/>
<stop offset="0.0668" stop-color="#8B17A0"/>
<stop offset="0.1494" stop-color="#740F98"/>
<stop offset="0.2393" stop-color="#640A92"/>
<stop offset="0.3408" stop-color="#5B078F"/>
<stop offset="0.4785" stop-color="#58068E"/>
<stop offset="0.6264" stop-color="#4D22A3"/>
<stop offset="0.9436" stop-color="#3168DA"/>
<stop offset="1" stop-color="#2C75E4"/>
</linearGradient>
<linearGradient id="paint9_linear" x1="153.869" y1="211.564" x2="285.204" y2="211.564" gradientUnits="userSpaceOnUse">
<stop stop-color="#D4088C"/>
<stop offset="0.2258" stop-color="#D4088C"/>
<stop offset="0.5108" stop-color="#6EE1F8"/>
<stop offset="0.7796" stop-color="#6EE8FC"/>
<stop offset="1" stop-color="#6EE8FC"/>
</linearGradient>
<linearGradient id="paint10_linear" x1="163.181" y1="130.982" x2="264.264" y2="156.051" gradientUnits="userSpaceOnUse">
<stop stop-color="#8D139B"/>
<stop offset="0.1651" stop-color="#851BA1"/>
<stop offset="0.4284" stop-color="#6E33B2"/>
<stop offset="0.7551" stop-color="#4958CD"/>
<stop offset="1" stop-color="#2979E4"/>
</linearGradient>
<linearGradient id="paint11_linear" x1="177.178" y1="130.982" x2="252.433" y2="149.646" gradientUnits="userSpaceOnUse">
<stop stop-color="#630692"/>
<stop offset="0.2262" stop-color="#5B0E94"/>
<stop offset="0.587" stop-color="#432399"/>
<stop offset="1" stop-color="#2142A1"/>
</linearGradient>
<linearGradient id="paint12_linear" x1="217.978" y1="25" x2="217.978" y2="165.203" gradientUnits="userSpaceOnUse">
<stop stop-color="#6DE0F6" stop-opacity="0"/>
<stop offset="1" stop-color="#3040A3"/>
</linearGradient>
<linearGradient id="paint13_linear" x1="217.978" y1="36.7786" x2="217.978" y2="163.664" gradientUnits="userSpaceOnUse">
<stop stop-color="#6DE0F6" stop-opacity="0"/>
<stop offset="1" stop-color="#3040A3"/>
</linearGradient>
<linearGradient id="paint14_linear" x1="83.7989" y1="353.396" x2="202.831" y2="353.396" gradientUnits="userSpaceOnUse">
<stop stop-color="#A31FA9"/>
<stop offset="0.0668" stop-color="#8B17A0"/>
<stop offset="0.1494" stop-color="#740F98"/>
<stop offset="0.2393" stop-color="#640A92"/>
<stop offset="0.3408" stop-color="#5B078F"/>
<stop offset="0.4785" stop-color="#58068E"/>
<stop offset="0.6264" stop-color="#4D22A3"/>
<stop offset="0.9436" stop-color="#3168DA"/>
<stop offset="1" stop-color="#2C75E4"/>
</linearGradient>
<linearGradient id="paint15_linear" x1="101.232" y1="309.715" x2="143.177" y2="382.528" gradientUnits="userSpaceOnUse">
<stop stop-color="#8D139B"/>
<stop offset="0.1651" stop-color="#851BA1"/>
<stop offset="0.4284" stop-color="#6E33B2"/>
<stop offset="0.7551" stop-color="#4958CD"/>
<stop offset="1" stop-color="#2979E4"/>
</linearGradient>
<linearGradient id="paint16_linear" x1="83.7989" y1="305.546" x2="202.831" y2="305.546" gradientUnits="userSpaceOnUse">
<stop stop-color="#A31FA9"/>
<stop offset="0.0668" stop-color="#8B17A0"/>
<stop offset="0.1494" stop-color="#740F98"/>
<stop offset="0.2393" stop-color="#640A92"/>
<stop offset="0.3408" stop-color="#5B078F"/>
<stop offset="0.4785" stop-color="#58068E"/>
<stop offset="0.6264" stop-color="#4D22A3"/>
<stop offset="0.9436" stop-color="#3168DA"/>
<stop offset="1" stop-color="#2C75E4"/>
</linearGradient>
<linearGradient id="paint17_linear" x1="101.232" y1="261.865" x2="143.177" y2="334.678" gradientUnits="userSpaceOnUse">
<stop stop-color="#8D139B"/>
<stop offset="0.1651" stop-color="#851BA1"/>
<stop offset="0.4284" stop-color="#6E33B2"/>
<stop offset="0.7551" stop-color="#4958CD"/>
<stop offset="1" stop-color="#2979E4"/>
</linearGradient>
<linearGradient id="paint18_linear" x1="83.7989" y1="257.697" x2="202.831" y2="257.697" gradientUnits="userSpaceOnUse">
<stop stop-color="#A31FA9"/>
<stop offset="0.0668" stop-color="#8B17A0"/>
<stop offset="0.1494" stop-color="#740F98"/>
<stop offset="0.2393" stop-color="#640A92"/>
<stop offset="0.3408" stop-color="#5B078F"/>
<stop offset="0.4785" stop-color="#58068E"/>
<stop offset="0.6264" stop-color="#4D22A3"/>
<stop offset="0.9436" stop-color="#3168DA"/>
<stop offset="1" stop-color="#2C75E4"/>
</linearGradient>
<linearGradient id="paint19_linear" x1="101.232" y1="214.015" x2="143.177" y2="286.828" gradientUnits="userSpaceOnUse">
<stop stop-color="#8D139B"/>
<stop offset="0.1651" stop-color="#851BA1"/>
<stop offset="0.4284" stop-color="#6E33B2"/>
<stop offset="0.7551" stop-color="#4958CD"/>
<stop offset="1" stop-color="#2979E4"/>
</linearGradient>
<linearGradient id="paint20_linear" x1="83.5378" y1="204.161" x2="202.57" y2="204.161" gradientUnits="userSpaceOnUse">
<stop stop-color="#A31FA9"/>
<stop offset="0.0668" stop-color="#8B17A0"/>
<stop offset="0.1494" stop-color="#740F98"/>
<stop offset="0.2393" stop-color="#640A92"/>
<stop offset="0.3408" stop-color="#5B078F"/>
<stop offset="0.4785" stop-color="#58068E"/>
<stop offset="0.6264" stop-color="#4D22A3"/>
<stop offset="0.9436" stop-color="#3168DA"/>
<stop offset="1" stop-color="#2C75E4"/>
</linearGradient>
<linearGradient id="paint21_linear" x1="100.971" y1="160.48" x2="142.915" y2="233.293" gradientUnits="userSpaceOnUse">
<stop stop-color="#8D139B"/>
<stop offset="0.1651" stop-color="#851BA1"/>
<stop offset="0.4284" stop-color="#6E33B2"/>
<stop offset="0.7551" stop-color="#4958CD"/>
<stop offset="1" stop-color="#2979E4"/>
</linearGradient>
<linearGradient id="paint22_linear" x1="142.772" y1="78.6189" x2="142.772" y2="206.628" gradientUnits="userSpaceOnUse">
<stop stop-color="#6DE0F6" stop-opacity="0"/>
<stop offset="1" stop-color="#3040A3"/>
</linearGradient>
<linearGradient id="paint23_linear" x1="142.773" y1="82.8538" x2="142.773" y2="200.561" gradientUnits="userSpaceOnUse">
<stop stop-color="#6DE0F6" stop-opacity="0"/>
<stop offset="1" stop-color="#3040A3"/>
</linearGradient>
<clipPath id="clip0">
<rect width="365" height="324" fill="white"/>
</clipPath>
<clipPath id="clip1">
<rect width="199" height="397" fill="white" transform="translate(83 25)"/>
</clipPath>
</defs>
</svg>
